GM1_counts, GM2_counts, GM3_counts, GM4_counts, Black Flag Angle, time (s), Measurement Started at 10:21:38
122, 225, 408, 933, -44, 60
116, 251, 542, 1085, -40, 60
154, 311, 621, 1219, -36, 60
172, 320, 691, 1360, -32, 60
225, 438, 871, 1575, -28, 60
248, 496, 1096, 1566, -24, 60
287, 613, 1273, 1388, -20, 60
321, 730, 1424, 1347, -16, 60
386, 885, 1518, 1241, -12, 60
479, 1082, 1554, 1130, -8, 60
590, 1151, 1509, 958, -4, 60
736, 1336, 1482, 804, 0, 60
836, 1439, 1318, 586, 4, 60
937, 1468, 1110, 523, 8, 60
1154, 1419, 969, 453, 12, 60
1287, 1387, 850, 384, 16, 60
1379, 1238, 647, 311, 20, 60
1436, 1005, 529, 284, 24, 60
1395, 890, 443, 226, 28, 60
1250, 769, 337, 192, 32, 60
1189, 620, 302, 164, 36, 60
1032, 512, 263, 142, 40, 60
870, 385, 241, 132, 44, 60
