GM1_counts, GM2_counts, GM3_counts, GM4_counts, Black Flag Angle, time (s), Measurement Started at 11:3:33
203, 340, 555, 880, -44, 90
226, 380, 642, 918, -40, 90
252, 381, 666, 988, -36, 90
297, 477, 833, 1134, -32, 90
342, 514, 840, 1217, -28, 90
335, 621, 945, 1128, -24, 90
383, 718, 1072, 1132, -20, 90
439, 794, 1067, 1096, -16, 90
531, 825, 1160, 1025, -12, 90
643, 911, 1060, 945, -8, 90
602, 975, 1107, 892, -4, 90
690, 1032, 1112, 821, 0, 90
811, 1083, 1039, 707, 4, 90
849, 1088, 948, 659, 8, 90
945, 1072, 858, 596, 12, 90
973, 1057, 774, 525, 16, 90
1034, 1000, 754, 435, 20, 90
1031, 899, 632, 426, 24, 90
1047, 828, 547, 383, 28, 90
928, 760, 464, 290, 32, 90
900, 666, 463, 260, 36, 90
821, 565, 405, 185, 40, 90
714, 523, 365, 181, 44, 90
