voltage, voltage_on_led, voltage_on_resistor 
1.40, 1.42, -0.00
1.40, 1.42, -0.00
1.40, 1.42, -0.00
1.40, 1.42, -0.00
1.40, 1.42, -0.00
1.41, 1.42, -0.00
1.41, 1.42, -0.00
1.41, 1.42, -0.00
1.41, 1.43, -0.00
1.41, 1.43, -0.00
1.41, 1.43, -0.00
1.41, 1.43, -0.00
1.41, 1.43, -0.00
1.41, 1.43, -0.00
1.42, 1.43, -0.00
1.42, 1.43, -0.00
1.42, 1.43, -0.00
1.42, 1.44, -0.00
1.42, 1.44, -0.00
1.42, 1.44, -0.00
1.42, 1.44, -0.00
1.40, 1.42, -0.00
1.40, 1.42, -0.00
1.40, 1.42, -0.00
1.40, 1.42, -0.00
1.40, 1.42, -0.00
1.41, 1.42, -0.00
1.41, 1.42, -0.00
1.41, 1.42, -0.00
1.41, 1.43, -0.00
1.41, 1.43, -0.00
1.41, 1.43, -0.00
1.41, 1.43, -0.00
1.41, 1.43, -0.00
1.41, 1.43, -0.00
1.42, 1.43, -0.00
1.42, 1.43, -0.00
1.42, 1.43, -0.00
1.42, 1.44, -0.00
1.42, 1.44, -0.00
1.42, 1.44, -0.00
1.42, 1.44, -0.00
1.42, 1.44, -0.00
1.43, 1.44, -0.00
1.43, 1.44, -0.00
1.43, 1.44, -0.00
1.43, 1.45, -0.00
1.43, 1.45, -0.00
1.43, 1.45, -0.00
1.43, 1.45, -0.00
1.43, 1.45, -0.00
1.44, 1.45, -0.00
1.44, 1.45, -0.00
1.44, 1.45, -0.00
1.44, 1.45, -0.00
1.44, 1.46, -0.00
1.44, 1.46, -0.00
1.44, 1.46, -0.00
1.44, 1.46, -0.00
1.45, 1.46, -0.00
1.45, 1.46, -0.00
1.45, 1.46, -0.00
1.45, 1.46, -0.00
1.45, 1.46, -0.00
1.45, 1.47, -0.00
1.45, 1.47, -0.00
1.45, 1.47, -0.00
1.46, 1.47, -0.00
1.46, 1.47, -0.00
1.46, 1.47, -0.00
1.46, 1.47, -0.00
1.46, 1.47, -0.00
1.46, 1.48, -0.00
1.46, 1.48, -0.00
1.46, 1.48, -0.00
1.46, 1.48, -0.00
1.47, 1.48, -0.00
1.47, 1.48, -0.00
1.47, 1.48, -0.00
1.47, 1.48, -0.00
1.47, 1.49, -0.00
1.47, 1.49, -0.00
1.47, 1.49, -0.00
1.47, 1.49, -0.00
1.48, 1.49, -0.00
1.48, 1.49, -0.00
1.48, 1.49, -0.00
1.48, 1.49, -0.00
1.48, 1.49, -0.00
1.48, 1.50, -0.00
1.48, 1.50, -0.00
1.48, 1.50, -0.00
1.49, 1.50, -0.00
1.49, 1.50, -0.00
1.49, 1.50, -0.00
1.49, 1.50, -0.00
1.49, 1.50, -0.00
1.49, 1.51, -0.00
1.49, 1.51, -0.00
1.49, 1.51, -0.00
1.50, 1.51, -0.00
1.50, 1.51, -0.00
1.50, 1.51, -0.00
1.50, 1.51, -0.00
1.50, 1.51, -0.00
1.50, 1.52, -0.00
1.50, 1.52, -0.00
1.50, 1.52, -0.00
1.51, 1.52, -0.00
1.51, 1.52, -0.00
1.51, 1.52, -0.00
1.51, 1.52, -0.00
1.51, 1.52, -0.00
1.51, 1.53, -0.00
1.51, 1.53, -0.00
1.51, 1.53, -0.00
1.51, 1.53, -0.00
1.52, 1.53, -0.00
1.52, 1.53, -0.00
1.52, 1.53, -0.00
1.52, 1.53, -0.00
1.52, 1.54, -0.00
1.52, 1.54, -0.00
1.52, 1.54, -0.00
1.52, 1.54, -0.00
1.53, 1.54, -0.00
1.53, 1.54, -0.00
1.53, 1.54, -0.00
1.53, 1.54, -0.00
1.53, 1.55, -0.00
1.53, 1.55, -0.00
1.53, 1.55, -0.00
1.53, 1.55, -0.00
1.54, 1.55, -0.00
1.54, 1.55, -0.00
1.54, 1.55, -0.00
1.54, 1.55, -0.00
1.54, 1.56, -0.00
1.54, 1.56, -0.00
1.54, 1.56, -0.00
1.54, 1.56, -0.00
1.55, 1.56, -0.00
1.55, 1.56, -0.00
1.55, 1.56, -0.00
1.55, 1.57, -0.00
1.55, 1.57, -0.00
1.55, 1.57, -0.00
1.55, 1.57, -0.00
1.55, 1.57, -0.00
1.56, 1.57, -0.00
1.56, 1.57, -0.00
1.56, 1.57, -0.00
1.56, 1.58, -0.00
1.56, 1.58, -0.00
1.56, 1.58, -0.00
1.56, 1.58, -0.00
1.56, 1.58, -0.00
1.56, 1.58, -0.00
1.57, 1.58, -0.00
1.57, 1.58, -0.00
1.57, 1.59, -0.00
1.57, 1.59, -0.00
1.57, 1.59, -0.00
1.57, 1.59, -0.00
1.57, 1.59, -0.00
1.57, 1.59, -0.00
1.58, 1.59, -0.00
1.58, 1.59, -0.00
1.58, 1.59, -0.00
1.58, 1.60, -0.00
1.58, 1.60, -0.00
1.58, 1.60, -0.00
1.58, 1.60, -0.00
1.58, 1.60, -0.00
1.59, 1.60, -0.00
1.59, 1.60, -0.00
1.59, 1.60, -0.00
1.59, 1.61, -0.00
1.59, 1.61, -0.00
1.59, 1.61, -0.00
1.59, 1.61, -0.00
1.59, 1.61, -0.00
1.60, 1.61, -0.00
1.60, 1.61, -0.00
1.60, 1.61, -0.00
1.60, 1.61, -0.00
1.60, 1.62, -0.00
1.60, 1.62, -0.00
1.60, 1.62, -0.00
1.60, 1.62, -0.00
1.61, 1.62, -0.00
1.61, 1.62, -0.00
1.61, 1.62, -0.00
1.61, 1.62, -0.00
1.61, 1.62, -0.00
1.61, 1.63, -0.00
1.61, 1.63, -0.00
1.61, 1.63, -0.00
1.61, 1.63, -0.00
1.62, 1.63, -0.00
1.62, 1.63, -0.00
1.62, 1.63, -0.00
1.62, 1.63, -0.00
1.62, 1.64, -0.00
1.62, 1.64, -0.00
1.62, 1.64, -0.00
1.62, 1.64, -0.00
1.63, 1.64, -0.00
1.63, 1.64, -0.00
1.63, 1.64, -0.00
1.63, 1.64, -0.00
1.63, 1.64, -0.00
1.63, 1.65, -0.00
1.63, 1.65, -0.00
1.63, 1.65, -0.00
1.64, 1.65, -0.00
1.64, 1.65, -0.00
1.64, 1.65, -0.00
1.64, 1.65, -0.00
1.64, 1.65, -0.00
1.64, 1.66, -0.00
1.64, 1.66, -0.00
1.64, 1.66, -0.00
1.65, 1.66, -0.00
1.65, 1.66, -0.00
1.65, 1.66, -0.00
1.65, 1.66, -0.00
1.65, 1.66, -0.00
1.65, 1.67, -0.00
1.65, 1.67, -0.00
1.65, 1.67, -0.00
1.66, 1.67, -0.00
1.66, 1.67, -0.00
1.66, 1.67, -0.00
1.66, 1.67, -0.00
1.66, 1.67, -0.00
1.66, 1.68, -0.00
1.66, 1.68, -0.00
1.66, 1.68, -0.00
1.67, 1.68, -0.00
1.67, 1.68, -0.00
1.67, 1.68, -0.00
1.67, 1.68, -0.00
1.67, 1.69, -0.00
1.67, 1.69, -0.00
1.67, 1.69, -0.00
1.67, 1.69, -0.00
1.67, 1.69, -0.00
1.68, 1.69, -0.00
1.68, 1.69, -0.00
1.68, 1.69, -0.00
1.68, 1.70, -0.00
1.68, 1.70, -0.00
1.68, 1.70, -0.00
1.68, 1.70, -0.00
1.68, 1.70, -0.00
1.69, 1.70, -0.00
1.69, 1.70, -0.00
1.69, 1.71, -0.00
1.69, 1.71, -0.00
1.69, 1.71, -0.00
1.69, 1.71, -0.00
1.69, 1.71, -0.00
1.69, 1.71, -0.00
1.70, 1.71, -0.00
1.70, 1.71, -0.00
1.70, 1.72, -0.00
1.70, 1.72, -0.00
1.70, 1.72, -0.00
1.70, 1.72, -0.00
1.70, 1.72, -0.00
1.70, 1.72, -0.00
1.71, 1.72, -0.00
1.71, 1.72, -0.00
1.71, 1.73, -0.00
1.71, 1.73, -0.00
1.71, 1.73, -0.00
1.71, 1.73, -0.00
1.71, 1.73, -0.00
1.71, 1.73, -0.00
1.72, 1.73, -0.00
1.72, 1.74, -0.00
1.72, 1.74, -0.00
1.72, 1.74, -0.00
1.72, 1.74, -0.00
1.72, 1.74, -0.00
1.72, 1.74, -0.00
1.72, 1.74, -0.00
1.72, 1.74, -0.00
1.73, 1.74, -0.00
1.73, 1.75, -0.00
1.73, 1.75, -0.00
1.73, 1.75, -0.00
1.73, 1.75, -0.00
1.73, 1.75, -0.00
1.73, 1.75, -0.00
1.73, 1.75, -0.00
1.74, 1.75, -0.00
1.74, 1.75, -0.00
1.74, 1.76, -0.00
1.74, 1.76, -0.00
1.74, 1.76, -0.00
1.74, 1.76, -0.00
1.74, 1.76, -0.00
1.74, 1.76, -0.00
1.75, 1.76, -0.00
1.75, 1.76, -0.00
1.75, 1.77, -0.00
1.75, 1.77, -0.00
1.75, 1.77, -0.00
1.75, 1.77, -0.00
1.75, 1.77, -0.00
1.75, 1.77, -0.00
1.76, 1.77, -0.00
1.76, 1.77, -0.00
1.76, 1.77, -0.00
1.76, 1.78, -0.00
1.76, 1.78, -0.00
1.76, 1.78, -0.00
1.76, 1.78, -0.00
1.76, 1.78, -0.00
1.77, 1.78, -0.00
1.77, 1.78, -0.00
1.77, 1.78, -0.00
1.77, 1.78, -0.00
1.77, 1.79, -0.00
1.77, 1.79, -0.00
1.77, 1.79, -0.00
1.77, 1.79, -0.00
1.77, 1.79, -0.00
1.78, 1.79, -0.00
1.78, 1.79, -0.00
1.78, 1.79, -0.00
1.78, 1.80, -0.00
1.78, 1.80, -0.00
1.78, 1.80, -0.00
1.78, 1.80, -0.00
1.78, 1.80, -0.00
1.79, 1.80, -0.00
1.79, 1.80, -0.00
1.79, 1.80, -0.00
1.79, 1.80, -0.00
1.79, 1.81, -0.00
1.79, 1.81, -0.00
1.79, 1.81, -0.00
1.79, 1.81, -0.00
1.80, 1.81, -0.00
1.80, 1.81, -0.00
1.80, 1.81, -0.00
1.80, 1.81, -0.00
1.80, 1.82, -0.00
1.80, 1.82, -0.00
1.80, 1.82, -0.00
1.80, 1.82, -0.00
1.81, 1.82, -0.00
1.81, 1.82, -0.00
1.81, 1.82, -0.00
1.81, 1.82, -0.00
1.81, 1.83, -0.00
1.81, 1.83, -0.00
1.81, 1.83, -0.00
1.81, 1.83, -0.00
1.82, 1.83, -0.00
1.82, 1.83, -0.00
1.82, 1.83, -0.00
1.82, 1.84, -0.00
1.82, 1.84, -0.00
1.82, 1.84, -0.00
1.82, 1.84, -0.00
1.82, 1.84, -0.00
1.82, 1.84, -0.00
1.83, 1.84, -0.00
1.83, 1.84, -0.00
1.83, 1.85, -0.00
1.83, 1.85, -0.00
1.83, 1.85, -0.00
1.83, 1.85, -0.00
1.83, 1.85, -0.00
1.83, 1.85, -0.00
1.84, 1.85, -0.00
1.84, 1.85, -0.00
1.84, 1.86, -0.00
1.84, 1.86, -0.00
1.84, 1.86, -0.00
1.84, 1.86, -0.00
1.84, 1.86, -0.00
1.84, 1.86, -0.00
1.85, 1.86, -0.00
1.85, 1.87, -0.00
1.85, 1.87, -0.00
1.85, 1.87, -0.00
1.85, 1.87, -0.00
1.85, 1.87, -0.00
1.85, 1.87, -0.00
1.85, 1.87, -0.00
1.86, 1.87, -0.00
1.86, 1.88, -0.00
1.86, 1.88, -0.00
1.86, 1.88, -0.00
1.86, 1.88, -0.00
1.86, 1.88, -0.00
1.86, 1.88, -0.00
1.86, 1.88, -0.00
1.87, 1.88, -0.00
1.87, 1.89, -0.00
1.87, 1.89, -0.00
1.87, 1.89, -0.00
1.87, 1.89, -0.00
1.87, 1.89, -0.00
1.87, 1.89, -0.00
1.87, 1.89, -0.00
1.88, 1.90, -0.00
1.88, 1.90, -0.00
1.88, 1.90, -0.00
1.88, 1.90, -0.00
1.88, 1.90, -0.00
1.88, 1.90, -0.00
1.88, 1.90, -0.00
1.88, 1.90, -0.00
1.88, 1.90, -0.00
1.89, 1.91, -0.00
1.89, 1.91, -0.00
1.89, 1.91, -0.00
1.89, 1.91, -0.00
1.89, 1.91, -0.00
1.89, 1.91, -0.00
1.89, 1.91, -0.00
1.89, 1.91, -0.00
1.90, 1.92, -0.00
1.90, 1.92, -0.00
1.90, 1.92, -0.00
1.90, 1.92, -0.00
1.90, 1.92, -0.00
1.90, 1.92, -0.00
1.90, 1.92, -0.00
1.90, 1.92, -0.00
1.91, 1.92, -0.00
1.91, 1.93, -0.00
1.91, 1.93, -0.00
1.91, 1.93, -0.00
1.91, 1.93, -0.00
1.91, 1.93, -0.00
1.91, 1.93, -0.00
1.91, 1.93, -0.00
1.92, 1.93, -0.00
1.92, 1.94, -0.00
1.92, 1.94, -0.00
1.92, 1.94, -0.00
1.92, 1.94, -0.00
1.92, 1.94, -0.00
1.92, 1.94, -0.00
1.92, 1.94, -0.00
1.93, 1.94, -0.00
1.93, 1.94, -0.00
1.93, 1.95, -0.00
1.93, 1.95, -0.00
1.93, 1.95, -0.00
1.93, 1.95, -0.00
1.93, 1.95, -0.00
1.93, 1.95, -0.00
1.93, 1.95, -0.00
1.94, 1.95, -0.00
1.94, 1.96, -0.00
1.94, 1.96, -0.00
1.94, 1.96, -0.00
1.94, 1.96, -0.00
1.94, 1.96, -0.00
1.94, 1.96, -0.00
1.94, 1.96, -0.00
1.95, 1.96, -0.00
1.95, 1.96, -0.00
1.95, 1.97, -0.00
1.95, 1.97, -0.00
1.95, 1.97, -0.00
1.95, 1.97, -0.00
1.95, 1.97, -0.00
1.95, 1.97, -0.00
1.96, 1.97, -0.00
1.96, 1.97, -0.00
1.96, 1.98, -0.00
1.96, 1.98, -0.00
1.96, 1.98, -0.00
1.96, 1.98, -0.00
1.96, 1.98, -0.00
1.96, 1.98, -0.00
1.97, 1.98, -0.00
1.97, 1.98, -0.00
1.97, 1.99, -0.00
1.97, 1.99, -0.00
1.97, 1.99, -0.00
1.97, 1.99, -0.00
1.97, 1.99, -0.00
1.97, 1.99, -0.00
1.98, 1.99, -0.00
1.98, 2.00, -0.00
1.98, 2.00, -0.00
1.98, 2.00, -0.00
1.98, 2.00, -0.00
1.98, 2.00, -0.00
1.98, 2.00, -0.00
1.98, 2.00, -0.00
1.98, 2.00, -0.00
1.99, 2.01, -0.00
1.99, 2.01, -0.00
1.99, 2.01, -0.00
1.99, 2.01, -0.00
1.99, 2.01, -0.00
1.99, 2.01, -0.00
1.99, 2.01, -0.00
1.99, 2.01, -0.00
2.00, 2.02, -0.00
2.00, 2.02, -0.00
2.00, 2.02, -0.00
2.00, 2.02, -0.00
2.00, 2.02, -0.00
2.00, 2.02, -0.00
2.00, 2.02, -0.00
2.00, 2.02, -0.00
2.01, 2.03, -0.00
2.01, 2.03, -0.00
2.01, 2.03, -0.00
2.01, 2.03, -0.00
2.01, 2.03, -0.00
2.01, 2.03, -0.00
2.01, 2.03, -0.00
2.01, 2.03, -0.00
2.02, 2.04, -0.00
2.02, 2.04, -0.00
2.02, 2.04, -0.00
2.02, 2.04, -0.00
2.02, 2.04, -0.00
2.02, 2.04, -0.00
2.02, 2.04, -0.00
2.02, 2.04, -0.00
2.03, 2.05, -0.00
2.03, 2.05, -0.00
2.03, 2.05, -0.00
2.03, 2.05, -0.00
2.03, 2.05, -0.00
2.03, 2.05, -0.00
2.03, 2.05, -0.00
2.03, 2.06, -0.00
2.03, 2.06, -0.00
2.04, 2.06, -0.00
2.04, 2.06, -0.00
2.04, 2.06, -0.00
2.04, 2.06, -0.00
2.04, 2.06, -0.00
2.04, 2.06, -0.00
2.04, 2.06, -0.00
2.04, 2.07, -0.00
2.05, 2.07, -0.00
2.05, 2.07, -0.00
2.05, 2.07, -0.00
2.05, 2.07, -0.00
2.05, 2.07, -0.00
2.05, 2.07, -0.00
2.05, 2.07, -0.00
2.05, 2.07, -0.00
2.06, 2.08, -0.00
2.06, 2.08, -0.00
2.06, 2.08, -0.00
2.06, 2.08, -0.00
2.06, 2.08, -0.00
2.06, 2.08, -0.00
2.06, 2.08, -0.00
2.06, 2.08, -0.00
2.07, 2.08, -0.00
2.07, 2.09, -0.00
2.07, 2.09, -0.00
2.07, 2.09, -0.00
2.07, 2.09, -0.00
2.07, 2.09, -0.00
2.07, 2.09, -0.00
2.07, 2.09, -0.00
2.08, 2.09, -0.00
2.08, 2.10, -0.00
2.08, 2.10, -0.00
2.08, 2.10, -0.00
2.08, 2.10, -0.00
2.08, 2.10, -0.00
2.08, 2.10, -0.00
2.08, 2.10, -0.00
2.08, 2.10, -0.00
2.09, 2.10, -0.00
2.09, 2.11, -0.00
2.09, 2.11, -0.00
2.09, 2.11, -0.00
2.09, 2.11, -0.00
2.09, 2.11, -0.00
2.09, 2.11, -0.00
2.09, 2.11, -0.00
2.10, 2.11, -0.00
2.10, 2.11, -0.00
2.10, 2.12, -0.00
2.10, 2.12, -0.00
2.10, 2.12, -0.00
2.10, 2.12, -0.00
2.10, 2.12, -0.00
2.10, 2.12, -0.00
2.11, 2.12, -0.00
2.11, 2.12, -0.00
2.11, 2.13, -0.00
2.11, 2.13, -0.00
2.11, 2.13, -0.00
2.11, 2.13, -0.00
2.11, 2.13, -0.00
2.11, 2.13, -0.00
2.12, 2.13, -0.00
2.12, 2.13, -0.00
2.12, 2.13, -0.00
2.12, 2.14, -0.00
2.12, 2.14, -0.00
2.12, 2.14, -0.00
2.12, 2.14, -0.00
2.12, 2.14, -0.00
2.13, 2.14, -0.00
2.13, 2.14, -0.00
2.13, 2.15, -0.00
2.13, 2.15, -0.00
2.13, 2.15, -0.00
2.13, 2.15, -0.00
2.13, 2.15, -0.00
2.13, 2.15, -0.00
2.14, 2.15, -0.00
2.14, 2.15, -0.00
2.14, 2.16, -0.00
2.14, 2.16, -0.00
2.14, 2.16, -0.00
2.14, 2.16, -0.00
2.14, 2.16, -0.00
2.14, 2.16, -0.00
2.14, 2.16, -0.00
2.15, 2.16, -0.00
2.15, 2.17, -0.00
2.15, 2.17, -0.00
2.15, 2.17, -0.00
2.15, 2.17, -0.00
2.15, 2.17, -0.00
2.15, 2.17, -0.00
2.15, 2.17, -0.00
2.16, 2.17, -0.00
2.16, 2.18, -0.00
2.16, 2.18, -0.00
2.16, 2.18, -0.00
2.16, 2.18, -0.00
2.16, 2.18, -0.00
2.16, 2.18, -0.00
2.16, 2.18, -0.00
2.17, 2.19, -0.00
2.17, 2.19, -0.00
2.17, 2.19, -0.00
2.17, 2.19, -0.00
2.17, 2.19, -0.00
2.17, 2.19, -0.00
2.17, 2.19, -0.00
2.17, 2.19, -0.00
2.18, 2.20, -0.00
2.18, 2.20, -0.00
2.18, 2.20, -0.00
2.18, 2.20, -0.00
2.18, 2.20, -0.00
2.18, 2.20, -0.00
2.18, 2.20, -0.00
2.18, 2.20, -0.00
2.19, 2.21, -0.00
2.19, 2.21, -0.00
2.19, 2.21, -0.00
2.19, 2.21, -0.00
2.19, 2.21, -0.00
2.19, 2.21, -0.00
2.19, 2.21, -0.00
2.19, 2.21, -0.00
2.19, 2.22, -0.00
2.20, 2.22, -0.00
2.20, 2.22, -0.00
2.20, 2.22, -0.00
2.20, 2.22, -0.00
2.20, 2.22, -0.00
2.20, 2.22, -0.00
2.20, 2.22, -0.00
2.20, 2.22, -0.00
2.21, 2.23, -0.00
2.21, 2.23, -0.00
2.21, 2.23, -0.00
2.21, 2.23, -0.00
2.21, 2.23, -0.00
2.21, 2.23, -0.00
2.21, 2.23, -0.00
2.21, 2.23, -0.00
2.22, 2.24, -0.00
2.22, 2.24, -0.00
2.22, 2.24, -0.00
2.22, 2.24, -0.00
2.22, 2.24, -0.00
2.22, 2.24, -0.00
2.22, 2.24, -0.00
2.22, 2.24, -0.00
2.23, 2.24, -0.00
2.23, 2.25, -0.00
2.23, 2.25, -0.00
2.23, 2.25, -0.00
2.23, 2.25, -0.00
2.23, 2.25, -0.00
2.23, 2.25, -0.00
2.23, 2.25, -0.00
2.24, 2.25, -0.00
2.24, 2.26, -0.00
2.24, 2.26, -0.00
2.24, 2.26, -0.00
2.24, 2.26, -0.00
2.24, 2.26, -0.00
2.24, 2.26, -0.00
2.24, 2.26, -0.00
2.24, 2.26, -0.00
2.25, 2.26, -0.00
2.25, 2.27, -0.00
2.25, 2.27, -0.00
2.25, 2.27, -0.00
2.25, 2.27, -0.00
2.25, 2.27, -0.00
2.25, 2.27, -0.00
2.25, 2.27, -0.00
2.26, 2.27, -0.00
2.26, 2.28, -0.00
2.26, 2.28, -0.00
2.26, 2.28, -0.00
2.26, 2.28, -0.00
2.26, 2.28, -0.00
2.26, 2.28, -0.00
2.26, 2.28, -0.00
2.27, 2.28, -0.00
2.27, 2.28, -0.00
2.27, 2.29, -0.00
2.27, 2.29, -0.00
2.27, 2.29, -0.00
2.27, 2.29, -0.00
2.27, 2.29, -0.00
2.27, 2.29, -0.00
2.28, 2.29, -0.00
2.28, 2.29, -0.00
2.28, 2.30, -0.00
2.28, 2.30, -0.00
2.28, 2.30, -0.00
2.28, 2.30, -0.00
2.28, 2.30, -0.00
2.28, 2.30, -0.00
2.29, 2.30, -0.00
2.29, 2.31, -0.00
2.29, 2.31, -0.00
2.29, 2.31, -0.00
2.29, 2.31, -0.00
2.29, 2.31, -0.00
2.29, 2.31, -0.00
2.29, 2.31, -0.00
2.29, 2.31, -0.00
2.30, 2.31, -0.00
2.30, 2.32, -0.00
2.30, 2.32, -0.00
2.30, 2.32, -0.00
2.30, 2.32, -0.00
2.30, 2.32, -0.00
2.30, 2.32, -0.00
2.30, 2.32, -0.00
2.31, 2.33, -0.00
2.31, 2.33, -0.00
2.31, 2.33, -0.00
2.31, 2.33, -0.00
2.31, 2.33, -0.00
2.31, 2.33, 0.00
2.31, 2.33, 0.00
2.31, 2.33, 0.00
2.32, 2.34, 0.00
2.32, 2.34, 0.00
2.32, 2.34, 0.00
2.32, 2.34, 0.00
2.32, 2.34, 0.00
2.32, 2.34, 0.00
2.32, 2.34, 0.00
2.32, 2.34, 0.00
2.33, 2.34, 0.00
2.33, 2.35, 0.00
2.33, 2.35, 0.00
2.33, 2.35, 0.00
2.33, 2.35, 0.00
2.33, 2.35, 0.00
2.33, 2.35, 0.00
2.33, 2.35, 0.00
2.34, 2.35, 0.00
2.34, 2.36, 0.00
2.34, 2.36, 0.00
2.34, 2.36, 0.00
2.34, 2.36, 0.00
2.34, 2.36, 0.00
2.34, 2.36, 0.00
2.34, 2.36, 0.00
2.34, 2.36, 0.00
2.35, 2.37, 0.00
2.35, 2.37, 0.00
2.35, 2.37, 0.00
2.35, 2.37, 0.00
2.35, 2.37, 0.00
2.35, 2.37, 0.00
2.35, 2.37, 0.00
2.35, 2.37, 0.00
2.36, 2.37, 0.00
2.36, 2.37, 0.00
2.36, 2.38, 0.00
2.36, 2.38, 0.00
2.36, 2.38, 0.00
2.36, 2.38, 0.00
2.36, 2.38, 0.00
2.36, 2.38, 0.00
2.37, 2.38, 0.00
2.37, 2.38, 0.00
2.37, 2.38, 0.00
2.37, 2.39, 0.00
2.37, 2.39, 0.00
2.37, 2.39, 0.00
2.37, 2.39, 0.00
2.37, 2.39, 0.00
2.38, 2.39, 0.00
2.38, 2.39, 0.00
2.38, 2.39, 0.00
2.38, 2.39, 0.00
2.38, 2.39, 0.00
2.38, 2.40, 0.01
2.38, 2.40, 0.01
2.38, 2.40, 0.01
2.39, 2.40, 0.01
2.39, 2.40, 0.01
2.39, 2.40, 0.01
2.39, 2.40, 0.01
2.39, 2.40, 0.01
2.39, 2.40, 0.01
2.39, 2.40, 0.01
2.39, 2.40, 0.01
2.40, 2.41, 0.01
2.40, 2.41, 0.01
2.40, 2.41, 0.01
2.40, 2.41, 0.01
2.40, 2.41, 0.01
2.40, 2.41, 0.01
2.40, 2.41, 0.01
2.40, 2.41, 0.01
2.40, 2.41, 0.01
2.41, 2.41, 0.01
2.41, 2.41, 0.01
2.41, 2.42, 0.01
2.41, 2.42, 0.01
2.41, 2.42, 0.01
2.41, 2.42, 0.01
2.41, 2.42, 0.01
2.41, 2.42, 0.01
2.42, 2.42, 0.01
2.42, 2.42, 0.01
2.42, 2.42, 0.01
2.42, 2.42, 0.01
2.42, 2.42, 0.01
2.42, 2.42, 0.01
2.42, 2.43, 0.01
2.42, 2.43, 0.01
2.43, 2.43, 0.01
2.43, 2.43, 0.02
2.43, 2.43, 0.02
2.43, 2.43, 0.02
2.43, 2.43, 0.02
2.43, 2.43, 0.02
2.43, 2.43, 0.02
2.43, 2.43, 0.02
2.44, 2.43, 0.02
2.44, 2.44, 0.02
2.44, 2.44, 0.02
2.44, 2.44, 0.02
2.44, 2.44, 0.02
2.44, 2.44, 0.02
2.44, 2.44, 0.02
2.44, 2.44, 0.02
2.45, 2.44, 0.02
2.45, 2.44, 0.02
2.45, 2.44, 0.02
2.45, 2.44, 0.02
2.45, 2.44, 0.02
2.45, 2.45, 0.02
2.45, 2.45, 0.03
2.45, 2.45, 0.03
2.45, 2.45, 0.03
2.46, 2.45, 0.03
2.46, 2.45, 0.03
2.46, 2.45, 0.03
2.46, 2.45, 0.03
2.46, 2.45, 0.03
2.46, 2.45, 0.03
2.46, 2.45, 0.03
2.46, 2.45, 0.03
2.47, 2.45, 0.03
2.47, 2.45, 0.03
2.47, 2.46, 0.03
2.47, 2.46, 0.03
2.47, 2.46, 0.03
2.47, 2.46, 0.04
2.47, 2.46, 0.04
2.47, 2.46, 0.04
2.48, 2.46, 0.04
2.48, 2.46, 0.04
2.48, 2.46, 0.04
2.48, 2.46, 0.04
2.48, 2.46, 0.04
2.48, 2.46, 0.04
2.48, 2.46, 0.04
2.48, 2.46, 0.04
2.49, 2.46, 0.04
2.49, 2.47, 0.04
2.49, 2.47, 0.04
2.49, 2.47, 0.05
2.49, 2.47, 0.05
2.49, 2.47, 0.05
2.49, 2.47, 0.05
2.49, 2.47, 0.05
2.50, 2.47, 0.05
2.50, 2.47, 0.05
2.50, 2.47, 0.05
2.50, 2.47, 0.05
2.50, 2.47, 0.05
2.50, 2.47, 0.05
2.50, 2.47, 0.05
2.50, 2.47, 0.05
2.50, 2.47, 0.06
2.51, 2.47, 0.06
2.51, 2.47, 0.06
2.51, 2.47, 0.06
2.51, 2.47, 0.06
2.51, 2.48, 0.06
2.51, 2.48, 0.06
2.51, 2.48, 0.06
2.51, 2.48, 0.06
2.52, 2.48, 0.06
2.52, 2.48, 0.06
2.52, 2.48, 0.06
2.52, 2.48, 0.06
2.52, 2.48, 0.06
2.52, 2.48, 0.07
2.52, 2.48, 0.07
2.52, 2.48, 0.07
2.53, 2.48, 0.07
2.53, 2.48, 0.07
2.53, 2.48, 0.07
2.53, 2.48, 0.07
2.53, 2.48, 0.07
2.53, 2.48, 0.07
2.53, 2.48, 0.07
2.53, 2.48, 0.07
2.54, 2.48, 0.07
2.54, 2.48, 0.07
2.54, 2.48, 0.08
2.54, 2.48, 0.08
2.54, 2.48, 0.08
2.54, 2.49, 0.08
2.54, 2.49, 0.08
2.54, 2.49, 0.08
2.55, 2.49, 0.08
2.55, 2.49, 0.08
2.55, 2.49, 0.08
2.55, 2.49, 0.08
2.55, 2.49, 0.08
2.55, 2.49, 0.08
2.55, 2.49, 0.09
2.55, 2.49, 0.09
2.55, 2.49, 0.09
2.56, 2.49, 0.09
2.56, 2.49, 0.09
2.56, 2.49, 0.09
2.56, 2.49, 0.09
2.56, 2.49, 0.09
2.56, 2.49, 0.09
2.56, 2.49, 0.09
2.56, 2.49, 0.09
2.57, 2.49, 0.09
2.57, 2.49, 0.10
2.57, 2.49, 0.10
2.57, 2.49, 0.10
2.57, 2.49, 0.10
2.57, 2.49, 0.10
2.57, 2.49, 0.10
2.57, 2.49, 0.10
2.58, 2.49, 0.10
2.58, 2.49, 0.10
2.58, 2.49, 0.10
2.58, 2.50, 0.10
2.58, 2.50, 0.11
2.58, 2.50, 0.11
2.58, 2.50, 0.11
2.58, 2.50, 0.11
2.59, 2.50, 0.11
2.59, 2.50, 0.11
2.59, 2.50, 0.11
2.59, 2.50, 0.11
2.59, 2.50, 0.11
2.59, 2.50, 0.11
2.59, 2.50, 0.12
2.59, 2.50, 0.12
2.60, 2.50, 0.12
2.60, 2.50, 0.12
2.60, 2.50, 0.12
2.60, 2.50, 0.12
2.60, 2.50, 0.12
2.60, 2.50, 0.12
2.60, 2.50, 0.12
2.60, 2.50, 0.12
2.60, 2.50, 0.13
2.61, 2.50, 0.13
2.61, 2.50, 0.13
2.61, 2.50, 0.13
2.61, 2.50, 0.13
2.61, 2.50, 0.13
2.61, 2.50, 0.13
2.61, 2.50, 0.13
2.61, 2.50, 0.13
2.62, 2.50, 0.13
2.62, 2.50, 0.14
2.62, 2.50, 0.14
2.62, 2.51, 0.14
2.62, 2.51, 0.14
2.62, 2.51, 0.14
2.62, 2.51, 0.14
2.62, 2.51, 0.14
2.63, 2.51, 0.14
2.63, 2.51, 0.14
2.63, 2.51, 0.14
2.63, 2.51, 0.15
2.63, 2.51, 0.15
2.63, 2.51, 0.15
2.63, 2.51, 0.15
2.63, 2.51, 0.15
2.64, 2.51, 0.15
2.64, 2.51, 0.15
2.64, 2.51, 0.15
2.64, 2.51, 0.15
2.64, 2.51, 0.15
2.64, 2.51, 0.16
2.64, 2.51, 0.16
2.64, 2.51, 0.16
2.65, 2.51, 0.16
2.65, 2.51, 0.16
2.65, 2.51, 0.16
2.65, 2.51, 0.16
2.65, 2.51, 0.16
2.65, 2.51, 0.16
2.65, 2.51, 0.17
2.65, 2.51, 0.17
2.66, 2.51, 0.17
2.66, 2.51, 0.17
2.66, 2.51, 0.17
2.66, 2.51, 0.17
2.66, 2.51, 0.17
2.66, 2.51, 0.17
2.66, 2.51, 0.17
2.66, 2.51, 0.17
2.66, 2.51, 0.18
2.67, 2.51, 0.18
2.67, 2.51, 0.18
2.67, 2.51, 0.18
2.67, 2.51, 0.18
2.67, 2.51, 0.18
2.67, 2.52, 0.18
2.67, 2.52, 0.18
2.67, 2.52, 0.18
2.68, 2.52, 0.18
2.68, 2.52, 0.18
2.68, 2.52, 0.19
2.68, 2.52, 0.19
2.68, 2.52, 0.19
2.68, 2.52, 0.19
2.68, 2.52, 0.19
2.68, 2.52, 0.19
2.69, 2.52, 0.19
2.69, 2.52, 0.19
2.69, 2.52, 0.19
2.69, 2.52, 0.19
2.69, 2.52, 0.20
2.69, 2.52, 0.20
2.69, 2.52, 0.20
2.69, 2.52, 0.20
2.70, 2.52, 0.20
2.70, 2.52, 0.20
2.70, 2.52, 0.20
2.70, 2.52, 0.20
2.70, 2.52, 0.20
2.70, 2.52, 0.20
2.70, 2.52, 0.21
2.70, 2.52, 0.21
2.71, 2.52, 0.21
2.71, 2.52, 0.21
2.71, 2.52, 0.21
2.71, 2.52, 0.21
2.71, 2.52, 0.21
2.71, 2.52, 0.21
2.71, 2.52, 0.21
2.71, 2.52, 0.21
2.71, 2.52, 0.22
2.72, 2.52, 0.22
2.72, 2.52, 0.22
2.72, 2.52, 0.22
2.72, 2.52, 0.22
2.72, 2.52, 0.22
2.72, 2.52, 0.22
2.72, 2.52, 0.22
2.72, 2.52, 0.22
2.73, 2.52, 0.22
2.73, 2.52, 0.22
2.73, 2.52, 0.23
2.73, 2.52, 0.23
2.73, 2.52, 0.23
2.73, 2.52, 0.23
2.73, 2.52, 0.23
2.73, 2.52, 0.23
2.74, 2.52, 0.23
2.74, 2.52, 0.23
2.74, 2.52, 0.23
2.74, 2.52, 0.24
2.74, 2.52, 0.24
2.74, 2.53, 0.24
2.74, 2.53, 0.24
2.74, 2.53, 0.24
2.75, 2.53, 0.24
2.75, 2.53, 0.24
2.75, 2.53, 0.24
2.75, 2.53, 0.24
2.75, 2.53, 0.25
2.75, 2.53, 0.25
2.75, 2.53, 0.25
2.75, 2.53, 0.25
2.76, 2.53, 0.25
2.76, 2.53, 0.25
2.76, 2.53, 0.25
2.76, 2.53, 0.25
2.76, 2.53, 0.25
2.76, 2.53, 0.26
2.76, 2.53, 0.26
2.76, 2.53, 0.26
2.76, 2.53, 0.26
2.77, 2.53, 0.26
2.77, 2.53, 0.26
2.77, 2.53, 0.26
2.77, 2.53, 0.26
2.77, 2.53, 0.26
2.77, 2.53, 0.27
2.77, 2.53, 0.27
2.77, 2.53, 0.27
2.78, 2.53, 0.27
2.78, 2.53, 0.27
2.78, 2.53, 0.27
2.78, 2.53, 0.27
2.78, 2.53, 0.27
2.78, 2.53, 0.27
2.78, 2.53, 0.28
2.78, 2.53, 0.28
2.79, 2.53, 0.28
2.79, 2.53, 0.28
2.79, 2.53, 0.28
2.79, 2.53, 0.28
2.79, 2.53, 0.28
2.79, 2.53, 0.28
2.79, 2.53, 0.28
2.79, 2.53, 0.29
2.80, 2.53, 0.29
2.80, 2.53, 0.29
2.80, 2.53, 0.29
2.80, 2.53, 0.29
2.80, 2.53, 0.29
2.80, 2.53, 0.29
2.80, 2.53, 0.29
2.80, 2.53, 0.29
2.81, 2.53, 0.30
2.81, 2.53, 0.30
2.81, 2.53, 0.30
2.81, 2.53, 0.30
2.81, 2.53, 0.30
2.81, 2.53, 0.30
2.81, 2.53, 0.30
2.81, 2.53, 0.30
2.81, 2.53, 0.30
2.82, 2.53, 0.31
2.82, 2.53, 0.31
2.82, 2.53, 0.31
2.82, 2.54, 0.31
2.82, 2.54, 0.31
2.82, 2.54, 0.31
2.82, 2.54, 0.31
2.82, 2.54, 0.31
2.83, 2.54, 0.31
2.83, 2.54, 0.32
2.83, 2.54, 0.32
2.83, 2.54, 0.32
2.83, 2.54, 0.32
2.83, 2.54, 0.32
2.83, 2.54, 0.32
2.83, 2.54, 0.32
2.84, 2.54, 0.32
2.84, 2.54, 0.32
2.84, 2.54, 0.32
2.84, 2.54, 0.33
2.84, 2.54, 0.33
2.84, 2.54, 0.33
2.84, 2.54, 0.33
2.84, 2.54, 0.33
2.85, 2.54, 0.33
2.85, 2.54, 0.33
2.85, 2.54, 0.33
2.85, 2.54, 0.33
2.85, 2.54, 0.34
2.85, 2.54, 0.34
2.85, 2.54, 0.34
2.85, 2.54, 0.34
2.86, 2.54, 0.34
2.86, 2.54, 0.34
2.86, 2.54, 0.34
2.86, 2.54, 0.34
2.86, 2.54, 0.34
2.86, 2.54, 0.34
2.86, 2.54, 0.35
2.86, 2.54, 0.35
2.86, 2.54, 0.35
2.87, 2.54, 0.35
2.87, 2.54, 0.35
2.87, 2.54, 0.35
2.87, 2.54, 0.35
2.87, 2.54, 0.35
2.87, 2.54, 0.35
2.87, 2.54, 0.36
2.87, 2.54, 0.36
2.88, 2.54, 0.36
2.88, 2.54, 0.36
2.88, 2.54, 0.36
2.88, 2.54, 0.36
2.88, 2.54, 0.36
2.88, 2.54, 0.36
2.88, 2.54, 0.36
2.88, 2.54, 0.36
2.89, 2.54, 0.37
2.89, 2.54, 0.37
2.89, 2.54, 0.37
2.89, 2.54, 0.37
2.89, 2.54, 0.37
2.89, 2.54, 0.37
2.89, 2.54, 0.37
2.89, 2.54, 0.37
2.90, 2.54, 0.37
2.90, 2.54, 0.38
2.90, 2.54, 0.38
2.90, 2.54, 0.38
2.90, 2.54, 0.38
2.90, 2.54, 0.38
2.90, 2.54, 0.38
2.90, 2.54, 0.38
2.91, 2.54, 0.38
2.91, 2.54, 0.38
2.91, 2.54, 0.39
2.91, 2.54, 0.39
2.91, 2.54, 0.39
2.91, 2.54, 0.39
2.91, 2.54, 0.39
2.91, 2.54, 0.39
2.92, 2.54, 0.39
2.92, 2.54, 0.39
2.92, 2.54, 0.40
2.92, 2.54, 0.40
2.92, 2.54, 0.40
2.92, 2.55, 0.40
2.92, 2.55, 0.40
2.92, 2.55, 0.40
2.92, 2.55, 0.40
2.93, 2.55, 0.40
2.93, 2.55, 0.40
2.93, 2.55, 0.41
2.93, 2.55, 0.41
2.93, 2.55, 0.41
2.93, 2.55, 0.41
2.93, 2.55, 0.41
2.93, 2.55, 0.41
2.94, 2.55, 0.41
2.94, 2.55, 0.41
2.94, 2.55, 0.42
2.94, 2.55, 0.42
2.94, 2.55, 0.42
2.94, 2.55, 0.42
2.94, 2.55, 0.42
2.94, 2.55, 0.42
2.95, 2.55, 0.42
2.95, 2.55, 0.42
2.95, 2.55, 0.42
2.95, 2.55, 0.43
2.95, 2.55, 0.43
2.95, 2.55, 0.43
2.95, 2.55, 0.43
2.95, 2.55, 0.43
2.96, 2.55, 0.43
2.96, 2.55, 0.43
2.96, 2.55, 0.43
2.96, 2.55, 0.44
2.96, 2.55, 0.44
2.96, 2.55, 0.44
2.96, 2.55, 0.44
2.96, 2.55, 0.44
2.97, 2.55, 0.44
2.97, 2.55, 0.44
2.97, 2.55, 0.44
2.97, 2.55, 0.44
2.97, 2.55, 0.45
2.97, 2.55, 0.45
2.97, 2.55, 0.45
2.97, 2.55, 0.45
2.97, 2.55, 0.45
2.98, 2.55, 0.45
2.98, 2.55, 0.45
2.98, 2.55, 0.45
2.98, 2.55, 0.45
2.98, 2.55, 0.46
2.98, 2.55, 0.46
2.98, 2.55, 0.46
2.98, 2.55, 0.46
2.99, 2.55, 0.46
2.99, 2.55, 0.46
2.99, 2.55, 0.46
2.99, 2.55, 0.46
2.99, 2.55, 0.46
2.99, 2.55, 0.46
2.99, 2.55, 0.47
2.99, 2.55, 0.47
3.00, 2.55, 0.47
3.00, 2.55, 0.47
3.00, 2.55, 0.47
3.00, 2.55, 0.47
3.00, 2.55, 0.47
3.00, 2.55, 0.47
3.00, 2.55, 0.47
3.00, 2.55, 0.48
3.01, 2.55, 0.48
3.01, 2.55, 0.48
3.01, 2.55, 0.48
3.01, 2.55, 0.48
3.01, 2.55, 0.48
3.01, 2.55, 0.48
3.01, 2.55, 0.48
3.01, 2.55, 0.48
3.02, 2.55, 0.49
3.02, 2.55, 0.49
3.02, 2.55, 0.49
3.02, 2.55, 0.49
3.02, 2.55, 0.49
3.02, 2.55, 0.49
3.02, 2.55, 0.49
3.02, 2.55, 0.49
3.02, 2.55, 0.49
3.03, 2.55, 0.49
3.03, 2.55, 0.50
3.03, 2.55, 0.50
3.03, 2.55, 0.50
3.03, 2.55, 0.50
3.03, 2.55, 0.50
3.03, 2.55, 0.50
3.03, 2.55, 0.50
3.04, 2.55, 0.50
3.04, 2.55, 0.50
3.04, 2.55, 0.51
3.04, 2.55, 0.51
3.04, 2.55, 0.51
3.04, 2.56, 0.51
3.04, 2.56, 0.51
3.04, 2.56, 0.51
3.05, 2.56, 0.51
3.05, 2.56, 0.51
3.05, 2.56, 0.51
3.05, 2.56, 0.52
3.05, 2.56, 0.52
3.05, 2.56, 0.52
3.05, 2.56, 0.52
3.05, 2.56, 0.52
3.06, 2.56, 0.52
3.06, 2.56, 0.52
3.06, 2.56, 0.52
3.06, 2.56, 0.53
3.06, 2.56, 0.53
3.06, 2.56, 0.53
3.06, 2.56, 0.53
3.06, 2.56, 0.53
3.07, 2.56, 0.53
3.07, 2.56, 0.53
3.07, 2.56, 0.53
3.07, 2.56, 0.54
3.07, 2.56, 0.54
3.07, 2.56, 0.54
3.07, 2.56, 0.54
3.07, 2.56, 0.54
3.07, 2.56, 0.54
3.08, 2.56, 0.54
3.08, 2.56, 0.54
3.08, 2.56, 0.55
3.08, 2.56, 0.55
3.08, 2.56, 0.55
3.08, 2.56, 0.55
3.08, 2.56, 0.55
3.08, 2.56, 0.55
3.09, 2.56, 0.55
3.09, 2.56, 0.55
3.09, 2.56, 0.56
3.09, 2.56, 0.56
3.09, 2.56, 0.56
3.09, 2.56, 0.56
3.09, 2.56, 0.56
3.09, 2.56, 0.56
3.10, 2.56, 0.56
3.10, 2.56, 0.56
3.10, 2.56, 0.56
3.10, 2.56, 0.57
3.10, 2.56, 0.57
3.10, 2.56, 0.57
3.10, 2.56, 0.57
3.10, 2.56, 0.57
3.11, 2.56, 0.57
3.11, 2.56, 0.57
3.11, 2.56, 0.57
3.11, 2.56, 0.58
3.11, 2.56, 0.58
3.11, 2.56, 0.58
3.11, 2.56, 0.58
3.11, 2.56, 0.58
3.12, 2.56, 0.58
3.12, 2.56, 0.58
3.12, 2.56, 0.58
3.12, 2.56, 0.59
3.12, 2.56, 0.59
3.12, 2.56, 0.59
3.12, 2.56, 0.59
3.12, 2.56, 0.59
3.13, 2.56, 0.59
3.13, 2.56, 0.59
3.13, 2.56, 0.59
3.13, 2.56, 0.60
3.13, 2.56, 0.60
3.13, 2.56, 0.60
3.13, 2.56, 0.60
3.13, 2.56, 0.60
3.13, 2.56, 0.60
3.14, 2.56, 0.60
3.14, 2.56, 0.60
3.14, 2.56, 0.60
3.14, 2.56, 0.61
3.14, 2.56, 0.61
3.14, 2.56, 0.61
3.14, 2.56, 0.61
3.14, 2.56, 0.61
3.15, 2.56, 0.61
3.15, 2.56, 0.61
3.15, 2.56, 0.61
3.15, 2.56, 0.61
3.15, 2.56, 0.61
3.15, 2.56, 0.62
3.15, 2.56, 0.62
3.15, 2.56, 0.62
3.16, 2.56, 0.62
3.16, 2.56, 0.62
3.16, 2.56, 0.62
3.16, 2.56, 0.62
3.16, 2.56, 0.62
3.16, 2.56, 0.62
3.16, 2.56, 0.63
3.16, 2.56, 0.63
3.17, 2.56, 0.63
3.17, 2.56, 0.63
3.17, 2.56, 0.63
3.17, 2.56, 0.63
3.17, 2.56, 0.63
3.17, 2.56, 0.63
3.17, 2.56, 0.63
3.17, 2.56, 0.64
3.18, 2.56, 0.64
3.18, 2.56, 0.64
3.18, 2.56, 0.64
3.18, 2.56, 0.64
3.18, 2.56, 0.64
3.18, 2.56, 0.64
3.18, 2.57, 0.64
3.18, 2.57, 0.64
3.18, 2.57, 0.65
3.19, 2.57, 0.65
3.19, 2.57, 0.65
3.19, 2.57, 0.65
3.19, 2.57, 0.65
3.19, 2.57, 0.65
3.19, 2.57, 0.65
3.19, 2.57, 0.65
3.19, 2.57, 0.65
3.20, 2.57, 0.65
3.20, 2.57, 0.66
3.20, 2.57, 0.66
3.20, 2.57, 0.66
3.20, 2.57, 0.66
3.20, 2.57, 0.66
3.20, 2.57, 0.66
3.20, 2.57, 0.66
3.21, 2.57, 0.66
3.21, 2.57, 0.66
3.21, 2.57, 0.67
3.21, 2.57, 0.67
3.21, 2.57, 0.67
3.21, 2.57, 0.67
3.21, 2.57, 0.67
3.21, 2.57, 0.67
3.22, 2.57, 0.67
3.22, 2.57, 0.67
3.22, 2.57, 0.68
3.22, 2.57, 0.68
3.22, 2.57, 0.68
3.22, 2.57, 0.68
3.22, 2.57, 0.68
3.22, 2.57, 0.68
3.23, 2.57, 0.68
3.23, 2.57, 0.68
3.23, 2.57, 0.69
3.23, 2.57, 0.69
3.23, 2.57, 0.69
3.23, 2.57, 0.69
3.23, 2.57, 0.69
3.23, 2.57, 0.69
3.23, 2.57, 0.69
3.24, 2.57, 0.69
3.24, 2.57, 0.69
3.24, 2.57, 0.70
3.24, 2.57, 0.70
3.24, 2.57, 0.70
3.24, 2.57, 0.70
3.24, 2.57, 0.70
3.24, 2.57, 0.70
3.25, 2.57, 0.70
3.25, 2.57, 0.70
3.25, 2.57, 0.71
3.25, 2.57, 0.71
3.25, 2.57, 0.71
3.25, 2.57, 0.71
3.25, 2.57, 0.71
3.25, 2.57, 0.71
3.26, 2.57, 0.71
3.26, 2.57, 0.71
3.26, 2.57, 0.71
3.26, 2.57, 0.72
3.26, 2.57, 0.72
3.26, 2.57, 0.72
3.26, 2.57, 0.72
3.26, 2.57, 0.72
3.27, 2.57, 0.72
3.27, 2.57, 0.72
3.27, 2.57, 0.72
3.27, 2.57, 0.73
3.27, 2.57, 0.73
3.27, 2.57, 0.73
3.27, 2.57, 0.73
3.27, 2.57, 0.73
3.28, 2.57, 0.73
3.28, 2.57, 0.73
3.28, 2.57, 0.73
3.28, 2.57, 0.74
3.28, 2.57, 0.74
3.28, 2.57, 0.74
3.28, 2.57, 0.74
3.28, 2.57, 0.74
3.28, 2.57, 0.74
3.29, 2.57, 0.74
3.29, 2.57, 0.74
3.29, 2.57, 0.74
3.29, 2.57, 0.75
3.29, 2.57, 0.75
3.29, 2.57, 0.75
3.29, 2.57, 0.75
3.29, 2.57, 0.75
3.30, 2.57, 0.75
3.30, 2.57, 0.75
3.30, 2.57, 0.75
3.30, 2.57, 0.75
3.30, 2.57, 0.76
3.30, 2.57, 0.76
3.30, 2.57, 0.76
3.30, 2.57, 0.76
3.31, 2.57, 0.76
3.31, 2.57, 0.76
3.31, 2.57, 0.76
3.31, 2.57, 0.76
3.31, 2.57, 0.76
3.31, 2.57, 0.76
3.31, 2.57, 0.77
3.31, 2.57, 0.77
3.32, 2.57, 0.77
3.32, 2.57, 0.77
3.32, 2.57, 0.77
3.32, 2.57, 0.77
3.32, 2.57, 0.77
3.32, 2.57, 0.77
3.32, 2.57, 0.77
3.32, 2.57, 0.78
3.33, 2.57, 0.78
3.33, 2.57, 0.78
3.33, 2.57, 0.78
3.33, 2.57, 0.78
3.33, 2.57, 0.78
3.33, 2.57, 0.78
3.33, 2.57, 0.78
3.33, 2.57, 0.78
3.33, 2.57, 0.79
3.34, 2.57, 0.79
3.34, 2.57, 0.79
3.34, 2.57, 0.79
3.34, 2.57, 0.79
3.34, 2.57, 0.79
3.34, 2.57, 0.79
3.34, 2.57, 0.79
3.34, 2.57, 0.79
3.35, 2.57, 0.80
3.35, 2.57, 0.80
3.35, 2.57, 0.80
3.35, 2.58, 0.80
3.35, 2.58, 0.80
3.35, 2.58, 0.80
3.35, 2.58, 0.80
3.35, 2.58, 0.80
3.36, 2.58, 0.80
3.36, 2.58, 0.81
3.36, 2.58, 0.81
3.36, 2.58, 0.81
3.36, 2.58, 0.81
3.36, 2.58, 0.81
3.36, 2.58, 0.81
3.36, 2.58, 0.81
3.37, 2.58, 0.81
3.37, 2.58, 0.81
3.37, 2.58, 0.82
3.37, 2.58, 0.82
3.37, 2.58, 0.82
3.37, 2.58, 0.82
3.37, 2.58, 0.82
3.37, 2.58, 0.82
3.38, 2.58, 0.82
3.38, 2.58, 0.82
3.38, 2.58, 0.83
3.38, 2.58, 0.83
3.38, 2.58, 0.83
3.38, 2.58, 0.83
3.38, 2.58, 0.83
3.38, 2.58, 0.83
3.39, 2.58, 0.83
3.39, 2.58, 0.83
3.39, 2.58, 0.84
3.39, 2.58, 0.84
3.39, 2.58, 0.84
3.39, 2.58, 0.84
3.39, 2.58, 0.84
3.39, 2.58, 0.84
3.39, 2.58, 0.84
3.40, 2.58, 0.84
3.40, 2.58, 0.85
3.40, 2.58, 0.85
3.40, 2.58, 0.85