Zeit [s]	Voltage A	Thresh A	Voltage B	Trehsh B	Coincidences	Singles B	Coinc per Single
1200	1100	400	1200	400	9	777	0,011583012
1200	1100	400	1250	400	10	5815	0,00171969
1200	1100	400	1100	400	3	69	0,043478261
1200	1100	400	1300	400	6	4284	0,00140056
