Buffer No.,Cycle No.,Cycle Time (s),Frequency (Hz),Low Pulse Width (s),High Pulse Width (s),Duty Cycle (High) (%),Duty Cycle (Low) (% ),Rise Time (s),Fall Time (s),Undershoot (%),Overshoot (%),Max Voltage (V),Min Voltage (V),Voltage Pk-Pk (V),Start Time (s),End Time (s)
427,1,0.00023392484636938,4274.87723309624,5.16375931828032E-08,0.000233873208776198,99.9779255628531,0.0220744371468982,0.000235860679340536,6.42106638150077E-07,89.656371325122,0,0.1758476,-0.1576586,0.3335063,1.43805076146488E-07,0.000234068651445527
426,1,0.000223689792501218,4470.47667583917,0.000223361146651982,3.28645849236388E-07,0.146920360362263,99.8530796396377,3.09206207589652E-07,5.03446839956527E-07,90.7589590696931,1.86226600187415,0.1704764,-0.1576586,0.328135,8.18980048907913E-09,0.000223697982301707
426,2,0.00555427093824515,180.041631227292,0.00555424967591106,2.12623340829288E-08,0.000382810531199016,99.9996171894688,1.16775125933802E-06,NaN,95.0808109956344,2.45959450218279,0.1694388,-0.1651662,0.3346049,0.000223697982301707,0.00577796892054685
426,3,1.24237102148463E-07,8049125.28308175,2.82046282093495E-08,9.6032473939113E-08,77.2977413980204,22.7022586019796,5.47625881905378E-07,6.08799857472822E-07,77.1609216739129,4.9543249657819,0.1651051,0.1340373,0.03106785,0.00577796892054685,0.005778093157649
426,4,0.000222885018913116,4486.6182791308,0.000222687142600574,1.9787631254202E-07,0.0887795480858025,99.9112204519142,NaN,1.49509087196426E-06,61.1384386045396,0,0.1737114,-0.1062044,0.2799158,0.005778093157649,0.00600097817656212
425,1,5.09953346866982E-07,1960963.69627483,4.13573555228716E-08,4.68595991344111E-07,91.8899727245717,8.11002727542827,5.26594289261147E-07,8.04303323791115E-07,77.2324434842945,0,0.1790826,0.1383099,0.04077274,6.51586721907637E-09,5.16469214086059E-07
424,1,0.000210111126249741,4759.38622503687,0.000209981312886827,1.29813362914199E-07,0.0617831931279551,99.938216806872,5.17899716323915E-07,3.44967992504477E-07,71.2913577113908,0,0.1715751,-0.1223182,0.2938932,5.00924130189582E-09,0.000210116135491043
420,1,0.00647920044290325,154.340031430161,0.00647375776188269,5.44268102056646E-06,0.0840023559778567,99.9159976440221,0.00648255296545538,NaN,88.3669561186292,20.8897457048346,0.174749,-0.1951964,0.3699454,1.56721989635882E-08,0.00647921611510222
420,2,5.55471411553803E-06,180027.266786373,4.81853433548229E-06,7.36179780055739E-07,13.2532433666828,86.7467566333172,8.37679912411154E-07,NaN,81.5694963989175,0,0.220893,-0.1801813,0.4010742,0.00647921611510222,0.00648477082921775
417,1,0.00565213913801081,176.924165450027,0.00565206658065308,7.25573577326082E-08,0.00128371499641008,99.9987162850036,1.02935113646025E-06,NaN,111.270256243202,0,0.1619312,-0.1801813,0.3421125,4.0978110717292E-08,0.00565218011612153
416,1,4.96052117439668E-06,201591.720878326,4.83124831275935E-06,1.29272861637335E-07,2.60603386403361,97.3939661359664,6.18094787744011E-06,NaN,82.235472602181,24.590163695846,0.1544237,-0.1684011,0.3228248,4.30168489234502E-08,5.00353802332013E-06
416,2,9.06130010492656E-08,11035943.9420432,2.38884566689311E-08,6.67245443803345E-08,73.6368331339748,26.3631668660252,9.70001283061132E-07,NaN,68.0775017702384,26.7064090745068,0.15009,0.1394086,0.01068147,5.00353802332013E-06,5.0941510243694E-06
413,1,0.00531008935048786,188.32074829553,0.0053099673872145,1.21963273359997E-07,0.0022968214903727,99.9977031785096,8.79812141613616E-07,6.49730508173555E-07,79.6591748706063,0,0.1683401,-0.1340983,0.3024384,9.25663881522419E-09,0.00531009860712668
413,2,9.83357379285192E-05,10169.2428517382,9.82963460293739E-05,3.9391899145369E-08,0.0400585788800438,99.95994142112,5.54758383711565E-07,NaN,67.5489481250652,8.91950890462014,0.153325,-0.113712,0.267037,0.00531009860712668,0.0054084343450552
412,1,0.00320121509755937,312.381383169912,0.0032011964243427,1.86732166685822E-08,0.000583316525116316,99.9994166834749,8.36718386645839E-07,NaN,134.07346979165,0,0.1511887,-0.2027039,0.3538926,5.9424615427265E-09,0.00320122104002092
410,1,0.00539008799277336,185.525728214591,0.00538995455552374,1.33437249615407E-07,0.00247560429058506,99.9975243957094,6.75518078518961E-07,4.23600674108575E-07,79.245284197323,0,0.1908628,-0.1512497,0.3421125,2.13466433691785E-08,0.00539010933941673
409,1,0.00419214466911818,238.541386075388,0.00419152103846109,6.23630657093132E-07,0.0148761721342101,99.9851238278658,6.18407269796862E-07,4.50300545029262E-07,78.4282039203747,0,0.1887265,-0.1480148,0.3367412,1.008644316415E-08,0.00419215475556135
406,1,0.00467822486673532,213.756291859875,0.00467807666463034,1.48202104978136E-07,0.00316791324059543,99.9968320867594,8.90977032612362E-07,NaN,96.536622988987,8.39967788415842,0.1662038,-0.1480148,0.3142186,1.19022739982379E-07,0.0046783438894753
405,1,5.11331887154402E-06,195567.697834193,4.74669545542187E-06,3.66623416122153E-07,7.1699697463117,92.8300302536883,5.66178521810709E-06,NaN,125.205872097816,11.9584699134485,0.15009,-0.2134465,0.3635365,1.14490200907323E-08,5.12476789163475E-06
405,2,0.000213685664724164,4679.77110814078,0.000213364760332958,3.20904391205506E-07,0.150175909843903,99.8498240901561,5.62866387995708E-07,NaN,133.369141863578,0,0.1704764,-0.2273629,0.3978393,5.12476789163475E-06,0.000218810432615799
403,1,0.00022636020062469,4417.73773499177,0.000226045795032645,3.14405592045075E-07,0.138896144806996,99.861103855193,4.13720590381293E-06,9.38985785767651E-07,107.785535409263,3.23172981853275,0.1608325,-0.1791437,0.3399762,2.19793730436625E-08,0.000226382179997733
400,1,5.226797694025E-06,191321.734365795,4.53218697899678E-06,6.9461071502822E-07,13.2894126708264,86.7105873291736,8.58780932676697E-07,6.45073141643876E-07,67.3138273523952,0,0.2294992,-0.1544847,0.3839839,1.80900063627381E-08,5.24488770038774E-06
400,2,1.02629263175324E-05,97438.0960225425,9.7502833606233E-06,5.12642956909088E-07,4.99509536605878,95.0049046339412,NaN,NaN,58.4308534986686,21.0372348541661,0.1812189,-0.1340983,0.3153172,5.24488770038774E-06,1.55078140179201E-05
394,1,0.000209925524627422,4763.59414499409,0.000209252168525495,6.73356101927089E-07,0.320759518463592,99.6792404815364,1.02967663153013E-06,3.13889432138412E-07,67.6889094183294,0,0.2487869,-0.1684011,0.417188,2.00392940906759E-08,0.000209945563921513
388,1,1.07265293427662E-07,9322679.94656057,7.01433166188489E-08,3.7121976808813E-08,34.6076308772208,65.3923691227792,6.36955408904099E-06,NaN,78.3264820876904,13.8545917299465,0.153325,0.1394086,0.01391643,6.06736446768468E-08,1.67938938104509E-07
386,1,7.3236073478241E-06,136544.731647459,6.95665221809387E-06,3.66955129730233E-07,5.01057897156732,94.9894210284327,4.12066015806112E-07,1.18631181635271E-06,130.736988844572,0,0.174749,-0.2284616,0.4032106,0.000214919206552986,0.00022224281390081
384,1,3.2751214877153E-07,3053321.85004713,7.3848581270175E-08,2.53663567501355E-07,77.4516513212793,22.5483486787207,9.781437204423E-07,NaN,72.534078797651,23.255808489961,0.1876278,0.110416,0.07721183,1.25956384604666E-08,3.40107787231997E-07
384,2,5.12379361913254E-06,195167.892060668,5.08481576592154E-06,3.89778532110001E-08,0.760722544824103,99.2392774551759,NaN,2.01774906536828E-06,103.568563243999,0,0.1522263,-0.1576586,0.309885,3.40107787231997E-07,5.46390140636454E-06
384,3,1.86878086727681E-07,5351082.18149301,2.38328136278098E-08,1.63045273099871E-07,87.2468655661383,12.7531344338617,1.11969668795513E-06,NaN,91.5797941528638,0.721729692309981,0.153325,0.1394086,0.01391643,5.46390140636454E-06,5.65077949309222E-06
383,1,0.000215377466135492,4643.01125806221,0.000215305284149395,7.21819860962283E-08,0.0335141774074078,99.9664858225926,0.000216543372362855,NaN,75.4660391588296,11.6844213133779,0.1619312,-0.1383709,0.3003021,5.43605276286003E-09,0.000215382902188254
381,1,0.000201911436719967,4952.66645735827,0.000201859576924712,5.18597952550021E-08,0.0256844268444916,99.9743155731555,0.000210475158996352,NaN,45.5324374412452,49.4696004881468,0.1511887,-0.1362346,0.2874233,0.00649711788084632,0.00669902931756629
381,2,5.54354112681978E-06,180390.111144297,5.4962326923062E-06,4.73084345135877E-08,0.853397375996876,99.1466026240031,9.26645510940498E-06,NaN,49.469605468424,49.4696004881468,0.1511887,-0.1480148,0.2992035,0.00669902931756629,0.00670457285869311
381,3,2.74296098437456E-06,364569.531136811,2.70543855744165E-06,3.75224269329177E-08,1.36795335940491,98.6320466405951,NaN,NaN,79.9469640330364,0,0.2992035,-0.2392041,0.5384076,0.00670457285869311,0.00670731581967748
381,4,9.03979244052874E-06,110622.008920982,5.89214000873677E-06,3.14765243179197E-06,34.8199635389843,65.1800364610157,NaN,NaN,55.2019592011715,23.2966107620601,0.2294992,-0.1651662,0.3946654,0.00670731581967748,0.00671635561211801
380,1,0.00022929757766941,4361.14506818624,1.35400875944456E-05,0.000215757490074965,94.0949713764674,5.90502862353263,0.000230108326030645,NaN,68.0344129211237,17.4718725789656,0.1522263,-0.1254921,0.2777184,1.34896170470592E-07,0.000229432473839881
379,1,0.000215586774350101,4638.50346578338,0.000215540324790848,4.64495592528505E-08,0.0215456441578457,99.9784543558422,1.40527235230029E-06,NaN,90.7686085034,0,0.15009,-0.1362346,0.2863247,9.32088143822906E-09,0.000215596095231539
379,2,2.14705716061628E-06,465753.785387328,1.92614326412758E-06,2.20913896488699E-07,10.2891483534276,89.7108516465724,4.19044265931141E-06,NaN,52.1756843547562,5.0020397382106,0.1575976,-0.0783105,0.2359081,0.000215596095231539,0.000217743152392155
378,1,0.000222648114479047,4491.39217881905,0.000222250594436857,3.97520042190194E-07,0.178541840841686,99.8214581591583,1.04160054280038E-06,6.41075243307869E-07,103.127194925324,0,0.1737114,-0.1791437,0.352855,4.42028665298424E-08,0.000222692317345577
378,2,0.00542455711920817,184.346846760823,0.00542442623240578,1.30886802391408E-07,0.0024128569303463,99.9975871430697,6.88495323104572E-07,8.92250104904836E-07,87.6669001057853,3.72453200374829,0.1672414,-0.1522874,0.3195288,0.000222692317345577,0.00564724943655375
376,1,5.33743416227809E-06,187355.941000158,4.2815837283255E-06,1.05585043395259E-06,19.7819851608613,80.2180148391387,4.99184683455494E-07,8.2907749860299E-07,50.5462918396557,0,0.2122868,-0.1073031,0.3195899,1.03237970868927E-08,5.34775795936498E-06
373,1,0.000220555847364686,4533.99903901216,0.00022015120264251,4.04644722175705E-07,0.183465878148599,99.8165341218514,6.23053504193302E-07,5.03590898454898E-07,90.3142305364486,0.628464682999612,0.1640675,-0.1491134,0.3131809,3.68256222807922E-08,0.000220592672986967
373,2,1.89251400808124E-07,5283976.74062062,1.33072048667929E-07,5.61793521401959E-08,29.685039001193,70.314960998807,9.93987666121816E-07,NaN,72.0887276536915,5.17559628513239,0.15656,0.1190222,0.03753777,0.000220592672986967,0.000220781924387775
371,1,0.00564001870303385,177.304376572738,0.00563979458375217,2.2411928168073E-07,0.00397373295163317,99.9960262670484,6.40260373785392E-07,2.71432992520721E-07,89.6487984044791,0,0.1651051,-0.1480148,0.3131199,4.36244323442473E-09,0.00564002306547708
370,1,5.64885729188364E-06,177026.954006577,4.70322340100426E-06,9.45633890879383E-07,16.7402687307765,83.2597312692235,5.46516378325488E-07,6.13146642184364E-07,86.5845493938931,0,0.1833552,-0.1587573,0.3421125,7.25749056638306E-09,5.65611478245002E-06
370,2,1.27959463022068E-07,7814974.96459124,3.44394122341668E-08,9.35200507879013E-08,73.0856855594749,26.9143144405251,NaN,NaN,76.0319583640802,16.9773648571772,0.1522263,0.1394086,0.01281777,5.65611478245002E-06,5.78407424547209E-06
369,1,0.0065776385008088,152.03024609471,0.00657729093455254,3.47566256263142E-07,0.00528405834739024,99.9947159416526,0.00658113869053779,NaN,88.3617961067938,14.9905106931027,0.1640675,-0.1705374,0.3346049,2.99040900033987E-08,0.0065776684048988
369,2,5.39223454284338E-06,185451.87381124,5.36165221673608E-06,3.05823261072952E-08,0.56715496821043,99.4328450317896,1.1899146255467E-06,NaN,85.5787473497228,0,0.1929991,-0.1651662,0.3581652,0.0065776684048988,0.00658306063944165
368,1,5.66276528845069E-06,176592.168147869,5.19326909682438E-06,4.69496191626319E-07,8.29093504164589,91.7090649583541,5.42153901492322E-07,4.52731420879336E-07,76.7376901198802,0,0.174749,-0.1340983,0.3088473,0.00568366164176596,0.00568932440705441
368,2,0.000220383579754345,4537.54313780851,0.000220278762671712,1.04817082632359E-07,0.047561203402357,99.9524387965976,6.80800411201159E-07,4.65659136941916E-07,122.144601194863,4.88997976159027,0.1662038,-0.2134465,0.3796502,0.00568932440705441,0.00590970798680876
366,1,3.08719696178087E-06,323918.432280117,2.68705312600906E-06,4.00143835771815E-07,12.9613963969759,87.0386036030241,3.24625713672662E-07,3.59729497474168E-07,117.042611072947,3.79520014768615,0.1769463,-0.19953,0.3764763,2.4248736964718E-08,3.11144569874559E-06
366,2,0.000200489314959967,4987.79698159814,0.000200429272980446,6.00419795207768E-08,0.0299477204222908,99.9700522795777,5.20369756446793E-07,NaN,78.0164673203748,6.91013145693138,0.1586962,-0.1329997,0.2916959,3.11144569874559E-06,0.000203600760658712
366,3,3.19412963889438E-06,313074.33105506,2.83888368007726E-06,3.55245958817121E-07,11.1218390916684,88.8781609083316,5.29697713456679E-07,NaN,146.580741344963,0,0.1704764,-0.2498856,0.4203619,0.000203600760658712,0.000206794890297607
366,4,2.0476422890308E-06,488366.549839779,1.58908919863681E-06,4.58553090393988E-07,22.394199067408,77.605800932592,5.79788548969376E-07,3.15538475606741E-07,99.4271392705042,3.79520014768615,0.1769463,-0.1694998,0.3464461,0.000206794890297607,0.000208842532586638
366,5,5.2539894797523E-06,190331.55735347,4.77982270397247E-06,4.74166775779828E-07,9.0248900879448,90.9751099120552,3.27958780650358E-07,4.36842865814043E-07,150.375932751755,6.91013145693138,0.1822565,-0.2563555,0.438612,0.000208842532586638,0.00021409652206639
362,1,2.74438936059458E-06,364379.783116251,1.989876377847E-06,7.54512982747577E-07,27.4929277011958,72.5070722988042,7.81714467832847E-07,4.02899848537556E-07,64.5231336197094,0,0.2809534,-0.1812799,0.4622334,6.22967053270463E-09,2.75061903112729E-06
362,2,2.48712780080056E-06,402070.211139982,2.13867126600805E-06,3.48456534792514E-07,14.0103992517133,85.9896007482867,NaN,NaN,69.4764274391465,37.0193392928062,0.1769463,-0.1951964,0.3721427,2.75061903112729E-06,5.23774683192785E-06
362,3,5.41488254196825E-06,184676.212687803,4.42896636098446E-06,9.85916180983791E-07,18.2075266331709,81.7924733668291,NaN,NaN,71.0189003516621,11.4490552476061,0.2487869,-0.19953,0.4483169,5.23774683192785E-06,1.06526293738961E-05
361,1,6.79075122689339E-07,1472591.12664841,3.20604793940538E-08,6.47014643295285E-07,95.2788022528222,4.72119774717777,6.55977607995096E-07,4.50480416484505E-07,81.7758735059736,6.91013145693138,0.1822565,0.1394086,0.04284798,5.29058218282427E-08,7.31980944517581E-07
360,1,7.18006535414909E-06,139274.498305526,6.74508063502291E-06,4.34984719126174E-07,6.05822785268679,93.9417721473132,7.71660497940235E-06,NaN,120.882794453027,13.9117186224409,0.1726127,-0.242378,0.4149907,9.05640676577385E-06,1.62364721199229E-05
356,1,0.00591059480734301,169.187709967473,0.0059104679006053,1.26906737705437E-07,0.00214710603318256,99.9978528939668,8.36969415216776E-07,8.46738190694348E-07,76.4684570296854,0,0.1683401,-0.1287271,0.2970672,6.51587544990693E-09,0.00591060132321846
352,1,5.57412100797305E-06,179400.482797132,5.41797202165257E-06,1.56148986320483E-07,2.80132035341774,97.1986796465823,0.0060095137519348,NaN,23.720973984907,71.8142348860732,0.1822565,-0.153386,0.3356426,3.83793742704578E-09,5.5779589454001E-06
352,2,0.000235647761511361,4243.62189390791,0.000235597395810884,5.03657004766568E-08,0.0213732989244749,99.9786267010755,0.00600437099885671,NaN,19.7375865631165,76.6188398544437,0.1511887,-0.1276284,0.2788171,5.5779589454001E-06,0.000241225720456761
352,3,0.00552556636451979,180.976923274526,0.00552544706204783,1.19302471965772E-07,0.00215909943154108,99.9978409005685,NaN,NaN,21.0685294776177,71.8142348860732,0.1822565,-0.1362346,0.3184912,0.000241225720456761,0.00576679208497655
348,1,5.2455401991725E-06,190638.134878416,4.72311127024629E-06,5.22428928926217E-07,9.95948766170225,90.0405123382977,4.78712712402171E-06,5.9346404870072E-07,77.5784767335772,0,0.1769463,-0.1372723,0.3142186,1.27468084961482E-08,5.25828700766865E-06
347,1,0.00623515192060076,160.381016009575,0.00623507937146684,7.25491339161971E-08,0.00116355038080944,99.9988364496192,0.00623608229434236,NaN,81.6615418730468,16.2153858588748,0.1662038,-0.1619923,0.328196,7.98516859670321E-09,0.00623515990576936
347,2,5.62851979863613E-06,177666.604325051,4.99546168854312E-06,6.3305811009301E-07,11.2473284760659,88.7526715239341,8.38423435561321E-07,NaN,74.0923090837224,0,0.1983703,-0.1469771,0.3453475,0.00623515990576936,0.00624078842556799
334,1,0.00864561803369331,115.665530920155,0.00864556359244731,5.44412459959484E-08,0.000629697562207612,99.9993703024378,0.00864618616309719,NaN,51.5845088331366,26.2910798122066,0.153325,-0.1073031,0.2606281,2.39812325831133E-05,0.00866959926627642
333,1,4.77388219693928E-06,209473.120354989,4.66535722474722E-06,1.08524972192054E-07,2.2733064561508,97.7266935438492,5.80473831405413E-06,NaN,91.5228580861925,16.5001503011826,0.1683401,-0.1845149,0.352855,6.55306765076135E-09,4.78043526459004E-06
330,1,0.00774388338164163,129.134176060902,0.00774316984043718,7.13541204441441E-07,0.00921425555210489,99.9907857444479,5.07265757926923E-07,5.25557414658096E-07,93.3908860677797,0,0.2262642,-0.2113102,0.4375744,9.58946822364775E-09,0.00774389297110985
326,1,2.34415311071764E-07,4265932.95219466,2.76954563575506E-08,2.06719854714214E-07,88.1853040098256,11.8146959901744,1.07110904711475E-06,NaN,90.795312327828,2.13967886386319,0.1544237,0.1372723,0.0171514,5.15802751315259E-08,2.8599558620329E-07
326,2,4.64781061329727E-06,215155.066159328,4.63300680609746E-06,1.4803807199813E-08,0.31851141174857,99.6814885882514,NaN,NaN,92.2486882154349,0,0.1511887,-0.1394696,0.2906583,2.8599558620329E-07,4.93380619950056E-06
323,1,0.00645942832183915,154.812461749754,0.00645942563228755,2.68955159852016E-09,4.16376103969892E-05,99.9999583623896,3.57968296033467E-08,NaN,87.9219202708081,1.42334908037045,0.1522263,-0.131962,0.2841884,7.39127942578346E-10,0.00645942906096709
323,2,0.000207710092502614,4814.40255478879,0.000207482310695723,2.27781806891141E-07,0.109663331303111,99.8903366686969,7.95800676215049E-07,NaN,66.4904469861168,3.57869065784015,0.1554613,-0.09979553,0.2552568,0.00645942906096709,0.0066671391534697
321,1,5.34954364552766E-06,186931.833117395,5.10844775143116E-06,2.410958940965E-07,4.50684974405363,95.4931502559464,0.00648820170544129,NaN,64.2607309727686,19.5548501266814,0.1544237,-0.1233558,0.2777795,4.8246002465293E-08,5.39778964799295E-06
321,2,0.00496768757515794,201.300904066659,0.00496759702417912,9.05509788191311E-08,0.0018227993900412,99.99817720061,0.00648357683200303,NaN,78.2194005067258,20.6995203423485,0.1522263,-0.1501511,0.3023774,5.39778964799295E-06,0.00497308536480593
321,3,0.00151439541058619,660.329523590489,0.00151428388791012,1.11522676067913E-07,0.00736417155574613,99.9926358284443,NaN,NaN,65.9459446451891,13.4181260772037,0.1662038,-0.1265908,0.2927946,0.00497308536480593,0.00648748077539212
317,1,2.16287883241352E-07,4623467.50550107,2.00910809268904E-07,1.53770739724477E-08,7.10954018412984,92.8904598158702,3.0428963613128E-06,NaN,83.3201649375347,2.09485567965713,0.1511887,0.128666,0.02252266,5.43604957585953E-09,2.21723932817212E-07
315,1,0.005544770976264,180.350099991648,0.00554450296653247,2.68009731532867E-07,0.00483355818806873,99.9951664418119,3.23984716937031E-07,5.47021230840492E-07,127.763501560193,0,0.1662038,-0.2123478,0.3785516,9.32088143822906E-09,0.00554478029714544
312,1,0.00586349559928556,170.546729858865,0.00586332875071431,1.66848571251089E-07,0.00284554782084972,99.9971544521791,5.25597619209929E-07,9.86266632184311E-07,74.2196120981037,0,0.1662038,-0.1233558,0.2895596,5.4360495982626E-09,0.00586350103533516
312,2,0.000236345856992678,4231.08749492901,1.64028976012351E-05,0.000219942959391443,93.0597905078813,6.94020949211868,0.000220397707042248,NaN,141.975764559142,8.40983676518422,0.1522263,-0.2359691,0.3881955,0.00586350103533516,0.00609984689232784
312,3,1.18608077815975E-05,84311.2896198805,1.3160505868675E-07,1.17292027229108E-05,98.890420778162,1.109579221838,NaN,NaN,76.1659937090205,9.69518945559824,0.15009,-0.1265908,0.2766808,0.00609984689232784,0.00611170770010943
308,1,2.00398670671569E-06,499005.306097509,1.62773629658073E-06,3.76250410134957E-07,18.7750951078707,81.2249048921292,8.01097123429114E-06,NaN,18.8050307246963,14.3710753482467,0.1662038,-0.03650014,0.2027039,1.63735260907623E-08,2.02036023280645E-06
308,2,9.86459042056868E-06,101372.68324034,4.32829867787043E-06,5.53629174269826E-06,56.1228749158659,43.8771250841341,1.07524217379301E-05,NaN,160.786164067621,7.2012604641386,0.1801202,-0.3120823,0.4922025,2.02036023280645E-06,1.18849506533751E-05
308,3,0.00593832427394167,168.397674810074,0.0059378018011489,5.22472792776105E-07,0.00879832034550218,99.9912016796545,NaN,NaN,118.805024966839,0,0.1940977,-0.2305979,0.4246956,1.18849506533751E-05,0.00595020922459505
308,4,1.74137327976602E-07,5742594.14463029,1.51362125707342E-07,2.27752022692596E-08,13.0788743194221,86.9211256805779,NaN,NaN,69.5911951761743,20.440256545571,0.1544237,0.1350749,0.01934873,0.00595020922459505,0.00595038336192302
307,1,0.000221725625409163,4510.07860798518,0.000221681273869865,4.43515392981605E-08,0.0200028928619848,99.979997107138,0.000222986626067559,NaN,73.2777347628549,10.1885410900997,0.1511887,-0.1233558,0.2745445,1.46795050357606E-07,0.00022187242045952
307,2,7.13182264156702E-06,140216.610852268,6.82220846935815E-06,3.09614172208872E-07,4.34130498989586,95.6586950101041,7.61309367552275E-07,NaN,153.553301626708,3.80710540825784,0.1619312,-0.2584918,0.420423,0.00022187242045952,0.000229004243101087
306,1,2.75413141203314E-07,3630908.80715015,2.46190856904991E-07,2.92222842983233E-08,10.6103449423828,89.3896550576172,6.280155576062E-07,NaN,80.2529892159362,0,0.1737114,0.1394086,0.0343028,5.00924041415952E-09,2.80422381617473E-07
305,1,0.000216885791663542,4610.72157991481,0.000216543438321238,3.4235334230392E-07,0.157849594331664,99.8421504056683,0.000227974787609287,NaN,57.9684756084873,18.4763567063655,0.1704764,-0.1212195,0.2916959,9.37675109604768E-09,0.000216895168414638
305,2,1.02301711057848E-05,97750.075698591,7.01605784158142E-06,3.21411326420335E-06,31.4179814879723,68.5820185120277,1.12262209791636E-05,NaN,105.662578587938,27.6999376626664,0.1511887,-0.220954,0.3721427,0.000216895168414638,0.000227125339520423
305,3,4.43452744343002E-07,2255031.70914311,4.12380045754262E-07,3.10726985887399E-08,7.00699206062546,92.9930079393745,NaN,NaN,66.6666714172636,0,0.2091128,0.1394086,0.06970426,0.000227125339520423,0.000227568792264766
304,1,6.20152066826778E-08,16125077.2752697,2.3235913367051E-08,3.87792933156268E-08,62.5319101394831,37.4680898605169,1.53058797938806E-06,NaN,92.2083180318905,0.726692871804364,0.15009,0.1394086,0.01068147,9.35132070962154E-08,1.55528413778893E-07
304,2,8.11927133418206E-08,12316376.1726992,3.32519009135636E-08,4.79408124282571E-08,59.0457079891229,40.9542920108771,NaN,NaN,92.2083180318905,0,0.1511887,0.1394086,0.01178014,1.55528413778893E-07,2.36721127120714E-07
298,1,0.00590385071202285,169.380976718052,0.0059037722809371,7.84310857510204E-08,0.00132847339095652,99.998671526609,9.47557656543524E-07,1.06844048130325E-06,92.2366010596734,0,0.1651051,-0.1522874,0.3173925,5.45341622088831E-08,0.00590390524618506
297,1,0.0054405089235902,183.806333937616,0.00544029789521704,2.11028373160325E-07,0.00387883516274185,99.9961211648373,6.39892684603189E-07,NaN,107.541804659235,8.75132781614922,0.15656,-0.1845149,0.3410749,4.35331937434051E-08,0.00544055245678394
292,1,5.52958862545718E-06,180845.279411237,4.58633972387924E-06,9.43248901577945E-07,17.0582111160206,82.9417888839795,5.32807643475672E-07,5.32016844734945E-07,57.9471232607505,0,0.196234,-0.113712,0.309946,0.00537467655147254,0.005380206140098
288,1,0.00021874846056321,4571.46074274219,0.000218671954724281,7.65058389288877E-08,0.0349743439253967,99.9650256560746,6.58914261947159E-07,NaN,81.6276613542902,9.81487832651699,0.1575976,-0.1426435,0.3002411,5.91186768371335E-09,0.000218754372430893
288,2,0.00539259490864188,185.439480795684,0.00539221604781359,3.78860828282804E-07,0.0070255755290586,99.9929744244709,7.08578930831206E-07,NaN,93.293747888457,0,0.174749,-0.1630299,0.3377789,0.000218754372430893,0.00561134928107277
287,1,5.21846533487426E-06,191627.219082427,5.12726985367992E-06,9.11954811943389E-08,1.74755364541549,98.2524463545845,4.56073029378343E-07,NaN,87.632511983805,0,0.1554613,-0.1362346,0.2916959,7.25749056638306E-09,5.22572282544065E-06
285,1,8.23913327868113E-07,1213719.89768331,9.04770184829621E-08,7.3343630938515E-07,89.0186242384168,10.9813757615832,4.47594939963086E-07,4.42329102931896E-07,71.823900452629,0,0.1940977,0.1394086,0.05468917,5.76189022365649E-09,8.29675218091769E-07
285,2,4.90008140600156E-06,204078.242205367,2.32359133670509E-08,4.87684549263451E-06,99.5258055644016,0.474194435598392,NaN,NaN,65.7547115781612,18.8050326439821,0.1575976,-0.1276284,0.285226,8.29675218091769E-07,5.72975662409333E-06
284,1,0.000208412545023529,4798.17565630277,0.000207970379645431,4.42165378098172E-07,0.212158715325056,99.7878412846749,1.63046032048645E-06,NaN,78.8874436444684,7.41704237021073,0.1737114,-0.1480148,0.3217261,0.00581919927359841,0.00602761181862194
284,2,0.000162758004532005,6144.09105638402,0.000162348955969721,4.09048562283361E-07,0.251323161315194,99.7486768386848,6.55322598200336E-07,NaN,56.6037747087556,0,0.1876278,-0.1062044,0.2938322,0.00602761181862194,0.00619036982315394
280,1,5.331233645629E-06,187573.84621848,4.83253936289885E-06,4.98694282730147E-07,9.35420046988598,90.645799530114,8.25522301293139E-07,3.55238025282067E-07,92.1907653040397,0,0.2047792,-0.1887875,0.3935667,9.32088710098488E-09,5.34055453272999E-06
280,2,0.00540192047337081,185.119348744503,0.00518279794123121,0.000219122532139601,4.05638204449293,95.9436179555071,NaN,NaN,92.6974708166251,25.1266745589721,0.153325,-0.1898251,0.3431501,5.34055453272999E-06,0.00540726102790354
278,1,0.000215171802749103,4647.44909520525,0.000214698736441578,4.73066307524859E-07,0.21985515828785,99.7801448417121,3.99382288767581E-07,4.86057467303864E-07,86.7557359243359,0,0.2101505,-0.1823176,0.392468,8.13176850362512E-09,0.000215179934517606
277,1,0.000450862962018444,2217.96883807699,0.000449813310062026,1.04965195641833E-06,0.23280953301624,99.7671904669838,3.08314995098523E-05,1.08069850182156E-06,39.6876607756251,0,0.4729148,-0.1876888,0.6606036,5.43604434357387E-09,0.000450868398062787
275,1,0.00567445511404782,176.228374337542,0.00567422086067361,2.34253374216531E-07,0.00412820913212632,99.9958717908679,0.00568055187920954,NaN,68.6345712232846,12.2313084569786,0.1769463,-0.1383709,0.3153172,7.25748674969265E-09,0.00567446237153457
275,2,5.50837039829319E-06,181541.894915029,5.31604147779082E-06,1.92328920502367E-07,3.49157566749618,96.5084243325038,8.22388628957116E-06,NaN,64.3960039620086,17.0451149676548,0.1672414,-0.1298257,0.2970672,0.00567446237153457,0.00567997074193287
272,1,5.60967458634284E-06,178263.459779748,4.96433074634371E-06,6.45343839999134E-07,11.5041225665794,88.4958774334206,6.6304425194529E-07,5.82244655449533E-07,68.8934051991079,0,0.2101505,-0.1447798,0.3549303,9.07180049653585E-09,5.61874638683938E-06
272,2,0.000216118510755273,4627.09092573924,0.000216042841644157,7.5669111115356E-08,0.0350127857400618,99.9649872142599,NaN,NaN,73.5114718486717,28.0569225264657,0.1511887,-0.1544847,0.3056734,5.61874638683938E-06,0.000221737257142112
270,1,0.00537500715253602,186.046264055329,0.00537483408908816,1.73063447859299E-07,0.00321978079187568,99.9967802192081,9.02649111512365E-07,3.55195104002235E-07,92.4434040160068,4.09454552547144,0.1758476,-0.1694998,0.3453475,6.33916133763419E-08,0.00537507054414939
270,2,5.52754907911113E-06,180912.007417365,5.20774943193851E-06,3.19799647172624E-07,5.78555961413642,94.2144403858636,1.36751236221033E-06,1.20590628174214E-06,102.363508105806,0,0.1833552,-0.1876888,0.371044,0.00537507054414939,0.0053805980932285
268,1,5.17311657572972E-06,193307.068449147,4.37676154325288E-06,7.96355032476838E-07,15.3941056772823,84.6058943227177,6.84144278198E-07,3.10517088343739E-07,51.3838111916127,0,0.2337718,-0.1201209,0.3538926,7.90890853276709E-09,5.18102548426249E-06
268,2,0.00745386201977465,134.158641164414,0.00745356877568836,2.93244086287789E-07,0.00393412281458699,99.9960658771854,NaN,NaN,45.4308086755113,32.5848558776081,0.1575976,-0.1062044,0.263802,5.18102548426249E-06,0.00745904304525891
267,1,0.000208681944975491,4791.98140556647,0.000208352274785146,3.29670190344962E-07,0.157977342210262,99.8420226577897,0.000209304011745321,NaN,62.5213468898343,13.5173567643753,0.1854915,-0.1340983,0.3195899,1.06187130907112E-08,0.000208692563688582
267,2,5.38357954181872E-06,185750.018594909,4.64750760686261E-06,7.36071934956108E-07,13.6725375605288,86.3274624394712,9.28986424168288E-07,NaN,116.021632395042,0,0.2144841,-0.2488479,0.463332,0.000208692563688582,0.000214076143230401
266,1,0.00778720638504282,128.41575663395,5.77635705534957E-08,0.00778714862147227,99.9992582247382,0.000741775261843713,1.0123727127895E-06,4.55066214409723E-07,84.1311693546161,0,0.1619312,-0.1362346,0.2981659,2.1836025968512E-08,0.00778722822106879
266,2,5.07015016543849E-06,197232.817050797,4.98974809458579E-06,8.0402070852699E-08,1.58579269309956,98.4142073069004,NaN,1.23848467044416E-06,146.400301094504,1.99774179121783,0.1586962,-0.2370678,0.3957641,0.00778722822106879,0.00779229837123423
264,1,0.00599218202724819,166.884115911818,0.000218586666074837,0.00577359536117335,96.3521357481989,3.6478642518011,0.00599289455745885,NaN,83.8155849807406,18.4419676808039,0.15656,-0.1608936,0.3174536,1.43111629234835E-08,0.00599219633841111
264,2,1.88962409855553E-06,529205.782655091,1.50838245504843E-06,3.81241643507106E-07,20.1755282332891,79.8244717667109,6.60747627153312E-07,NaN,49.1891906368057,0,0.1919614,-0.09442427,0.2863857,0.00599219633841111,0.00599408596250967
264,3,5.75918291883387E-06,173635.742099763,5.23430069243949E-06,5.2488222639438E-07,9.11383148949641,90.8861685105036,3.84153317694452E-07,3.91403087589975E-07,121.812402788226,0,0.1919614,-0.2338328,0.4257942,0.00599408596250967,0.0059998451454285
264,4,1.92816912832072E-07,5186267.04116416,3.03168568296583E-08,1.62500056002414E-07,84.2768684632651,15.7231315367349,7.91968037012515E-07,NaN,72.6232160327109,9.50715139431871,0.1737114,0.1394086,0.0343028,0.0059998451454285,0.00600003796234133
263,1,5.01634116949395E-06,199348.482531717,4.85285837243289E-06,1.63482797061067E-07,3.25900475141645,96.7409952485836,1.33538284345674E-06,NaN,90.7686085034,0.732012353397229,0.1511887,-0.1362346,0.2874233,8.18980490834621E-09,5.0245309744023E-06
263,2,0.00811688432328141,123.199981689,0.00811630869899658,5.75624284836355E-07,0.00709169013515825,99.9929083098648,1.13494879915854E-06,NaN,87.9219202708081,44.3269712761772,0.2166204,-0.131962,0.3485824,5.0245309744023E-06,0.00812190885425582
260,1,0.000219041064514976,4565.35399978223,0.000218245558543901,7.95505971074549E-07,0.363176636689584,99.6368233633104,5.73202291264709E-07,NaN,59.1418972365029,9.36623823098065,0.1972716,-0.1287271,0.3259987,0.00570185064053296,0.00592089170504794
257,1,1.86879994439076E-06,535102.755648896,1.43021380780577E-06,4.38586136584995E-07,23.4688650276034,76.5311349723966,6.31817490179236E-07,4.27932994593742E-07,37.9418184156284,0,0.1951354,-0.0740379,0.2691733,6.55306765076135E-09,1.87535301204152E-06
251,1,1.39958681692914E-05,71449.6584209131,1.36804510112614E-05,3.15417158029958E-07,2.25364482013357,97.7463551798664,0.00146283286734669,NaN,78.0327871954002,19.8807727764797,0.1640675,-0.1597949,0.3238624,1.54891378577134E-08,1.40113573071491E-05
251,2,0.00144810428559125,690.558000518387,0.00144804875250196,5.55330892844572E-08,0.00383488190988838,99.9961651180901,0.00144914920873686,NaN,49.2399417311218,24.0834581832606,0.1554613,-0.1008332,0.2562944,1.40113573071491E-05,0.0014621156428984
250,1,0.000206376325349534,4845.5170345064,0.00020620124189506,1.7508345447338E-07,0.0848369861110989,99.9151630138889,0.000208206233723907,NaN,55.4840049159313,47.4449541568211,0.1544237,-0.1630299,0.3174535,1.04255676034713E-07,0.000206480581025568
250,2,4.61035896511398E-07,2169028.50204697,3.21425519472969E-07,1.39610377038429E-07,30.2818886977877,69.7181113022123,1.32009117337272E-06,NaN,27.0045696617828,44.8899032423259,0.1619312,0.07934812,0.08258309,0.000206480581025568,0.00020694161692208
250,3,5.05259424286403E-06,197918.129169454,4.22457366138128E-06,8.28020581482752E-07,16.3880284400869,83.6119715599131,NaN,NaN,86.5184834776005,0,0.2938322,-0.2542192,0.5480514,0.00020694161692208,0.000211994211164944
250,4,5.4031816792406E-06,185076.138350496,4.59433972365331E-06,8.08841955587291E-07,14.9697345675959,85.0302654324041,NaN,NaN,82.1354359957778,13.5022886343787,0.2541581,-0.2413404,0.4954985,0.000211994211164944,0.000217397392844184
247,1,3.17106247566627E-06,315351.718130337,3.06442581558349E-06,1.06636660082777E-07,3.36280539727846,96.6371946027215,4.80298748268551E-07,NaN,96.4876856156187,2.13967886386319,0.1544237,-0.1458785,0.3003021,1.21722243703068E-08,3.18323470003658E-06
245,1,0.00537855330710336,185.923601180882,0.00537844735206013,1.0595504323235E-07,0.00196995432010345,99.9980300456799,6.34322351314085E-07,3.96565366190997E-07,76.6210385632798,0,0.1694388,-0.1298257,0.2992645,8.18980490834621E-09,0.00537856149690827
245,2,4.90540762575903E-07,2038566.57038826,4.19408251690033E-07,7.11325108858699E-08,14.5008358759713,85.4991641240287,6.25388668024605E-07,NaN,81.0158490447894,7.6008612554056,0.15656,0.1372723,0.01928771,0.00537856149690827,0.00537905203767085
244,1,0.00641852781847163,155.798966411291,0.00641838047599189,1.47342479740025E-07,0.00229558060519725,99.9977044193948,2.9999152872366E-06,NaN,109.030234365939,0,0.1554613,-0.1694998,0.3249611,8.18980490834621E-09,0.00641853600827654
242,1,3.06153051548075E-06,326634.013590085,2.67293876212197E-06,3.88591753358781E-07,12.6927284047587,87.3072715952413,3.64032229267496E-06,NaN,101.719539523086,31.9205635934701,0.1715751,-0.2563555,0.4279305,0.000179536368420791,0.000182597898936272
242,2,2.12063000305603E-06,471557.979731921,1.52974322762474E-06,5.9088677543129E-07,27.8637374072689,72.1362625927311,7.71541910354233E-07,NaN,71.9302485085349,0,0.2520218,-0.1812799,0.4333018,0.000182597898936272,0.000184718528939328
242,3,2.91588487242025E-06,342949.068208574,2.38950738223016E-06,5.26377490190082E-07,18.0520669786656,81.9479330213344,NaN,NaN,102.131272578919,23.8314363592288,0.1919614,-0.2573931,0.4493545,0.000184718528939328,0.000187634413811748
242,4,2.35097369535891E-06,425355.67368283,1.66645261613237E-06,6.84521079226543E-07,29.1164924804504,70.8835075195496,NaN,NaN,37.8784212051156,16.6141938993313,0.2101505,-0.0954619,0.3056124,0.000187634413811748,0.000189985387507107
241,1,0.00709033704426105,141.037018939657,0.0070901763471373,1.60697123751129E-07,0.00226642432860365,99.9977335756714,3.89618453575182E-07,1.18738474718662E-07,71.0861384112545,0,0.1629688,-0.1158483,0.2788171,1.08407706296219E-08,0.00709034788503168
236,1,2.54085955514722E-07,3935676.01158522,2.32940203039865E-08,2.30791935210735E-07,90.8322283076221,9.16777169237788,2.00821814388673E-06,4.64227260060402E-07,71.7594070383066,0,0.1897641,0.1361736,0.05359051,5.03118046413512E-09,2.59117135978857E-07
234,1,5.17727817030896E-06,193151.684554034,4.86667493879547E-06,3.10603231513485E-07,5.99935373947562,94.0006462605244,1.0191381404525E-06,3.56031234585326E-07,145.126491501114,0,0.1640675,-0.2381054,0.4021729,8.26259769986719E-09,5.18554076800882E-06
233,1,4.58407583056839E-06,218146.478583887,4.17740316826924E-06,4.06672662299153E-07,8.87142092168944,91.1285790783106,4.93116352494594E-06,NaN,92.3161118266697,23.861648967725,0.2122868,-0.2573931,0.4696799,9.32088382856489E-09,4.59339671439695E-06
233,2,2.67693317198593E-06,373561.809635365,2.25092466420346E-06,4.26008507782465E-07,15.9140509087279,84.0859490912721,4.53365990538463E-07,NaN,19.6366007343235,0,0.2788171,-0.0547502,0.3335673,4.59339671439695E-06,7.27032988638288E-06
233,3,0.0052828750205115,189.290868346754,0.00528272909832104,1.4592219045987E-07,0.00276217381432093,99.9972378261857,NaN,NaN,68.0823094313001,41.5499142220393,0.1629688,-0.1898251,0.352794,7.27032988638288E-06,0.00529014535039789
229,1,6.83928693979249E-06,146214.073017141,6.29950152951827E-06,5.39785410274228E-07,7.89242233914236,92.1075776608576,2.24460490525217E-06,6.00533321774272E-07,126.678340783695,0,0.2091128,-0.2649007,0.4740135,9.26363235559047E-09,6.84855057214808E-06
225,1,1.07232353009219E-05,93255.4375556816,1.01336211479133E-05,5.89614153008529E-07,5.4984725827833,94.5015274172167,1.49067124035701E-06,NaN,142.212285468834,23.5868297543845,0.1854915,-0.2134465,0.3989379,1.33326685443016E-08,1.07365679694662E-05
225,2,0.000217170245771155,4604.68236083206,4.68889565956719E-06,0.000212481350111588,97.8409124864609,2.15908751353911,1.01012562829872E-06,2.84146132078369E-06,160.797075485007,30.7442110700648,0.196234,-0.2413404,0.4375744,1.07365679694662E-05,0.000227906813740621
225,3,2.53068676994052E-06,395149.653397644,2.17548145238817E-06,3.55205317552354E-07,14.0359258115813,85.9640741884187,7.90328338466954E-07,NaN,45.0183030390759,6.42537889043205,0.1597339,-0.06756798,0.2273019,0.000227906813740621,0.000230437500510562
223,1,2.14772520519666E-06,465608.913831429,1.67059447934843E-06,4.77130725848231E-07,22.2156319017796,77.7843680982204,4.96074309157822E-07,3.50787406852925E-07,58.6587199315059,0,0.2047792,-0.1201209,0.3249,1.99575135176344E-08,2.1676827187143E-06
223,2,2.5939368869022E-06,385514.391290471,2.1603328979132E-06,4.33603988988997E-07,16.7160577876213,83.2839422123787,2.82435894370221E-07,4.13008847622454E-07,124.143068884342,1.04321637571158,0.2026429,-0.2542192,0.4568621,2.1676827187143E-06,4.76161960561649E-06
223,3,2.47774140839871E-07,4035933.67980345,3.09975277337341E-08,2.16776613106137E-07,87.4896033828781,12.5103966171219,NaN,NaN,68.0775017702384,22.5037236677259,0.1586962,0.1394086,0.01928769,4.76161960561649E-06,5.00939374645636E-06
221,1,5.55037569102619E-06,180167.984235156,4.78314463355629E-06,7.672310574699E-07,13.8230473066959,86.1769526933041,6.48405881897061E-07,6.20445448927293E-07,88.5181539411017,0,0.1865902,-0.1651662,0.3517563,9.32088382856489E-09,5.55969657485475E-06
221,2,3.00177159523071E-07,3331366.05592786,1.38564955723429E-07,1.61612203799642E-07,53.8389409961823,46.1610590038177,NaN,NaN,71.835129206905,14.3931960874164,0.1597339,0.1340373,0.02569659,5.55969657485475E-06,5.85987373437782E-06
221,3,0.00644617215899419,155.130824206227,0.00644610892067429,6.32383198939199E-08,0.000981021268656082,99.9990189787313,NaN,NaN,61.5309122754506,18.4167456352709,0.1522263,-0.1148106,0.267037,5.85987373437782E-06,0.00645203203272856
220,1,5.36479191722338E-06,186400.519429198,5.32477765613915E-06,4.00142610842347E-08,0.745867905067688,99.2541320949323,7.98606376461234E-07,NaN,69.0880505413998,0,0.1940977,-0.1340983,0.328196,7.71904954421019E-09,5.37251096676759E-06
220,2,0.0054125443297523,184.755992575078,0.00541249242897778,5.19007745251231E-08,0.000958897911280447,99.9990411020887,8.9485713030355E-07,NaN,76.2578577483644,9.96855595539825,0.174749,-0.1480148,0.3227637,5.37251096676759E-06,0.00541791684071907
219,1,0.00625457888432691,159.882866375842,0.00625446971394033,1.09170386578213E-07,0.00174544743294834,99.998254552567,3.96199557702576E-07,NaN,92.3206507148234,0,0.1812189,-0.1673025,0.3485214,5.94247570766238E-09,0.00625458482680262
219,2,1.36392033557066E-07,7331806.51332985,6.59373916994666E-08,7.04546418575994E-08,51.6559802065869,48.3440197934131,NaN,NaN,71.6066043410316,12.4284261797269,0.1586962,0.1297647,0.02893154,0.00625458482680262,0.00625472121883617
213,1,0.00241256572956547,414.496478891836,0.00241228469345691,2.81036108556504E-07,0.0116488477438135,99.9883511522562,0.00887817493121716,NaN,70.624046738013,13.9117186224409,0.1726127,-0.1416059,0.3142186,4.26262741910282E-08,0.00241260835583966
212,1,5.4100537183778E-06,184841.048177216,4.69353264005625E-06,7.16521078321548E-07,13.2442507158024,86.7557492841976,7.02914051565334E-07,7.96306504327084E-07,67.2554798993823,0,0.1865902,-0.1254921,0.3120823,0.00635710339751016,0.00636251345122854
211,1,1.02873004051241E-05,97207.2322785385,1.02826988564428E-05,4.60154868132157E-09,0.0447303811506228,99.9552696188494,3.25712119558849E-08,NaN,89.0838210523881,0,0.15656,-0.1394696,0.2960296,8.99102327472139E-10,1.02881995074516E-05
210,1,5.52733454567738E-06,180919.029187774,5.18385600630188E-06,3.43478539375504E-07,6.2141803890651,93.7858196109349,7.79049647632608E-07,5.01268438931556E-07,141.852681977304,0,0.1640675,-0.2327342,0.3968017,7.25747962358754E-09,5.53459202530097E-06
209,1,7.29044497750177E-08,13716583.87226,4.68449577132262E-08,2.60594920617916E-08,35.7447208534059,64.2552791465941,2.12202139051695E-07,NaN,84.9702426364058,8.519348643971,0.15009,0.1394086,0.01068147,1.30256199591567E-08,8.59300697341744E-08
209,2,0.000203208739700279,4921.04818658362,0.000202981637716592,2.27101983686853E-07,0.111757980499173,99.8882420195008,NaN,1.66467257439192E-06,76.4880952380952,6.51041780195859,0.174749,-0.1254921,0.3002411,8.59300697341744E-08,0.000203294669770013
209,3,4.78172381795136E-06,209129.602225423,2.97432968831063E-06,1.80739412964073E-06,37.797961539633,62.202038460367,1.35840462495179E-06,NaN,110.491069157988,5.87797846106003,0.1737114,-0.1812799,0.3549913,0.000203294669770013,0.000208076393587964
209,4,2.23693878185477E-06,447039.502426993,1.77640062470433E-06,4.6053815715044E-07,20.5878748621177,79.4121251378823,3.39262900262539E-07,3.08741651689089E-07,95.4613117943934,7.1800583885176,0.1758476,-0.156621,0.3324686,0.000208076393587964,0.000210313332369819
209,5,2.85168722178989E-06,350669.593901795,2.50638590454052E-06,3.45301317249374E-07,12.1086672693593,87.8913327306407,2.79283358686018E-07,3.329081573279E-07,151.674110548733,11.0863072532257,0.1822565,-0.2488479,0.4311045,0.000210313332369819,0.000213165019591609
206,1,0.00247045609755246,404.783554336676,0.00247027826188097,1.7783567148752E-07,0.00719849551925678,99.9928015044807,1.58291617946757E-06,NaN,131.756214138658,0.721729692309981,0.153325,-0.2005676,0.3538926,1.30256199591567E-08,0.00247046912317242
203,1,0.00728112762105312,137.341364146473,0.00109529915126668,0.00618582846978644,84.957012041656,15.042987958344,0.0061865400389003,5.66339040897375E-07,84.7969432255204,4.26934778732806,0.1683401,-0.1491134,0.3174535,6.51587544990693E-09,0.00728113413692857
202,1,1.13065748509925E-07,8844411.44359667,6.23875222666525E-08,5.06782262432721E-08,44.8219084127177,55.1780915872823,7.73155827115545E-07,NaN,65.0077735343239,19.1290831937509,0.1586962,0.1275674,0.03112888,9.32088382856489E-09,1.22386632338489E-07
202,2,6.70458262285111E-06,149151.715513464,6.23920327671136E-06,4.65379346139746E-07,6.94121278412771,93.0587872158723,NaN,1.07473725100208E-06,148.678073925195,0,0.196234,-0.291757,0.487991,1.22386632338489E-07,6.82696925518959E-06
200,1,0.00590398662395423,169.37707750602,0.00590397124127122,1.53826830132711E-08,0.000260547389298936,99.9997394526107,6.46079938999361E-07,NaN,182.773730770279,0,0.1672414,-0.3056734,0.4729148,5.03118911413373E-09,0.00590399165514334
197,1,2.12865408732662E-07,4697804.14748316,1.34272718438243E-07,7.8592690294419E-08,36.9213066426981,63.0786933573019,9.56365043374961E-07,NaN,67.0439861358881,17.0439782402482,0.15656,0.1265297,0.03003022,2.549183581276E-08,2.38357244545422E-07
197,2,0.000216031839262441,4628.9473043146,0.000215430563237831,6.01276024609969E-07,0.278327503326732,99.7216724966733,NaN,4.04662593177198E-06,68.7904306108272,0,0.1887265,-0.1298257,0.3185522,2.38357244545422E-07,0.000216270196506986
193,1,5.54740299037492E-08,18026453.1301414,3.26720732268776E-08,2.28019566768716E-08,41.1038403311142,58.8961596688858,1.25585944364491E-06,4.96687145189384E-07,50.2710834181733,0,0.2026429,0.1018708,0.1007721,8.83728889665374E-08,1.43846918870287E-07
192,1,0.0046618057576436,214.50915202985,0.00466170851315728,9.7244486322347E-08,0.0020859832300585,99.9979140167699,1.17245103678722E-06,3.12966641569709E-07,69.1496822837551,0,0.1737114,-0.1201209,0.2938322,5.94247008623037E-09,0.00466181170011369
191,1,5.19672713685075E-06,192428.806374854,4.93839791893195E-06,2.583292179188E-07,4.97099830558642,95.0290016944136,0.00544370373235573,NaN,96.6548730480046,18.6233559193812,0.1544237,-0.1834162,0.3378399,5.86360246109547E-08,5.25536316146171E-06
191,2,0.00543769951196566,183.901298297102,0.00543752847892107,1.7103304459062E-07,0.0031453198951921,99.9968546801048,0.00544025823804669,NaN,137.922157405351,17.4975871335146,0.15656,-0.2617267,0.4182867,5.25536316146171E-06,0.00544295487512712
190,1,0.00643758084339882,155.337855061721,0.0064367846720021,7.96171396726062E-07,0.0123675557028921,99.9876324442971,9.11247024619003E-07,NaN,77.3145463569793,7.56181788100691,0.196234,-0.1641285,0.3603626,1.14490200907323E-08,0.00643759229241891
190,2,5.14234699964394E-06,194463.734179984,4.46523695157158E-06,6.7711004807236E-07,13.167334839894,86.832665160106,1.0617990890598E-06,NaN,73.7780338126547,0,0.2122868,-0.156621,0.3689077,0.00643759229241891,0.00644273463941856
187,1,2.19800010447076E-06,454959.032061003,1.86533368085767E-06,3.32666423613089E-07,15.1349594086207,84.8650405913793,5.8276700030181E-07,5.05636046072145E-07,43.9811436780353,1.26904103729864,0.1662038,-0.0740379,0.2402417,2.3033007517622E-08,2.22103311198838E-06
186,1,0.0057520940188684,173.849731370825,0.00575161676436524,4.77254503156208E-07,0.00829705671692232,99.9917029432831,7.36918865520247E-07,4.42196721273744E-07,73.0757899950756,0,0.2069765,-0.1512497,0.3582263,4.87690693673859E-06,0.00575697092580514
186,2,5.18495049671615E-06,192865.872226426,5.07923093526989E-06,1.05719561446262E-07,2.03896954297285,97.9610304570272,NaN,NaN,71.5128265308179,25.3907426659256,0.1544237,-0.1480148,0.3024384,0.00575697092580514,0.00576215587630185
186,3,0.000226438347343725,4416.21311818726,6.7212515949891E-06,0.000219717095748736,97.0317520535572,2.96824794644279,NaN,NaN,120.731348398412,24.8894165281973,0.1554613,-0.2498856,0.4053468,0.00576215587630185,0.00598859422364558
183,1,0.00644039419172861,155.269999045136,0.00644025709799652,1.37093732089876E-07,0.00212865436506891,99.9978713456349,0.00644149641999301,NaN,97.6117727919439,29.7417395054937,0.1544237,-0.2145451,0.3689688,5.50273525658848E-08,0.00644044921908118
183,2,5.13202640022806E-06,194854.804323602,4.41109518465547E-06,7.20931215572596E-07,14.0476910941175,85.9523089058825,7.58194980425043E-07,NaN,77.1174671762571,0,0.2197943,-0.1694998,0.3892941,0.00644044921908118,0.00644558124548141
183,3,0.000215667967355121,4636.75719794488,0.000215324422535566,3.43544819555661E-07,0.159293391489138,99.8407066085109,NaN,NaN,61.0108333842933,26.8258836217621,0.1608325,-0.1340983,0.2949309,0.00644558124548141,0.00666124921283653
181,1,1.38579426925713E-05,72160.783327244,1.35689317973602E-05,2.89010895211035E-07,2.08552525885363,97.9144747411464,1.98021346464755E-06,NaN,81.1703833804398,7.68311980427361,0.1651051,-0.1244545,0.2895596,4.1957679529876E-08,1.38999003721011E-05
180,1,7.54988854799397E-07,1324522.86367287,7.36857522095075E-07,1.81313327043227E-08,2.40153647157351,97.5984635284265,4.14107517212739E-07,NaN,67.6022461817729,1.40337416706931,0.15009,0.1029084,0.04718161,4.66349889176521E-09,7.59652353691163E-07
180,2,5.15035129016081E-06,194161.513198214,4.99983267289692E-06,1.50518617263895E-07,2.92249224924608,97.0775077507539,NaN,2.16941663862143E-06,137.409776446846,7.05693647525739,0.1629688,-0.2091739,0.3721427,7.59652353691163E-07,5.91000364385198E-06
180,3,1.99778856370855E-06,500553.471055851,1.6696213872916E-06,3.2816717641695E-07,16.4265219242102,83.5734780757898,9.3794734280103E-07,NaN,113.432238264575,11.9887690911355,0.1704764,-0.1726737,0.3431501,5.91000364385198E-06,7.90779220756053E-06
180,4,0.0054129454033762,184.742303030855,0.00541271204723393,2.33356142272048E-07,0.0043110751149734,99.995688924885,NaN,6.28075609954121E-07,126.82437173396,4.25019792993867,0.1586962,-0.1930601,0.3517563,7.90779220756053E-06,0.00542085319558376
179,1,0.000204357310008398,4893.38991572607,1.50183295083309E-06,0.000202855477057565,99.2650945783288,0.734905421671172,0.000212993037934959,NaN,55.1447310051505,18.803212984963,0.2037416,-0.1383709,0.3421125,4.09110267246561E-08,0.000204398221035122
179,2,3.05756195844416E-06,327057.967619682,2.67212689109773E-06,3.85435067346425E-07,12.6059609775677,87.3940390224323,9.04248618177486E-06,NaN,91.8997789083429,30.7711009509376,0.1737114,-0.2305979,0.4043092,0.000204398221035122,0.000207455782993566
179,3,5.06438876596001E-06,197457.1949771,4.57446052245296E-06,4.89928243507044E-07,9.67398567029586,90.3260143297042,NaN,NaN,77.7912925637071,14.9598644113694,0.2133854,-0.1951964,0.4085818,0.000207455782993566,0.000212520171759526
179,4,2.36350641300188E-06,423100.184750463,1.75507882228758E-06,6.08427590714306E-07,25.7425826038502,74.2574173961498,NaN,NaN,26.9277553466115,0,0.2509232,-0.06756798,0.3184912,0.000212520171759526,0.000214883678172528
178,1,0.00602945621343873,165.852435874922,0.00602943179239832,2.44210404183876E-08,0.000405028903998951,99.999594971096,1.12676467870153E-06,NaN,78.2652383540256,6.46349542626381,0.1704764,-0.1426435,0.3131199,9.2870764838356E-08,0.00602954908420357
177,1,5.29435128608822E-06,188880.553246942,5.26506844859718E-06,2.92828374910373E-08,0.553095854594741,99.4469041454053,6.04316964979464E-06,NaN,66.1747015527091,25.9337376972874,0.15009,-0.1340983,0.2841884,1.30256199591567E-08,5.30737690604737E-06
177,2,6.79376145241612E-07,1471938.6410666,2.89388565914621E-08,6.5043728865015E-07,95.7403778754742,4.25962212452579,7.65736129492124E-07,NaN,67.7409629362456,0,0.2026429,0.1372723,0.06537065,5.30737690604737E-06,5.98675305128898E-06
176,1,4.77584680072925E-07,2093869.50989991,1.11746120556496E-07,3.65838559516429E-07,76.6018205317154,23.3981794682846,6.43991506501669E-07,NaN,89.3419462962229,14.1703680881584,0.1726127,0.1350749,0.03753777,5.03118334855117E-09,4.82615863421476E-07
176,2,3.07408237027888E-07,3253003.26910004,1.22400504848191E-07,1.85007732179697E-07,60.183075758934,39.816924241066,NaN,NaN,92.2083180318905,6.37867626404702,0.1608325,0.1394086,0.02142398,4.82615863421476E-07,7.90024100449364E-07
174,1,5.70226351939986E-06,175368.955958957,5.44260356402144E-06,2.59659955378413E-07,4.55362952790616,95.4463704720938,9.18471234237699E-07,NaN,81.4291328431499,0,0.1554613,-0.1265908,0.282052,2.00051041770762E-08,5.72226862357693E-06
173,1,0.00613640782645053,162.961789418489,1.27050721552766E-07,0.00613628077572898,99.9979295587069,0.00207044129311384,0.00613754638348692,NaN,70.1886765510402,21.5723281352418,0.1522263,-0.1362346,0.288461,6.51586126064859E-09,0.00613641434231179
173,2,5.07878234202574E-06,196897.589354289,4.65841735325899E-06,4.20364988766748E-07,8.27688529371157,91.7231147062884,NaN,1.67861103723792E-06,59.685530380837,0,0.1940977,-0.1158483,0.309946,0.00613641434231179,0.00614149312465382
172,1,0.00543674427177915,183.933609897887,0.0054362624712778,4.8180050135185E-07,0.00886193054642577,99.9911380694536,6.47046141768565E-07,4.4996554697576E-07,100.03720124566,4.57588945126709,0.1715751,-0.1641285,0.3357036,7.26631602860482E-08,0.00543681693493944
171,1,0.000208182973750379,4803.46678686147,0.000207957628444556,2.2534530582285E-07,0.10824386920952,99.8917561307905,8.98492507066223E-07,NaN,159.628574599388,2.82599169612133,0.1554613,-0.2413404,0.3968017,1.09176970922833E-08,0.000208193891447471
171,2,4.76903949747829E-06,209685.828882056,4.08927093997836E-06,6.79768557499934E-07,14.2537833427333,85.7462166572667,1.28468072151344E-06,NaN,175.211938535607,36.8994713437732,0.2069765,-0.2649007,0.4718772,0.000208193891447471,0.00021296293094495
171,3,4.10716978691401E-07,2434766.644384,3.5353319622475E-07,5.71837824666515E-08,13.9229166149514,86.0770833850486,1.19188212353695E-06,NaN,91.4816251600861,6.37867626404702,0.1608325,0.1383099,0.02252266,0.00021296293094495,0.000213373647923641
166,1,0.0064487326091381,155.069229972873,0.00644801695661533,7.15652522767629E-07,0.011097568563372,99.9889024314366,0.00644937260991059,NaN,60.8035687038708,10.5803557805068,0.2445143,-0.1662648,0.4107791,6.51586148692158E-09,0.00644873912499959
166,2,5.16136467141291E-06,193747.209054743,4.44546153746412E-06,7.15903133948793E-07,13.8704234156122,86.1295765843878,8.8495215863453E-07,NaN,48.2589272090783,0,0.2734458,-0.131962,0.4054079,0.00644873912499959,0.006453900489671
164,1,4.02533129491409E-05,24842.6757137599,4.02145840058671E-05,3.87289432738263E-08,0.0962130578488271,99.9037869421512,4.10494787498634E-05,NaN,59.2428862734686,31.5556741030484,0.1511887,-0.1308634,0.2820521,3.53179199647149E-08,4.02886308691056E-05
163,1,0.000200468309750746,4988.31960644234,0.000200358085414185,1.10224336561063E-07,0.054983421917465,99.9450165780825,0.000210852937134288,NaN,45.6493514248341,38.7878777630511,0.1726127,-0.1287271,0.3013398,3.83793742704578E-09,0.000200472147688173
163,2,4.79637162737614E-06,208490.93391603,4.6244135516804E-06,1.71958075695746E-07,3.58516997962094,96.4148300203791,1.06334747467634E-05,NaN,69.2207787129405,45.6277070642944,0.153325,-0.1951964,0.3485214,0.000200472147688173,0.000205268519315549
163,3,5.08231143707164E-06,196760.86607085,4.88661124985957E-06,1.95700187212064E-07,3.85061383260732,96.1493861673927,NaN,NaN,74.9350642762471,35.7359330944069,0.1812189,-0.2113102,0.3925291,0.000205268519315549,0.00021035083075262
163,4,2.433790428386E-06,410881.721095091,1.97072473366624E-06,4.63065694719764E-07,19.0265229626551,80.9734770373449,NaN,NaN,11.0389607472969,0,0.281991,-0.03112888,0.3131199,0.00021035083075262,0.000212784621181006
159,1,0.00647382270516753,154.468240102062,0.00626311223048678,0.000210710474680759,3.25480761950069,96.7451923804993,0.000211438578215795,NaN,104.18973065838,0,0.1544237,-0.1608936,0.3153172,9.32088143822906E-09,0.00647383202604897
156,1,5.06914600640491E-06,197271.887362584,5.02971978838034E-06,3.94262180245709E-08,0.777768444127581,99.2222315558724,1.35197254002073E-06,NaN,71.0639970171085,42.0887333542289,0.220893,-0.110477,0.33137,6.51586148692158E-09,5.07566186789183E-06
156,2,0.00567708084962952,176.146866054455,0.00567682140416483,2.59445464688595E-07,0.00457005055169376,99.9954299494483,4.33284209482704E-06,NaN,65.5673388716197,2.74833386530788,0.1597339,-0.1019318,0.2616657,5.07566186789183E-06,0.00568215651149741
156,3,5.32153044889485E-06,187915.865483336,4.94346022264763E-06,3.78070226247224E-07,7.10453937787276,92.8954606221272,3.65409637595893E-06,3.59200548344547E-07,66.2347896016709,8.99097368595098,0.1694388,-0.1029695,0.2724082,0.00568215651149741,0.0056874780419463
156,4,5.70348962900154E-06,175331.255958655,5.32092455804521E-06,3.82565070956332E-07,6.70756143766855,93.2924385623314,3.77352063151044E-06,NaN,78.6808037704055,8.28426227591171,0.1683401,-0.1223182,0.2906583,0.0056874780419463,0.00569318153157531
155,1,0.00242395511346717,412.548893518751,0.0024235542623771,4.0085109006638E-07,0.016537067367267,99.9834629326327,1.03250631707746E-06,4.90535809353688E-07,65.2201213633563,0,0.1940977,-0.1265908,0.3206885,1.06741864348286E-08,0.0024239657876536
152,1,6.70224897121978E-07,1492036.48550526,4.73392550158207E-08,6.22885642106158E-07,92.9368104319758,7.06318956802423,3.93654119696636E-07,6.53195617516855E-07,76.9575750593743,8.48568709216748,0.1919614,0.1361736,0.05578783,2.78535400437042E-08,6.98078437165683E-07
148,1,4.71611077471198E-07,2120391.24560443,1.09173717334246E-07,3.62437360136952E-07,76.8509005514371,23.1490994485629,4.02727261337368E-07,1.27741812560453E-06,68.6461560742664,0,0.1983703,0.1361736,0.06219672,6.38391877627099E-09,4.77994996247469E-07
148,2,0.00562568972600712,177.755981702489,0.00562012117478573,5.56855122139275E-06,0.0989843289019261,99.9010156710981,NaN,NaN,101.107696084389,16.2153858588748,0.1662038,-0.2005676,0.3667715,4.77994996247469E-07,0.00562616772100337
147,1,3.11056507419551E-07,3214849.95859999,3.07215172242397E-08,2.80334990195311E-07,90.1234931623524,9.87650683764758,1.08743231339094E-05,NaN,61.4258595205156,28.0834883844823,0.1619312,0.1383099,0.02362134,1.55006455352747E-06,1.86112106094702E-06
147,2,5.3730034723294E-06,186115.643727001,2.40083449713935E-06,2.97216897519006E-06,55.3167142082919,44.6832857917081,NaN,NaN,116.698292358248,25.2371893779237,0.1683401,-0.2627644,0.4311045,1.86112106094702E-06,7.23412453327642E-06
147,3,2.44452067394208E-06,409078.152072807,2.22974138560408E-06,2.14779288338007E-07,8.78615143768245,91.2138485623176,5.33496827268665E-06,NaN,87.6389264361023,26.1859601253557,0.1662038,-0.1973327,0.3635365,7.23412453327642E-06,9.67864520721851E-06
147,4,3.29191627839586E-08,30377443.271045,1.2596185905522E-08,2.03229768784366E-08,61.7360077223469,38.2639922776531,NaN,NaN,51.4231495032793,21.9029549114678,0.1758476,0.1157872,0.06006043,9.67864520721851E-06,9.71156437000246E-06
147,5,5.54890914539555E-08,18021560.1625014,2.14979471099694E-08,3.39911443439861E-08,61.2573452787413,38.7426547212587,NaN,NaN,56.6549188467305,20.0054200344725,0.1801202,0.1275674,0.05255288,9.71156437000246E-06,9.76705346145642E-06
147,6,2.06041348206033E-06,485339.476132743,1.96256319023146E-06,9.78502918288621E-08,4.7490609375656,95.2509390624344,NaN,NaN,24.7763623627247,25.2371893779237,0.1683401,-0.05578784,0.2241279,9.76705346145642E-06,1.18274669435167E-05
147,7,0.00522958174402231,191.219881234872,0.00522915192113966,4.29822882655268E-07,0.00821906805733704,99.9917809319427,NaN,NaN,62.4017370581787,0,0.2251656,-0.1405072,0.3656728,1.18274669435167E-05,0.00524140921096583
143,1,0.000217059980624517,4607.0215113944,0.000216953757211081,1.06223413435659E-07,0.0489373550711821,99.9510626449288,8.86098248422835E-07,NaN,66.5021371895074,0,0.1854915,-0.1233558,0.3088473,1.06187130907112E-08,0.000217070599337607
143,2,2.86991691097486E-05,34844.2143455755,2.81329324727154E-05,5.66236637033286E-07,1.97300707511056,98.0269929248894,6.14762031981317E-07,6.4434568618118E-07,99.4735110286498,2.89568934242622,0.1801202,-0.1845149,0.3646352,0.000217070599337607,0.000245769768447356
143,3,0.00530582003364864,188.472280186317,0.00530573210163909,8.79320095520148E-08,0.00165727463416332,99.9983427253658,0.00530661670136814,NaN,75.7486027613478,14.4455421555891,0.1586962,-0.1405072,0.2992035,0.000245769768447356,0.005551589802096
139,1,0.006171069710217,162.046459845425,0.00617093133167603,1.38378540975079E-07,0.00224237526835867,99.9977576247316,5.28285998663322E-07,NaN,110.658053703777,3.55268456792569,0.15656,-0.1673025,0.3238624,1.79111700382177E-08,0.00617108762138704
138,1,0.00643030123827459,155.513709691822,0.00643020268004153,9.85582330566357E-08,0.00153271564433086,99.9984672843557,8.67400248195635E-07,1.07100497175662E-06,105.91517970672,0,0.1640675,-0.1737724,0.3378399,6.96954943020531E-09,0.00643030820782402
138,2,4.96772047570062E-06,201299.570877922,4.74527092142549E-06,2.22449554275125E-07,4.47789998175677,95.5221000182432,7.02596664306498E-07,NaN,150.37202153894,5.87797846106003,0.1544237,-0.2467116,0.4011353,0.00643030820782402,0.00643527592829972
137,1,5.37938213776865E-06,185894.95492038,5.00869142249312E-06,3.70690715275522E-07,6.89095338055466,93.1090466194453,5.84341801988412E-06,NaN,72.5826183149491,18.2986486914521,0.1629688,-0.1447798,0.3077486,1.08147648113149E-08,5.39019690257996E-06
137,2,0.00547696966740925,182.582716488373,0.0054764635125572,5.0615485205178E-07,0.00924151278513843,99.9907584872149,7.92966679087875E-07,NaN,72.5826183149491,0,0.199469,-0.1447798,0.3442488,5.39019690257996E-06,0.00548235986431183
137,3,1.49493118687012E-07,6689271.11015498,2.09388196165464E-08,1.28554299070466E-07,85.993455885829,14.006544114171,NaN,NaN,69.8898472270116,13.4638853213504,0.1726127,0.1394086,0.03320414,0.00548235986431183,0.00548250935743052
134,1,5.11030695247291E-06,195682.961767315,4.67669475636595E-06,4.33612196106957E-07,8.48505187926391,91.5149481207361,5.12411768980809E-07,5.91818197706384E-07,86.5525684463972,0,0.174749,-0.1512497,0.3259987,1.25625084234472E-08,5.12286946089635E-06
133,1,0.00880293615381159,113.598461073355,0.00880286900707285,6.71467387457701E-08,0.000762776618761413,99.9992372233812,3.53595855785842E-07,NaN,88.7674265806081,5.31474129982277,0.153325,-0.1437422,0.2970672,9.31582797011413E-09,0.00880294546963956
131,1,1.80488128505849E-06,554053.060596499,1.77112993695331E-06,3.37513481051834E-08,1.87000377169347,98.1299962283065,2.5247584353492E-06,NaN,25.4950473254038,13.048097513761,0.15009,-0.04400769,0.1940977,0.000222719361942732,0.00022452424322779
131,2,0.00663857204299926,150.634804220368,0.00663819359675723,3.78446242029184E-07,0.0057007175576,99.9942992824424,7.42323557800589E-07,NaN,131.117396110893,0,0.1726127,-0.2263253,0.398938,0.00022452424322779,0.00686309628622705
131,3,4.97205294594343E-06,201124.165585541,4.81551478019506E-06,1.56538165748364E-07,3.14836079684308,96.8516392031569,5.7380063433329E-06,NaN,70.2263031557233,11.1739783743597,0.153325,-0.1212195,0.2745445,0.00686309628622705,0.00686806833917299
130,1,5.61044543179045E-08,17823896.7325786,2.63971205552395E-08,2.97073337626649E-08,52.9500449185984,47.0499550814016,1.16965546386726E-06,8.73221178527905E-07,57.1508700547458,0,0.217658,0.1243934,0.09326456,9.11809190070358E-10,5.70162635079748E-08
130,2,0.000217075884578335,4606.68398031627,0.000217064205714519,1.16788638158043E-08,0.0053800834848561,99.9946199165151,NaN,NaN,65.0588883985535,26.1076875111849,0.1608325,-0.1416059,0.3024384,5.70162635079748E-08,0.000217132900841843
128,1,0.000222824012968658,4487.84664936744,0.000222267147730997,5.56865237661332E-07,0.249912579098761,99.7500874209012,9.45926891522353E-07,NaN,89.5780229526674,6.45709101798005,0.2016053,-0.1930601,0.3946654,1.09176970922833E-08,0.00022283493066575
128,2,0.00517366180383026,193.286696718302,0.00517335874781791,3.03056012346427E-07,0.00585766955470617,99.9941423304453,0.00517515635630228,NaN,88.0770360143803,21.382042708165,0.1694388,-0.1898251,0.3592639,0.00022283493066575,0.00539649673449601
125,1,5.45507461889537E-06,183315.549256867,4.69820462734542E-06,7.56869991549958E-07,13.8746038217021,86.1253961782979,5.14450294760917E-07,7.7368768202597E-07,75.5878684545192,0,0.1972716,-0.1491134,0.3463851,4.95209720005939E-06,1.04071718189548E-05
123,1,1.18090838275691E-07,8468057.42597432,4.59641879764113E-08,7.21266502992799E-08,61.0772616677471,38.9227383322529,1.49860476626837E-06,6.40849546361707E-07,83.3576724021333,3.83211584529512,0.1608325,0.1394086,0.02142398,6.44913433763321E-08,1.82582181652023E-07
123,2,1.52448170818212E-07,6559606.41989244,6.3188797937648E-08,8.92593728805635E-08,58.5506355382918,41.4493644617082,NaN,1.59335163830247E-06,73.7226310215584,0,0.1672414,0.1232948,0.04394665,1.82582181652023E-07,3.35030352470235E-07
123,3,0.000221171062758928,4521.38714498099,1.85440265077397E-06,0.000219316660108154,99.1615527693172,0.838447230682803,NaN,6.71879246706551E-07,101.350368364901,8.97809590727644,0.1522263,-0.1694998,0.3217261,3.35030352470235E-07,0.000221506093111398
123,4,5.17763623384825E-06,193138.326996131,5.0371796931731E-06,1.40456540675146E-07,2.71275412816618,97.2872458718338,NaN,NaN,153.284669451686,6.38685380217835,0.15656,-0.2563555,0.4129154,0.000221506093111398,0.000226683729345247
121,1,0.0002052357770823,4872.44482524604,0.000205108277844277,1.27499238022312E-07,0.0621233002524625,99.9378766997475,0.000214003601156831,NaN,61.7421442553397,27.3942072954678,0.1790826,-0.1522874,0.33137,5.43604434357387E-09,0.000205241213126643
121,2,3.27031921012967E-06,305780.547936282,2.78428790600235E-06,4.86031304127322E-07,14.8618918490238,85.1381081509762,9.13262702303909E-06,NaN,87.4041115748426,15.2190060668393,0.2091128,-0.2155828,0.4246956,0.000205241213126643,0.000208511532336773
121,3,2.4577240249091E-06,406880.508089994,2.11163167193235E-06,3.46092352976747E-07,14.081823242524,85.918176757476,NaN,NaN,54.3677334358117,24.3504084986619,0.1865902,-0.1340983,0.3206885,0.000208511532336773,0.000210969256361682
121,4,2.66445068920372E-06,375311.881001203,2.55855399136092E-06,1.05896697842796E-07,3.97442888591957,96.0255711140804,NaN,NaN,96.5355140066652,38.7032885361138,0.1511887,-0.2381054,0.3892941,0.000210969256361682,0.000213633707050886
121,5,2.47593978947049E-06,403887.042913051,1.98630078429929E-06,4.89639005171207E-07,19.7758849893487,80.2241150106513,NaN,NaN,9.13140318699822,0,0.2466506,-0.02252266,0.2691733,0.000213633707050886,0.000216109646840356
120,1,0.00496646323339126,201.350529140466,2.8454023935599E-06,0.0049636178309977,99.9427076722439,0.0572923277560875,6.32423099973921E-07,4.60593175953539E-07,106.284586338037,0,0.1544237,-0.1641285,0.3185522,3.64282160542185E-08,0.00496649966160732
120,2,5.20698966440317E-06,192049.545793485,2.685205260043E-06,2.52178440436016E-06,48.4307549446464,51.5692450553536,4.70452817616547E-07,5.57238286691582E-07,96.5612635329873,2.76680089810132,0.1586962,-0.1491134,0.3078097,0.00496649966160732,0.00497170665127172
116,1,5.32202868430346E-06,187898.27325609,4.75248747578942E-06,5.69541208514039E-07,10.7015809627975,89.2984190372025,8.20609121691898E-07,NaN,75.3940477680128,9.25276862416916,0.1897641,-0.1576586,0.3474227,3.66976923186894E-08,5.35872637662215E-06
116,2,6.18845145990426E-08,16159131.3510193,4.83470906848765E-08,1.35374239141661E-08,21.875301118344,78.124698881656,8.85542120731957E-07,NaN,62.0548773761655,28.2253370619819,0.15009,0.1297647,0.02032532,5.35872637662215E-06,5.42061089122119E-06
115,1,1.34360924589936E-07,7442640.06110377,4.29830493230911E-08,9.13778752668449E-08,68.0092635159563,31.9907364840437,5.69923191903239E-07,6.07736066017208E-07,77.7012321643592,0,0.1683401,0.1308023,0.03753777,5.94246468189413E-09,1.4030338927183E-07
114,1,2.13631401827868E-06,468095.978139834,1.76848746300867E-06,3.67826555270015E-07,17.2178131174923,82.7821868825077,6.68587853035796E-07,4.2034163434007E-07,96.1439598599502,0,0.1662038,-0.1597949,0.3259987,1.01839371857828E-08,2.14649795546447E-06
114,2,1.0972817668364E-05,91134.2947840214,1.0887913646789E-05,8.49040215749235E-08,0.773766813055799,99.2262331869442,4.32153664399059E-07,NaN,109.695189455598,7.08776995858253,0.1544237,-0.1823176,0.3367412,2.14649795546447E-06,1.31193156238284E-05
113,1,0.000893351862034206,1119.37976792588,0.000893289738082993,6.21239512132071E-08,0.00695402940916784,99.9930459705908,7.14100788329183E-07,NaN,77.351632183473,0.726692871804364,0.15009,-0.1169469,0.2670369,3.57716897657152E-08,0.000893387633723971
113,2,0.00435761890808357,229.483123947566,0.00435755401876609,6.48893174791734E-08,0.00148910032859461,99.9985108996714,8.73388366248533E-07,NaN,81.5906295836569,2.82599169612133,0.1554613,-0.1233558,0.2788171,0.000893387633723971,0.00525100654180754
112,1,2.04805352496923E-06,488268.488986403,1.72450144130926E-06,3.23552083659964E-07,15.7980286997053,84.2019713002947,5.67582062044367E-07,4.33056403727531E-07,62.5400255527801,3.77089798715622,0.1651051,-0.1073031,0.2724082,8.42674554421084E-09,2.05648027051344E-06
109,1,4.92152829330079E-06,203188.916207432,4.32011345352318E-06,6.01414839777614E-07,12.220082948548,87.779917051452,5.5079929223985E-07,4.84234589846877E-07,76.9471395565069,0,0.1951354,-0.1501511,0.3452864,2.12498936230338E-08,4.94277818692383E-06
105,1,0.000217382140296043,4600.19391951033,0.000216910385925827,4.71754370215968E-07,0.217016158536992,99.782983841463,1.48126008412835E-06,NaN,86.0341551124963,6.67931712011047,0.1715751,-0.1383709,0.309946,6.51586721907637E-09,0.000217388656163262
105,2,1.90933326693328E-06,523743.03497376,1.6578561657794E-06,2.5147710115388E-07,13.1709380184736,86.8290619815264,8.47060272420248E-07,NaN,44.0227719280008,0.683118926955444,0.1619312,-0.07080294,0.2327342,0.000217388656163262,0.000219297989430196
105,3,1.09773381147173E-05,91096.7658597764,1.05775192012242E-05,3.99818913493109E-07,3.6422209948792,96.3577790051208,NaN,7.6227641727697E-07,144.705890854956,5.35104730356057,0.1694388,-0.2327342,0.4021729,0.000219297989430196,0.000230275327544913
104,1,1.56511422975421E-07,6389310.00044031,5.28716377127999E-08,1.03639785262621E-07,66.218671642195,33.781328357805,2.97226175368775E-06,6.1927238032711E-07,75.0000044549851,0,0.1672414,0.1254311,0.04181035,4.85936467075721E-09,1.61370787646178E-07
103,1,1.10331412561374E-07,9063601.89527832,5.68309767737636E-08,5.350043578761E-08,48.4906651202798,51.5093348797202,3.14269425222775E-06,NaN,77.0155532162818,9.29985923495849,0.15656,0.1329386,0.02362134,5.43604957585953E-09,1.15767462137233E-07
101,1,4.98368678527129E-06,200654.664525745,4.92750758766223E-06,5.61791976090626E-08,1.1272618049572,98.8727381950428,1.0546363232671E-06,NaN,108.502774995492,7.80036638929648,0.1522263,-0.1791437,0.33137,3.51104275818545E-08,5.01879721285315E-06
99,1,4.144812240569E-07,2412654.52319432,9.11648879430746E-08,3.23316336113826E-07,78.0050620747637,21.9949379252363,9.90098078243573E-07,NaN,89.0448358887366,8.2261169948949,0.1694388,0.1394086,0.03003021,5.94247008623037E-09,4.20423694143131E-07
97,1,0.00625852663172115,159.782015615549,0.00625802204809339,5.04583627766771E-07,0.00806233890911807,99.9919376610909,6.10995754790041E-07,5.20654618924304E-07,75.3025869811292,0,0.1865902,-0.1405072,0.3270974,5.91186768371335E-09,0.00625853254358884
97,2,1.32818667954518E-07,7529062.10701072,5.93305686125839E-08,7.3488099341934E-08,55.3296464071595,44.6703535928405,NaN,NaN,72.391236952611,13.2155669599725,0.1619312,0.1350749,0.02685629,0.00625853254358884,0.00625866536225679
97,3,3.32107803045593E-07,3011070.47419393,1.29998637579502E-07,2.02109165466091E-07,60.8564940698923,39.1435059301077,NaN,NaN,68.9564979754595,12.6594672003044,0.1629688,0.128666,0.0343028,0.00625866536225679,0.00625899747005984
97,4,1.13111737052272E-07,8840815.51623479,3.678087284395E-08,7.63308642083224E-08,67.4827088660548,32.5172911339452,NaN,NaN,74.1249578536852,13.2155669599725,0.1619312,0.1383099,0.02362134,0.00625899747005984,0.00625911058179689
96,1,4.8320820609723E-06,206950.127787934,4.82571881741472E-06,6.36324355757603E-09,0.131687406738611,99.8683125932614,0.00021396846927703,NaN,83.7224148838322,16.8532147545127,0.1586962,-0.1597949,0.3184912,5.8827780762078E-10,4.83267033877992E-06
96,2,0.000209076312311711,4782.94259614215,0.000208844447854982,2.31864456728459E-07,0.11089943866179,99.8891005613382,0.000209670487257359,NaN,80.9401945554789,17.9724954743237,0.15656,-0.1544847,0.3110446,4.83267033877992E-06,0.000213908982650491
96,3,4.42362718636776E-07,2260588.33140751,4.88674578195752E-08,3.93495260817201E-07,88.953079506752,11.046920493248,7.19179984556682E-07,4.92650828121913E-07,73.0412567885144,0,0.1908628,0.1394086,0.0514542,0.000213908982650491,0.000214351345369127
94,1,2.89726718488845E-05,34515.2840999889,2.86237988970727E-05,3.48872951811834E-07,1.20414490465872,98.7958550953413,3.13571489244955E-07,3.440315734713E-07,72.0772622338557,0,0.1801202,-0.1298257,0.309946,5.03118792228636E-09,2.89777030368068E-05
94,2,5.80921909240747E-06,172140.176518214,5.71678805072583E-06,9.24310416816417E-08,1.59110958308402,98.408890416916,6.67083130533855E-06,NaN,52.4229079809872,16.0623495108443,0.1511887,-0.09442427,0.245613,2.89777030368068E-05,3.47869221292143E-05
94,3,0.000186313471224924,5367.29842144784,0.00018611775848291,1.95712742013413E-07,0.105044869126582,99.8949551308734,NaN,NaN,70.2812577946196,7.72619856688616,0.1662038,-0.1265908,0.2927946,3.47869221292143E-05,0.000221100393354138
94,4,0.00541075180315743,184.817200341079,0.00541069373992828,5.80632291568737E-08,0.00107310834555359,99.9989268916544,NaN,NaN,69.6712971446512,13.6902784781014,0.1554613,-0.1254921,0.2809534,0.000221100393354138,0.00563185219651157
93,1,5.70941833570579E-06,175149.190548214,5.62312318269068E-06,8.6295153015107E-08,1.51145261988303,98.488547380117,3.95639873597448E-07,NaN,104.466854392414,6.34005763688761,0.1586962,-0.1770073,0.3357036,1.73118879335813E-08,5.72673022363937E-06
93,2,5.25176109315958E-06,190412.317365788,5.10051561624282E-06,1.51245476916769E-07,2.87990017508157,97.1200998249184,6.02944441806546E-06,NaN,119.632563742196,10.7708900738494,0.1511887,-0.2027039,0.3538926,5.72673022363937E-06,1.0978491316799E-05
92,1,0.004540653818154,220.232600865078,0.00454040486400652,2.48954147479032E-07,0.00548278193954554,99.9945172180605,1.0694625551659E-06,NaN,89.5302535622354,3.5031847133758,0.1586962,-0.1372723,0.2959685,3.93137520650583E-08,0.00454069313190606
89,1,8.52921300618651E-07,1172441.11417392,4.65187104295502E-07,3.8773419632315E-07,45.4595513140443,54.5404486859557,5.06737501095314E-07,8.15020925831601E-07,81.4233624053783,0,0.1672414,0.1361736,0.03106783,9.32088382856489E-09,8.62242184447216E-07
83,1,0.00604737631955268,165.360967659107,0.00604686534282953,5.10976723146642E-07,0.00844956053908084,99.9915504394609,0.00604792827122777,NaN,56.67414287418,13.7969745834503,0.1876278,-0.1233558,0.3109836,5.4360495982626E-09,0.00604738175560228
77,1,5.03773488592718E-06,198501.910609366,4.61473545529661E-06,4.22999430630569E-07,8.39661951668419,91.6033804833158,1.13633648739519E-06,3.74074997493898E-07,92.541711474994,0,0.1865902,-0.1726737,0.3592639,8.18608497011764E-09,5.04592097089729E-06
75,1,2.47343332352449E-06,404296.323854432,2.39944855325682E-06,7.39847702676694E-08,2.99117706404334,97.0088229359567,8.00553525036244E-06,NaN,44.9223811228516,16.494173254657,0.1575976,-0.08478042,0.242378,2.72107315910017E-09,2.47615439668359E-06
75,2,5.18536649343967E-06,192850.399535917,5.01121772848614E-06,1.7414876495353E-07,3.35846588999748,96.6415341100025,5.7407774756043E-06,NaN,113.680467245017,18.7580821743455,0.153325,-0.2145451,0.3678701,2.47615439668359E-06,7.66152089012326E-06
75,3,0.00542501181218286,184.33139587905,0.00542484006876059,1.71743422273173E-07,0.00316577047606591,99.9968342295239,NaN,NaN,65.9443761647056,0,0.1887265,-0.1244545,0.3131809,7.66152089012326E-06,0.00543267333307298
74,1,1.07493599893882E-05,93028.7943642417,5.26698157895216E-06,5.48237841043602E-06,51.0019053771411,48.9980946228589,6.2862790636948E-06,1.00254967360886E-06,67.3842545262909,0,0.2069765,-0.1394696,0.3464461,4.12558429234647E-08,1.07906158323116E-05
67,1,4.80200121313797E-06,208246.511322001,4.74499229769386E-06,5.700891544412E-08,1.18719077554889,98.8128092244511,6.18116541266094E-06,NaN,70.7841040725791,31.122448778908,0.15656,-0.1608936,0.3174536,4.34594199610427E-09,4.80634715513408E-06
67,2,5.43173470814965E-06,184103.247623567,4.55885709104829E-06,8.72877617101358E-07,16.0699604086281,83.9300395913719,8.96451588706279E-07,NaN,103.813099147304,0,0.2273019,-0.2359691,0.463271,4.80634715513408E-06,1.02380818632837E-05
67,3,0.000216332997505973,4622.50332371227,0.000215845133056485,4.87864449488283E-07,0.225515503928065,99.7744844960719,NaN,NaN,53.3297495668341,16.0311512347277,0.1908628,-0.1212195,0.3120823,1.02380818632837E-05,0.000226571079369257
67,4,0.00516358553129548,193.663878314632,0.00516347819814786,1.07333147615998E-07,0.0020786553639031,99.9979213446361,NaN,NaN,47.6638016201684,30.6659512245009,0.1575976,-0.1083407,0.2659383,0.000226571079369257,0.00539015661066473
64,1,4.98226631478439E-06,200711.87223224,4.92633806801202E-06,5.59282467723722E-08,1.12254631203496,98.877453687965,7.12845710945354E-07,NaN,97.121110894786,0,0.1844539,-0.1791437,0.3635975,5.03118670629712E-09,4.98729750149069E-06
63,1,0.00649051099014214,154.071074144826,0.00649035292557114,1.58064570995475E-07,0.0024353178237514,99.9975646821762,6.02612195889892E-07,5.99894879740498E-07,73.6363666189465,0,0.1544237,-0.113712,0.2681356,2.49103009646974E-08,0.0064905359004431
60,1,0.00470049620185239,212.743497081418,0.00470043127531232,6.49265400654928E-08,0.00138126991869297,99.9986187300813,1.05450949807611E-06,3.60799860653502E-07,165.185460528604,0,0.1662038,-0.2745445,0.4407483,5.03118792228636E-09,0.00470050123304031
58,1,1.29337825107401E-07,7731690.23964649,4.46738491284106E-08,8.46639759789908E-08,65.4595636726428,34.5404363273572,5.70388014671169E-07,6.36491210553634E-07,81.1829908579571,4.54713160213278,0.1575976,0.1340373,0.0235603,8.22376549656557E-09,1.37561590603967E-07
57,1,2.08166895155566E-07,4803837.80164797,5.86185408766046E-08,1.49548354278962E-07,71.840603745952,28.159396254048,9.95858137318973E-07,NaN,85.4150206171918,2.80632538456283,0.15009,0.131901,0.01818903,8.99802988527188E-09,2.17164925040838E-07
57,2,5.12986353191279E-06,194936.959585575,5.08679680149983E-06,4.30667304129576E-08,0.839529748599359,99.1604702514006,NaN,NaN,166.007899493554,2.80632538456283,0.15009,-0.2563555,0.4064455,2.17164925040838E-07,5.34702845695363E-06
57,3,0.000217279180769029,4602.3737592375,0.000217075662994314,2.03517774714433E-07,0.0936664865884119,99.9063335134116,1.05799948794921E-06,NaN,182.648229368623,0,0.1544237,-0.2820521,0.4364757,5.34702845695363E-06,0.000222626209225982
52,1,1.28263181273365E-07,7796469.64992016,5.16465937865361E-08,7.66165874868292E-08,59.7338899021516,40.2661100978484,4.60166274966351E-07,5.0098988111635E-07,84.2322066694256,0.674155002069189,0.1640675,0.1372723,0.02679525,5.09081208681472E-09,1.3335399336018E-07
52,2,0.00642139842946582,155.729318307257,0.00642128565300303,1.12776462789963E-07,0.00175626016713846,99.9982437398329,NaN,1.2384908559523E-06,115.168533264379,1.31085796441947,0.1651051,-0.1876888,0.352794,1.3335399336018E-07,0.00642153178345918
52,3,5.48213305389626E-06,182410.749642291,5.06988840332911E-06,4.12244650567148E-07,7.51978557459779,92.4802144254022,5.36258920571381E-07,4.17093849169707E-07,71.0861384112545,3.97003507654169,0.1694388,-0.1158483,0.285287,0.00642153178345918,0.00642701391651308
51,1,3.1799771804389E-07,3144676.6541324,8.00524747230705E-08,2.3794524332082E-07,74.8260851632836,25.1739148367164,3.47553894682519E-06,5.73426090592594E-07,78.7787360288285,0,0.1619312,0.1275674,0.03436385,1.09176970922833E-08,3.28915415136173E-07
48,1,1.77238931790217E-07,5642101.25788626,9.07433399323719E-08,8.64955918578451E-08,48.8016887622764,51.1983112377236,1.03029423905391E-06,NaN,85.9380968937248,0,0.1597339,0.1372723,0.02246162,8.13176833313358E-09,1.85370700123351E-07
47,1,0.00545371724852659,183.361174485195,0.00544863038904122,5.08685948537057E-06,0.0932732529678701,99.9067267470321,0.00545511398862465,NaN,92.5293509140491,12.5222344882283,0.15009,-0.1587573,0.3088473,5.94247008623037E-09,0.00545372319099668
46,1,5.58584336567192E-06,179023.995936863,5.16716211252212E-06,4.18681253149799E-07,7.49539909627302,92.504600903727,1.29451409933726E-06,NaN,96.4619750404349,10.0040695482722,0.1651051,-0.1447798,0.3098849,2.91602964051679E-08,5.61500366207708E-06
39,1,4.92181368840445E-06,203177.134143852,4.74851562619806E-06,1.73298062206396E-07,3.52102036317786,96.4789796368221,1.45322318379361E-06,NaN,82.1878830714238,10.0040695482722,0.1651051,-0.1233558,0.2884609,3.63179517123882E-09,4.92544548357569E-06
38,1,7.07997325937988E-06,141243.471318928,7.0410628032861E-06,3.89104560937733E-08,0.549584788928728,99.4504152110713,3.59669389327947E-06,NaN,136.890790655405,9.99644178708964,0.1544237,-0.2348704,0.3892941,1.31602968576788E-08,7.09313355623755E-06
30,1,0.000219170915338202,4562.64919301405,0.000218801664004493,3.69251333709218E-07,0.168476429976772,99.8315235700232,9.56309064417671E-07,5.2235724599605E-07,89.6487984044791,0,0.1651051,-0.1480148,0.3131199,8.18980048907913E-09,0.000219179105138691
29,1,1.65119932080446E-07,6056204.0415133,8.47063497642445E-08,8.04135823162018E-08,48.7001062215943,51.2998937784057,2.99342068618716E-06,5.02815308431373E-07,72.1824336386608,0,0.1619312,0.1168859,0.04504532,6.55306926843646E-09,1.71673001348883E-07
29,2,4.61922080217892E-06,216486.728568657,4.58548124879288E-06,3.37395533860432E-08,0.730416553591204,99.2695834464088,NaN,1.35416779360501E-06,75.5371251732306,6.63399901720987,0.1511887,-0.1223182,0.2735069,1.71673001348883E-07,4.7908938035278E-06
27,1,5.34555936079979E-06,187071.1617821,5.22174647147725E-06,1.23812889322544E-07,2.31618210491669,97.6838178950833,5.81618268890871E-06,NaN,65.7449580224355,18.2823666273597,0.153325,-0.1233558,0.2766808,1.08147648113149E-08,5.35637412561111E-06
26,1,0.0066818646634918,149.658822852814,0.00668172223240786,1.42431083940977E-07,0.0021316068360257,99.997868393164,6.03974561309742E-07,4.42978855986123E-07,87.1504604722075,0,0.1833552,-0.1597949,0.3431501,7.99451354423619E-09,0.00668187265800535
23,1,2.89742036795109E-06,345134.59319234,2.52217420364582E-06,3.75246164305269E-07,12.9510432264485,87.0489567735515,3.68380627151837E-07,3.70794767606992E-07,78.3954664698865,0,0.1833552,-0.1437422,0.3270974,5.94247497298768E-09,2.90336284292408E-06
20,1,2.36825275007699E-07,4222522.27920981,2.04457007576518E-07,3.23682674311811E-08,13.6675730367583,86.3324269632417,6.87999980124521E-07,NaN,88.7329606011745,2.12509407055938,0.1554613,0.1350749,0.02038635,7.25748674969265E-09,2.44082761757392E-07
19,1,0.00549607020818023,181.948185179953,0.0054788353885033,1.72348196769317E-05,0.313584416212147,99.6864155837878,1.82048474957203E-05,NaN,72.4045540240318,0,0.1822565,-0.131962,0.3142186,1.08645969685052E-08,0.0054960810727772
17,1,0.000231186571778562,4325.51074358174,0.000231121981330823,6.45904477385856E-08,0.0279386675626007,99.9720613324374,0.000232646958462755,NaN,65.2313818850041,36.1049225307615,0.1575976,-0.1608936,0.3184912,0.00815730946413538,0.00838849603591394
17,2,5.35362285886479E-06,186789.399694854,4.48363690118241E-06,8.69985957682382E-07,16.2504154778444,83.7495845221556,2.83733550431389E-06,NaN,80.4503819104385,0,0.2466506,-0.1984313,0.4450819,0.00838849603591394,0.0083938496587728
17,3,5.29031143118967E-06,189024.788617241,4.67598845676175E-06,6.14322974427928E-07,11.6122270383954,88.3877729616046,NaN,NaN,91.3140303596309,13.4867600494694,0.2133854,-0.2252266,0.438612,0.0083938496587728,0.00839913997020399
17,4,1.18864645553413E-07,8412930.48361166,5.60132578375505E-08,6.28513877158621E-08,52.8764355652071,47.1235644347929,NaN,NaN,53.031429020046,36.5256097272904,0.15656,0.1308023,0.02575763,0.00839913997020399,0.00839925883484955
17,5,1.31884197474355E-07,7582409.56195264,5.65901609253516E-08,7.52940365490035E-08,57.0910222687175,42.9089777312825,NaN,NaN,52.6107418235171,28.7057661163088,0.1758476,0.1297647,0.04608294,0.00839925883484955,0.00839939071904702
16,1,0.000215987126972303,4629.90555973382,0.000215508677425268,4.78449547035056E-07,0.221517621786974,99.778482378213,5.24213791180712E-07,3.99647629167987E-07,81.8151359137485,0,0.1822565,-0.1491134,0.33137,9.32088143822906E-09,0.000215996447853741
15,1,0.00298085032317301,335.4747443124,0.00298077462360298,7.56995700248672E-08,0.0025395293898651,99.9974604706101,5.97834634576552E-06,5.17151766159814E-07,88.5786749234074,0.65265346996175,0.1672414,-0.1491134,0.3163549,3.63179331920697E-09,0.00298085395496633
15,2,0.000212722275008736,4700.96514320813,0.000212697059427229,2.52155815069245E-08,0.0118537569729776,99.988146243027,5.27494472796642E-07,NaN,73.9303838069071,9.57215352276285,0.1522263,-0.1244545,0.2766808,0.00298085395496633,0.00319357622997506
15,3,2.86513508075421E-07,3490236.83636153,7.69580885840587E-08,2.09555419491362E-07,73.1398044367944,26.8601955632056,0.00560167727443016,NaN,79.6229089679815,9.57215352276285,0.1522263,0.1340373,0.01818904,0.00319357622997506,0.00319386274348314
15,4,0.00538333825909072,185.758343962749,0.00538331942376361,1.88353271057297E-08,0.000349881917115702,99.9996501180829,NaN,NaN,60.5511248758864,9.57215352276285,0.1522263,-0.1019318,0.2541581,0.00319386274348314,0.00857720100257386
14,1,0.00271917214972082,367.758988743199,0.00271883073994073,3.41409780087618E-07,0.012555651547206,99.9874443484528,4.54417817589303E-07,3.2631619961103E-07,164.862957741115,0,0.1737114,-0.2863857,0.460097,1.31602968576788E-08,0.00271918531001768
13,1,0.00558909473625001,178.919851458977,0.00558901125201167,8.34842383332597E-08,0.00149369875217526,99.9985063012478,1.10008796157523E-06,NaN,110.190862380035,0,0.1790826,-0.1973327,0.3764153,9.32088382856489E-09,0.00558910405713383
13,2,5.85997159237728E-06,170649.291423325,5.35162006620217E-06,5.08351526175115E-07,8.67498277357494,91.3250172264251,1.41397133564519E-06,5.37190340956645E-07,77.2665256063993,2.41990555690862,0.174749,-0.1383709,0.3131199,0.00558910405713383,0.00559496402872621
13,3,1.38733825031344E-07,7208047.49507968,7.04551642947276E-08,6.82786607366162E-08,49.2155829489961,50.7844170510039,3.64947708079814E-06,NaN,69.4614866611677,10.8043655404117,0.1597339,0.1243934,0.03534043,0.00559496402872621,0.00559510276255124
13,4,0.000234630071439331,4262.02828079763,0.000234527142939521,1.02928499810112E-07,0.0438684177090772,99.9561315822909,NaN,NaN,71.8813922180763,8.9979548230488,0.1629688,-0.1287271,0.2916959,0.00559510276255124,0.00582973283399057
10,1,0.00409778339738654,244.034372494596,0.00409733031338338,4.53084003160833E-07,0.0110568070398694,99.9889431929601,4.08390890050376E-07,5.30342900724864E-07,75.7494103266936,0,0.1812189,-0.1372723,0.3184912,1.75028191698164E-08,0.00409780090020571
9,1,0.00198522848263372,503.72035700059,0.00198510059834631,1.27884287414763E-07,0.00644179189113303,99.9935582081089,6.14308525476237E-07,NaN,74.7256515660189,8.43620806577196,0.1629688,-0.1329997,0.2959685,5.4619125451209E-09,0.00198523394454627
2,1,0.00554230284331819,180.430414625502,0.00554195146625444,3.51377063748982E-07,0.00633991093021203,99.9936600890698,9.07733318573234E-07,3.16287046061821E-07,59.8081673726285,0,0.1972716,-0.1179846,0.3152562,0.000223970920847027,0.00576627376416522
2,2,0.000229751666425631,4352.52555751839,0.000229502969882099,2.48696543531622E-07,0.108245806178787,99.8917541938212,NaN,NaN,107.642327676876,19.5544554455446,0.1586962,-0.2123478,0.371044,0.00576627376416522,0.00599602543059085
1,1,6.75498834161257E-07,1480387.45506003,1.22170478907383E-07,5.53328355253874E-07,81.9140355646834,18.0859644353166,7.16280076486658E-07,6.0752519718022E-07,73.8054868330649,0,0.1801202,0.1329386,0.04718162,1.17587819234618E-08,6.87257616084719E-07
1,2,0.0054439256533864,183.690972961386,0.00544383430374463,9.13496417742588E-08,0.00167801045771877,99.9983219895423,NaN,4.08226480183721E-06,75.6353770558665,7.72619856688616,0.1662038,-0.1362346,0.3024384,6.87257616084719E-07,0.00544461291100249