x_acc, y_acc, z_acc, time
0.01, -0.00, 0.98, 111020
0.01, -0.00, 0.98, 139124
0.01, -0.00, 0.98, 167204
0.01, -0.00, 0.98, 195280
0.01, -0.00, 0.98, 223368
0.01, -0.00, 0.98, 251444
0.01, -0.00, 0.98, 279532
0.01, -0.00, 0.98, 307608
0.01, -0.00, 0.98, 335692
0.01, -0.00, 0.98, 363772
0.01, -0.00, 0.98, 391848
0.01, -0.00, 0.98, 419932
0.01, -0.00, 0.98, 448000
0.01, -0.00, 0.98, 476092
0.01, -0.00, 0.98, 504156
0.01, -0.00, 0.98, 532248
0.01, -0.00, 0.98, 560324
0.01, -0.00, 0.98, 588408
0.01, -0.00, 0.98, 616488
0.01, -0.00, 0.98, 644568
0.01, -0.00, 0.98, 672640
0.01, -0.00, 0.98, 700724
0.01, -0.00, 0.98, 728800
0.01, -0.00, 0.98, 756884
0.01, -0.00, 0.98, 784960
0.01, -0.00, 0.98, 813052
0.01, -0.00, 0.98, 841116
0.01, -0.00, 0.98, 869204
0.01, -0.00, 0.98, 897280
0.01, -0.00, 0.98, 925372
0.01, -0.00, 0.98, 953452
0.01, -0.00, 0.98, 981528
0.01, -0.00, 0.98, 1009604
0.01, -0.00, 0.98, 1038732
0.01, -0.00, 0.98, 1067844
0.01, -0.00, 0.98, 1096968
0.01, -0.00, 0.98, 1126084
0.01, -0.00, 0.98, 1155200
0.01, -0.00, 0.98, 1184328
0.01, -0.00, 0.98, 1213456
0.01, -0.00, 0.98, 1242568
0.01, -0.00, 0.98, 1271684
0.01, -0.00, 0.98, 1300800
0.01, -0.00, 0.98, 1329932
0.01, -0.00, 0.98, 1359040
0.01, -0.00, 0.98, 1388172
0.01, -0.00, 0.98, 1417296
0.01, -0.00, 0.98, 1446404
0.01, -0.00, 0.98, 1475520
0.01, -0.00, 0.98, 1504644
0.01, -0.00, 0.98, 1533764
0.01, -0.00, 0.98, 1562876
0.01, -0.00, 0.98, 1592008
0.01, -0.00, 0.98, 1621124
0.01, -0.00, 0.98, 1650252
0.01, -0.00, 0.98, 1679376
0.01, -0.00, 0.98, 1708488
0.01, -0.00, 0.98, 1737604
0.01, -0.00, 0.98, 1766732
0.01, -0.00, 0.98, 1795844
0.01, -0.00, 0.98, 1824964
0.01, -0.00, 0.98, 1854084
0.01, -0.00, 0.98, 1883208
0.01, -0.00, 0.98, 1912324
0.01, -0.00, 0.98, 1941444
0.01, -0.00, 0.98, 1970568
0.01, -0.00, 0.98, 1999688
0.01, -0.00, 0.98, 2028800
0.01, -0.00, 0.98, 2057928
0.01, -0.00, 0.98, 2087048
0.01, -0.00, 0.98, 2116168
0.01, -0.00, 0.98, 2145300
0.01, -0.00, 0.98, 2174412
0.01, -0.00, 0.98, 2203528
0.01, -0.00, 0.98, 2232640
0.01, -0.00, 0.98, 2261776
0.01, -0.00, 0.98, 2290880
0.01, -0.00, 0.98, 2320004
0.01, -0.00, 0.98, 2349132
0.01, -0.00, 0.98, 2378240
0.01, -0.01, 0.98, 2407364
0.01, -0.00, 0.98, 2436484
0.01, -0.00, 0.98, 2465608
0.01, -0.00, 0.98, 2494724
0.01, -0.00, 0.98, 2523852
0.01, -0.00, 0.98, 2552956
0.01, -0.00, 0.98, 2582084
0.01, -0.00, 0.98, 2611212
0.01, -0.00, 0.98, 2640328
0.01, -0.00, 0.98, 2669448
0.01, -0.00, 0.98, 2698564
0.01, -0.00, 0.98, 2727680
0.01, -0.00, 0.98, 2756800
0.01, -0.00, 0.98, 2785928
0.01, -0.00, 0.98, 2815048
0.01, -0.00, 0.98, 2844156
0.01, -0.00, 0.98, 2873284
0.01, -0.00, 0.98, 2902412
0.01, -0.00, 0.98, 2931528
0.01, -0.00, 0.98, 2960640
0.01, -0.00, 0.98, 2989772
0.01, -0.00, 0.98, 3018888
0.01, -0.00, 0.98, 3048000
0.01, -0.00, 0.98, 3077136
0.01, -0.00, 0.98, 3106240
0.01, -0.00, 0.98, 3135364
0.01, -0.00, 0.98, 3164484
0.01, -0.00, 0.98, 3193612
0.01, -0.00, 0.98, 3222724
0.01, -0.00, 0.98, 3251844
0.01, -0.00, 0.98, 3280972
0.01, -0.00, 0.98, 3310084
0.01, -0.00, 0.98, 3339204
0.01, -0.00, 0.98, 3368320
0.01, -0.00, 0.98, 3397448
0.01, -0.00, 0.98, 3426556
0.01, -0.00, 0.98, 3455688
0.01, -0.00, 0.98, 3484808
0.01, -0.00, 0.98, 3513916
0.01, -0.00, 0.98, 3543060
0.01, -0.00, 0.98, 3572172
0.01, -0.00, 0.98, 3601280
0.01, -0.00, 0.98, 3630396
0.01, -0.00, 0.98, 3659536
0.01, -0.00, 0.98, 3688648
0.01, -0.00, 0.98, 3717764
0.01, -0.00, 0.98, 3746892
0.01, -0.00, 0.98, 3776004
0.01, -0.00, 0.98, 3805124
0.01, -0.00, 0.98, 3834252
0.01, -0.00, 0.98, 3863360
0.01, -0.00, 0.98, 3892488
0.01, -0.00, 0.98, 3921604
0.01, -0.00, 0.98, 3950728
0.01, -0.00, 0.98, 3979844
0.01, -0.00, 0.98, 4008972
0.01, -0.00, 0.98, 4038088
0.01, -0.00, 0.98, 4067208
0.01, -0.00, 0.98, 4096324
0.01, -0.00, 0.98, 4125452
0.01, -0.00, 0.98, 4154556
0.01, -0.00, 0.98, 4183688
0.01, -0.00, 0.98, 4212812
0.01, -0.00, 0.98, 4241928
0.01, -0.00, 0.98, 4271040
0.01, -0.00, 0.98, 4300168
0.01, -0.00, 0.98, 4329284
0.01, -0.00, 0.98, 4358400
0.01, -0.00, 0.98, 4387528
0.01, -0.00, 0.98, 4416652
0.01, -0.00, 0.98, 4445764
0.01, -0.00, 0.98, 4474896
0.01, -0.00, 0.98, 4504008
0.01, -0.00, 0.98, 4533128
0.01, -0.00, 0.98, 4562244
0.01, -0.00, 0.98, 4591360
0.01, -0.00, 0.98, 4620484
0.01, -0.00, 0.98, 4649608
0.01, -0.00, 0.98, 4678732
0.01, -0.00, 0.98, 4707844
0.01, -0.00, 0.98, 4736964
0.01, -0.00, 0.98, 4766088
0.01, -0.00, 0.98, 4795204
0.01, -0.00, 0.98, 4824316
0.01, -0.00, 0.98, 4853448
0.01, -0.00, 0.98, 4882564
0.01, -0.00, 0.98, 4911684
0.01, -0.00, 0.98, 4940812
0.01, -0.00, 0.98, 4969928
0.01, -0.00, 0.98, 4999044
0.01, -0.00, 0.98, 5028172
0.01, -0.00, 0.98, 5057292
0.01, -0.00, 0.98, 5086400
0.01, -0.00, 0.98, 5115516
0.01, -0.00, 0.98, 5144656
0.01, -0.00, 0.98, 5173772
0.01, -0.00, 0.98, 5202876
0.01, -0.00, 0.98, 5232004
0.01, -0.00, 0.98, 5261124
0.01, -0.00, 0.98, 5290236
0.01, -0.00, 0.98, 5319368
0.01, -0.00, 0.98, 5348492
0.01, -0.00, 0.98, 5377600
0.01, -0.00, 0.98, 5406736
0.01, -0.00, 0.98, 5435844
0.01, -0.00, 0.98, 5464964
0.01, -0.00, 0.98, 5494080
0.01, -0.00, 0.98, 5523212
0.01, -0.00, 0.98, 5552324
0.01, -0.00, 0.98, 5581452
0.01, -0.00, 0.98, 5610576
0.01, -0.00, 0.98, 5639692
0.01, -0.00, 0.98, 5668800
0.01, -0.00, 0.98, 5697924
0.01, -0.00, 0.98, 5727044
0.01, -0.00, 0.98, 5756156
0.01, -0.00, 0.98, 5785296
0.01, -0.01, 0.98, 5814408
0.01, -0.00, 0.98, 5843520
0.01, -0.00, 0.98, 5872656
0.01, -0.00, 0.98, 5901772
0.01, -0.00, 0.98, 5930888
0.01, -0.00, 0.98, 5960004
0.01, -0.00, 0.98, 5989120
0.01, -0.00, 0.98, 6018248
0.01, -0.00, 0.98, 6047372
0.01, -0.00, 0.98, 6076496
0.01, -0.00, 0.98, 6105600
0.01, -0.00, 0.98, 6134728
0.01, -0.00, 0.98, 6163848
0.01, -0.00, 0.98, 6192960
0.01, -0.00, 0.98, 6222084
0.01, -0.00, 0.98, 6251216
0.01, -0.00, 0.98, 6280320
0.01, -0.00, 0.98, 6309448
0.01, -0.00, 0.98, 6338576
0.01, -0.00, 0.98, 6367688
0.01, -0.00, 0.98, 6396804
0.01, -0.00, 0.98, 6425924
0.01, -0.00, 0.98, 6455040
0.01, -0.00, 0.98, 6484168
0.01, -0.00, 0.98, 6513284
0.01, -0.00, 0.98, 6542416
0.01, -0.00, 0.98, 6571524
0.01, -0.00, 0.98, 6600640
0.01, -0.00, 0.98, 6629756
0.01, -0.00, 0.98, 6658884
0.01, -0.00, 0.98, 6688000
0.01, -0.00, 0.98, 6717132
0.01, -0.00, 0.98, 6746244
0.01, -0.00, 0.98, 6775360
0.01, -0.00, 0.98, 6804496
0.01, -0.00, 0.98, 6833608
0.01, -0.00, 0.98, 6862728
0.01, -0.00, 0.98, 6891844
0.01, -0.00, 0.98, 6920972
0.01, -0.00, 0.98, 6950084
0.01, -0.00, 0.98, 6979212
0.01, -0.00, 0.98, 7008328
0.01, -0.00, 0.98, 7037444
0.01, -0.00, 0.98, 7066564
0.01, -0.00, 0.98, 7095688
0.01, -0.00, 0.98, 7124804
0.01, -0.00, 0.98, 7153920
0.01, -0.00, 0.98, 7183048
0.01, -0.00, 0.98, 7212164
0.01, -0.00, 0.98, 7241284
0.01, -0.00, 0.98, 7270412
0.01, -0.00, 0.98, 7299532
0.01, -0.00, 0.98, 7328644
0.01, -0.00, 0.98, 7357760
0.01, -0.00, 0.98, 7386892
0.01, -0.00, 0.98, 7416004
0.01, -0.00, 0.98, 7445132
0.01, -0.00, 0.98, 7474248
0.01, -0.00, 0.98, 7503368
0.01, -0.00, 0.98, 7532480
0.01, -0.00, 0.98, 7561600
0.01, -0.00, 0.98, 7590724
0.01, -0.00, 0.98, 7619848
0.01, -0.00, 0.98, 7648976
0.01, -0.00, 0.98, 7678080
0.01, -0.00, 0.98, 7707204
0.01, -0.00, 0.98, 7736336
0.01, -0.00, 0.98, 7765448
0.01, -0.00, 0.98, 7794564
0.01, -0.00, 0.98, 7823684
0.01, -0.00, 0.98, 7852800
0.01, -0.00, 0.98, 7881920
0.01, -0.00, 0.98, 7911048
0.01, -0.00, 0.98, 7940172
0.01, -0.00, 0.98, 7969288
0.01, -0.00, 0.98, 7998400
0.01, -0.00, 0.98, 8027524
0.01, -0.00, 0.98, 8056644
0.01, -0.00, 0.98, 8085760
0.01, -0.00, 0.98, 8114892
0.01, -0.00, 0.98, 8144004
0.01, -0.00, 0.98, 8173120
0.01, -0.00, 0.98, 8202256
0.01, -0.00, 0.98, 8231368
0.01, -0.00, 0.98, 8260488
0.01, -0.00, 0.98, 8289604
0.01, -0.00, 0.98, 8318732
0.01, -0.00, 0.98, 8347840
0.01, -0.00, 0.98, 8376972
0.01, -0.00, 0.98, 8406088
0.01, -0.00, 0.98, 8435208
0.01, -0.00, 0.98, 8464316
0.01, -0.00, 0.98, 8493448
0.01, -0.00, 0.98, 8522564
0.01, -0.00, 0.98, 8551688
0.01, -0.00, 0.98, 8580812
0.01, -0.00, 0.98, 8609928
0.01, -0.00, 0.98, 8639052
0.01, -0.00, 0.98, 8668176
0.01, -0.00, 0.98, 8697288
0.01, -0.00, 0.98, 8726408
0.01, -0.00, 0.98, 8755524
0.01, -0.00, 0.98, 8784640
0.01, -0.00, 0.98, 8813768
0.01, -0.00, 0.98, 8842880
0.01, -0.00, 0.98, 8872012
0.01, -0.00, 0.98, 8901128
0.01, -0.00, 0.98, 8930240
0.01, -0.00, 0.98, 8959360
0.01, -0.00, 0.98, 8988484
0.01, -0.00, 0.98, 9017600
0.01, -0.00, 0.98, 9046732
0.01, -0.00, 0.98, 9075852
0.01, -0.00, 0.98, 9104964
0.01, -0.00, 0.98, 9134092
0.01, -0.00, 0.98, 9163208
0.01, -0.00, 0.98, 9192324
0.01, -0.00, 0.98, 9221444
0.01, -0.00, 0.98, 9250560
0.01, -0.00, 0.98, 9279680
0.01, -0.00, 0.98, 9308804
0.01, -0.00, 0.98, 9337936
0.01, -0.00, 0.98, 9367048
0.01, -0.00, 0.98, 9396164
0.01, -0.00, 0.98, 9425280
0.01, -0.00, 0.98, 9454404
0.01, -0.00, 0.98, 9483516
0.01, -0.00, 0.98, 9512652
0.01, -0.00, 0.98, 9541764
0.01, -0.00, 0.98, 9570884
0.01, -0.00, 0.98, 9600016
0.01, -0.00, 0.98, 9629124
0.01, -0.00, 0.98, 9658248
0.01, -0.00, 0.98, 9687368
0.01, -0.00, 0.98, 9716476
0.01, -0.00, 0.98, 9745604
0.01, -0.00, 0.98, 9774724
0.01, -0.00, 0.98, 9803852
0.01, -0.00, 0.98, 9832964
0.01, -0.00, 0.98, 9862084
0.01, -0.00, 0.98, 9891200
0.01, -0.00, 0.98, 9920328
0.01, -0.00, 0.98, 9949444
0.01, -0.00, 0.98, 9978564
0.01, -0.00, 0.98, 10007684
0.01, -0.00, 0.98, 10037844
0.01, -0.00, 0.98, 10068012
0.01, -0.00, 0.98, 10098164
0.01, -0.00, 0.98, 10128320
0.01, -0.00, 0.98, 10158476
0.01, -0.00, 0.98, 10188644
0.01, -0.00, 0.98, 10218812
0.01, -0.00, 0.98, 10248960
0.01, -0.00, 0.98, 10279128
0.01, -0.00, 0.98, 10309284
0.01, -0.00, 0.98, 10339448
0.01, -0.00, 0.98, 10369600
0.01, -0.00, 0.98, 10399772
0.01, -0.00, 0.98, 10429924
0.01, -0.00, 0.98, 10460088
0.01, -0.00, 0.98, 10490244
0.01, -0.00, 0.98, 10520400
0.01, -0.00, 0.98, 10550560
0.01, -0.00, 0.98, 10580728
0.01, -0.00, 0.98, 10610880
0.01, -0.00, 0.98, 10641040
0.01, -0.00, 0.98, 10671216
0.01, -0.00, 0.98, 10701360
0.01, -0.00, 0.98, 10731532
0.01, -0.00, 0.98, 10761696
0.01, -0.00, 0.98, 10791852
0.01, -0.00, 0.98, 10822008
0.01, -0.00, 0.98, 10852164
0.01, -0.00, 0.98, 10882328
0.01, -0.00, 0.98, 10912484
0.01, -0.00, 0.98, 10942652
0.01, -0.00, 0.98, 10972808
0.01, -0.00, 0.98, 11002976
0.01, -0.00, 0.98, 11033128
0.01, -0.00, 0.98, 11063296
0.01, -0.00, 0.98, 11093444
0.01, -0.00, 0.98, 11123608
0.01, -0.00, 0.98, 11153760
0.01, -0.00, 0.98, 11183932
0.01, -0.00, 0.98, 11214084
0.01, -0.00, 0.98, 11244244
0.01, -0.00, 0.98, 11274404
0.01, -0.00, 0.98, 11304568
0.01, -0.00, 0.98, 11334728
0.01, -0.00, 0.98, 11364892
0.01, -0.00, 0.98, 11395052
0.01, -0.00, 0.98, 11425204
0.01, -0.00, 0.98, 11455360
0.01, -0.00, 0.98, 11485520
0.01, -0.00, 0.98, 11515688
0.01, -0.00, 0.98, 11545844
0.01, -0.00, 0.98, 11576012
0.01, -0.00, 0.98, 11606160
0.01, -0.00, 0.98, 11636328
0.01, -0.00, 0.98, 11666492
0.01, -0.00, 0.98, 11696644
0.01, -0.00, 0.98, 11726804
0.01, -0.00, 0.98, 11756960
