m,s1,s2,s3,mean,,,,,,,,,,,,,,,,,,,,,
10,50,55,52,52.333333333333336,,,,,,,,,,,,,,,,,,,,,
20,103,105,102,103.33333333333333,,,,,,,,,,,,,,,,,,,,,
30,155,155,153,154.33333333333334,,,,,,,,,,,,,,,,,,,,,
40,205,205,203,204.33333333333334,,,,,,,,,,,,,,,,,,,,,
50,260,258,255,257.6666666666667,,,,,,,,,,,,,,,,,,,,,
60,318,315,313,315.3333333333333,,,,,,,,,,,,,,,,,,,,,
70,375,363,365,367.6666666666667,,,,,,,,,,,,,,,,,,,,,
80,433,418,423,424.6666666666667,,,,,,,,,,,,,,,,,,,,,
90,490,470,473,477.6666666666667,,,,,,,,,,,,,,,,,,,,,
100,545,528,528,533.6666666666666,,,,,,,,,,,,,,,,,,,,,
110,600,580,585,588.3333333333334,,,,,,,,,,,,,,,,,,,,,
120,658,635,640,644.3333333333334,,,,,,,,,,,,,,,,,,,,,
130,713,692,695,700,,,,,,,,,,,,,,,,,,,,,
140,769,748,750,755.6666666666666,,,,,,,,,,,,,,,,,,,,,
150,825,802,805,810.6666666666666,,,,,,,,,,,,,,,,,,,,,
160,880,855,865,866.6666666666666,,,,,,,,,,,,,,,,,,,,,
,,,,,,,,,,,,,,,,,,,,,,,,,
,,,,,,,,,,,,,,,,,,,,,,,,,
,,,,,,,,,,,,,,,,,,,,,,,,,
,,,,,,,,,,,,,,,,,,,,,,,,,
,,,,,,,,,,,,,,,,,,,,,,,,,
,,,,,,,,,,,,,,,,,,,,,,,,,
,,,,,,,,,,,,,,,,,,,,,,,,,
,,,,,,,,,,,,,,,,,,,,,,,,,
,,,,,,,,,,,,,,,,,,,,,,,,,
,,,,,,,,,,,,,,,,,,,,,,,,,
,,,,,,,,,,,,,,,,,,,,,,,,,
,,,,,,,,,,,,,,,,,,,,,,,,,
,,,,,,,,,,,,,,,,,,,,,,,,,
,,,,,,,,,,,,,,,,,,,,,,,,,
,,,,,,,,,,,,,,,,,,,,,,,,,
,,,,,,,,,,,,,,,,,,,,,,,,,
,,,,,,,,,,,,,,,,,,,,,,,,,
,,,,,,,,,,,,,,,,,,,,,,,,,
,,,,,,,,,,,,,,,,,,,,,,,,,
,,,,,,,,,,,,,,,,,,,,,,,,,
,,,,,,,,,,,,,,,,,,,,,,,,,
