U_E [V],U_A [V]
0.000000000,0.001039152
0.005000000,0.005906779
0.010000000,0.011098914
0.015000000,0.015642033
0.020000000,0.020834168
0.025000000,0.026026303
0.030000000,0.030893930
0.035000000,0.036086065
0.040000000,0.040629183
0.045000000,0.045821318
0.050000000,0.051337962
0.055000000,0.055556571
0.060000000,0.061073215
0.065000000,0.065616333
0.070000000,0.070808468
0.075000000,0.076000603
0.080000000,0.081192739
0.085000000,0.086060365
0.090000000,0.091252500
0.095000000,0.095795618
0.100000000,0.100987753
0.105000000,0.105855380
0.110000000,0.111047515
0.115000000,0.116239650
0.120000000,0.120782768
0.125000000,0.125650395
0.130000000,0.130518021
0.135000000,0.135710156
0.140000000,0.141226800
0.145000000,0.146094426
0.150000000,0.150962053
0.155000000,0.155829679
0.160000000,0.160697306
0.165000000,0.165889441
0.170000000,0.171081576
0.175000000,0.175949202
0.180000000,0.181141337
0.185000000,0.186333472
0.190000000,0.190552082
0.195000000,0.196068725
0.200000000,0.200611843
0.205000000,0.206128487
0.210000000,0.210996113
0.215000000,0.215539231
0.220000000,0.220406858
0.225000000,0.225923501
0.230000000,0.230791127
0.235000000,0.235983262
0.240000000,0.240850889
0.245000000,0.245718515
0.250000000,0.250586142
0.255000000,0.256427293
0.260000000,0.260645903
0.265000000,0.265838038
0.270000000,0.271030173
0.275000000,0.276222307
0.280000000,0.280440917
0.285000000,0.285957560
0.290000000,0.291149695
0.295000000,0.296017321
0.300000000,0.300884948
0.305000000,0.305428066
0.310000000,0.310944709
0.315000000,0.315812335
0.320000000,0.320679962
0.325000000,0.325872097
0.330000000,0.331064231
0.335000000,0.335931858
0.340000000,0.340799484
0.345000000,0.345991619
0.350000000,0.351183754
0.355000000,0.355402363
0.360000000,0.360919006
0.365000000,0.366111141
0.370000000,0.371303276
0.375000000,0.376170902
0.380000000,0.381038528
0.385000000,0.385906155
0.390000000,0.390449273
0.395000000,0.395641407
0.400000000,0.401158050
0.405000000,0.406025677
0.410000000,0.410893303
0.415000000,0.415760929
0.420000000,0.420953064
0.425000000,0.426145199
0.430000000,0.431012825
0.435000000,0.435880451
0.440000000,0.440748078
0.445000000,0.445615704
0.450000000,0.451132347
0.455000000,0.455675465
0.460000000,0.461192108
0.465000000,0.465735226
0.470000000,0.470927361
0.475000000,0.476119495
0.480000000,0.480987121
0.485000000,0.485854748
0.490000000,0.491046882
0.495000000,0.496239017
0.500000000,0.501106643
0.505000000,0.505649761
0.510000000,0.511166404
0.515000000,0.515709522
0.520000000,0.521226165
0.525000000,0.525769283
0.530000000,0.530636909
0.535000000,0.536153552
0.540000000,0.540696670
0.545000000,0.546213313
0.550000000,0.551080939
0.555000000,0.555624057
0.560000000,0.561140700
0.565000000,0.565683818
0.570000000,0.570875952
0.575000000,0.576392595
0.580000000,0.581260222
0.585000000,0.585803339
0.590000000,0.590995474
0.595000000,0.595538592
0.600000000,0.601055235
0.605000000,0.606247370
0.610000000,0.611114996
0.615000000,0.615982622
0.620000000,0.620525740
0.625000000,0.626042383
0.630000000,0.630910009
0.635000000,0.636102143
0.640000000,0.640969770
0.645000000,0.646161904
0.650000000,0.651029530
0.655000000,0.656221665
0.660000000,0.660764783
0.665000000,0.666281426
0.670000000,0.671149052
0.675000000,0.676016678
0.680000000,0.680884304
0.685000000,0.685751931
0.690000000,0.690944065
0.695000000,0.696136200
0.700000000,0.701003826
0.705000000,0.705871452
0.710000000,0.710739078
0.715000000,0.716255721
0.720000000,0.721123347
0.725000000,0.725990974
0.730000000,0.731183108
0.735000000,0.735726226
0.740000000,0.740269344
0.745000000,0.745785987
0.750000000,0.750978121
0.755000000,0.755845747
0.760000000,0.760713374
0.765000000,0.765581000
0.770000000,0.770448626
0.775000000,0.775640760
0.780000000,0.780832895
0.785000000,0.786025030
0.790000000,0.790568147
0.795000000,0.795760282
0.800000000,0.800627908
0.805000000,0.805495534
0.810000000,0.810687669
0.815000000,0.816204312
0.820000000,0.821071938
0.825000000,0.825615056
0.830000000,0.830482682
0.835000000,0.835999325
0.840000000,0.840866951
0.845000000,0.845734577
0.850000000,0.850602203
0.855000000,0.855469830
0.860000000,0.860661964
0.865000000,0.865529590
0.870000000,0.871046233
0.875000000,0.875589351
0.880000000,0.880781486
0.885000000,0.885649112
0.890000000,0.890516738
0.895000000,0.895708873
0.900000000,0.900901007
0.905000000,0.905768633
0.910000000,0.910636260
0.915000000,0.915503886
0.920000000,0.920696020
0.925000000,0.925239138
0.930000000,0.931080290
0.935000000,0.935298899
0.940000000,0.940815542
0.945000000,0.946007676
0.950000000,0.950550794
0.955000000,0.956067437
0.960000000,0.960610555
0.965000000,0.965802690
0.970000000,0.970670316
0.975000000,0.975862450
0.980000000,0.980730077
0.985000000,0.985597703
0.990000000,0.990789837
0.995000000,0.995657464
1.000000000,1.001174107
1.005000000,1.005717225
1.010000000,1.010584851
1.015000000,1.015452477
1.020000000,1.020320103
1.025000000,1.025836746
1.030000000,1.030704372
1.035000000,1.035571999
1.040000000,1.040764133
1.045000000,1.045956268
1.050000000,1.050499386
1.055000000,1.055691520
1.060000000,1.060234638
1.065000000,1.065751281
1.070000000,1.070294399
1.075000000,1.075486534
1.080000000,1.080678668
1.085000000,1.085546295
1.090000000,1.090089413
1.095000000,1.095606056
1.100000000,1.100473682
1.105000000,1.105341308
1.110000000,1.110533443
1.115000000,1.115401069
1.120000000,1.120593204
1.125000000,1.125460830
1.130000000,1.130328456
1.135000000,1.135520591
1.140000000,1.140388217
1.145000000,1.146229369
1.150000000,1.150447978
1.155000000,1.154991096
1.160000000,1.160832248
1.165000000,1.166024382
1.170000000,1.170567500
1.175000000,1.175435127
1.180000000,1.179978245
1.185000000,1.185170379
1.190000000,1.190362514
1.195000000,1.195554649
1.200000000,1.200746783
1.205000000,1.205614410
1.210000000,1.210157528
1.215000000,1.215349662
1.220000000,1.220217289
1.225000000,1.225733932
1.230000000,1.230277050
1.235000000,1.235144676
1.240000000,1.240012303
1.245000000,1.244879929
1.250000000,1.250072064
1.255000000,1.255264199
1.260000000,1.260131825
1.265000000,1.264999451
1.270000000,1.270191586
1.275000000,1.275383721
1.280000000,1.279926839
1.285000000,1.285443482
1.290000000,1.290311109
1.295000000,1.295178735
1.300000000,1.300370870
1.305000000,1.304589479
1.310000000,1.310430631
1.315000000,1.314973749
1.320000000,1.319841376
1.325000000,1.325033510
1.330000000,1.329576628
1.335000000,1.335093272
1.340000000,1.339960898
1.345000000,1.344828525
1.350000000,1.349371643
1.355000000,1.355212794
1.360000000,1.359431404
1.365000000,1.364948047
1.370000000,1.370140182
1.375000000,1.374358792
1.380000000,1.379550927
1.385000000,1.384418553
1.390000000,1.389610688
1.395000000,1.394478315
1.400000000,1.399670450
1.405000000,1.403564551
1.410000000,1.409405703
1.415000000,1.414273329
1.420000000,1.419140956
1.425000000,1.424657599
1.430000000,1.428876209
1.435000000,1.434068344
1.440000000,1.438935970
1.445000000,1.443803597
1.450000000,1.448671224
1.455000000,1.454187867
1.460000000,1.458730985
1.465000000,1.463923120
1.470000000,1.468790747
1.475000000,1.473333865
1.480000000,1.478526000
1.485000000,1.483393627
1.490000000,1.487936745
1.495000000,1.493453388
1.500000000,1.497996507
1.505000000,1.503188642
1.510000000,1.508056268
1.515000000,1.513248403
1.520000000,1.518116030
1.525000000,1.523308165
1.530000000,1.527851283
1.535000000,1.532394402
1.540000000,1.537262028
1.545000000,1.543103180
1.550000000,1.547970807
1.555000000,1.552189417
1.560000000,1.558030569
1.565000000,1.562249179
1.570000000,1.567441314
1.575000000,1.572308941
1.580000000,1.577501076
1.585000000,1.582044194
1.590000000,1.587236329
1.595000000,1.592103956
1.600000000,1.596647075
1.605000000,1.601839210
1.610000000,1.606382328
1.615000000,1.611574463
1.620000000,1.616442090
1.625000000,1.621634225
1.630000000,1.626826361
1.635000000,1.631369479
1.640000000,1.635912598
1.645000000,1.640780224
1.650000000,1.645972360
1.655000000,1.650515478
1.660000000,1.656032122
1.665000000,1.660575240
1.670000000,1.665442867
1.675000000,1.670635003
1.680000000,1.674853613
1.685000000,1.680045748
1.690000000,1.684913375
1.695000000,1.689781002
1.700000000,1.694648629
1.705000000,1.699516256
1.710000000,1.704383883
1.715000000,1.708927001
1.720000000,1.714119136
1.725000000,1.718662255
1.730000000,1.723854390
1.735000000,1.728397509
1.740000000,1.733589644
1.745000000,1.738132763
1.750000000,1.743000390
1.755000000,1.748192526
1.760000000,1.752735644
1.765000000,1.757603271
1.770000000,1.762470898
1.775000000,1.767338525
1.780000000,1.771881644
1.785000000,1.776749271
1.790000000,1.781941406
1.795000000,1.786809034
1.800000000,1.791352152
1.805000000,1.796544288
1.810000000,1.800762898
1.815000000,1.805630525
1.820000000,1.810498152
1.825000000,1.815690288
1.830000000,1.819908898
1.835000000,1.824776525
1.840000000,1.829319644
1.845000000,1.834511780
1.850000000,1.838730390
1.855000000,1.843598017
1.860000000,1.848790153
1.865000000,1.853333272
1.870000000,1.857876390
1.875000000,1.863393035
1.880000000,1.867611645
1.885000000,1.872479272
1.890000000,1.877022391
1.895000000,1.882214527
1.900000000,1.886433137
1.905000000,1.891300764
1.910000000,1.896168392
1.915000000,1.900711510
1.920000000,1.905903646
1.925000000,1.910122257
1.930000000,1.914989884
1.935000000,1.919857511
1.940000000,1.924725139
1.945000000,1.928943749
1.950000000,1.933811377
1.955000000,1.938679004
1.960000000,1.942897614
1.965000000,1.947440733
1.970000000,1.952308361
1.975000000,1.956851480
1.980000000,1.962043616
1.985000000,1.966262226
1.990000000,1.971129854
1.995000000,1.975672973
2.000000000,1.979891583
2.005000000,1.984759211
2.010000000,1.989626838
2.015000000,1.994494466
2.020000000,1.998713076
2.025000000,2.003256195
2.030000000,2.007799314
2.035000000,2.012666942
2.040000000,2.017534569
2.045000000,2.021753180
2.050000000,2.025971791
2.055000000,2.030839418
2.060000000,2.035382537
2.065000000,2.039601148
2.070000000,2.044793284
2.075000000,2.049336403
2.080000000,2.053555014
2.085000000,2.058098133
2.090000000,2.062641252
2.095000000,2.066859863
2.100000000,2.071078474
2.105000000,2.075621593
2.110000000,2.080489220
2.115000000,2.084383323
2.120000000,2.089575459
2.125000000,2.093794070
2.130000000,2.098012680
2.135000000,2.102880308
2.140000000,2.107098919
2.145000000,2.111642038
2.150000000,2.116185158
2.155000000,2.120079260
2.160000000,2.124946888
2.165000000,2.129165498
2.170000000,2.133708618
2.175000000,2.138251737
2.180000000,2.142470348
2.185000000,2.147013467
2.190000000,2.151232078
2.195000000,2.155450689
2.200000000,2.159993808
2.205000000,2.163887911
2.210000000,2.168431030
2.215000000,2.172974150
2.220000000,2.177192761
2.225000000,2.181411371
2.230000000,2.185629982
2.235000000,2.190173102
2.240000000,2.194391713
2.245000000,2.198934832
2.250000000,2.203153443
2.255000000,2.207372054
2.260000000,2.211590665
2.265000000,2.215484768
2.270000000,2.220027887
2.275000000,2.224571007
2.280000000,2.228789618
2.285000000,2.232683720
2.290000000,2.237226840
2.295000000,2.241120942
2.300000000,2.245015045
2.305000000,2.249558165
2.310000000,2.253776776
2.315000000,2.257995387
2.320000000,2.261889489
2.325000000,2.266108100
2.330000000,2.270326712
2.335000000,2.274545323
2.340000000,2.278763934
2.345000000,2.282658036
2.350000000,2.286876648
2.355000000,2.290770750
2.360000000,2.295313870
2.365000000,2.299207973
2.370000000,2.302777567
2.375000000,2.307320687
2.380000000,2.311539298
2.385000000,2.315108892
2.390000000,2.319327503
2.395000000,2.323546114
2.400000000,2.327440217
2.405000000,2.331334320
2.410000000,2.335228423
2.415000000,2.339122525
2.420000000,2.343341137
2.425000000,2.347235239
2.430000000,2.351453851
2.435000000,2.355023445
2.440000000,2.359242056
2.445000000,2.363136159
2.450000000,2.367354770
2.455000000,2.370924365
2.460000000,2.375142976
2.465000000,2.378388062
2.470000000,2.382606673
2.475000000,2.386500776
2.480000000,2.390394879
2.485000000,2.394288982
2.490000000,2.398183085
2.495000000,2.402077187
2.500000000,2.405322273
2.505000000,2.409216376
2.510000000,2.413110479
2.515000000,2.416680073
2.520000000,2.420574176
2.525000000,2.424468279
2.530000000,2.428037874
2.535000000,2.431931977
2.540000000,2.435826080
2.545000000,2.439071165
2.550000000,2.442965268
2.555000000,2.446859371
2.560000000,2.450428966
2.565000000,2.454323069
2.570000000,2.458217172
2.575000000,2.461462258
2.580000000,2.465356361
2.585000000,2.468925955
2.590000000,2.472820058
2.595000000,2.476389653
2.600000000,2.479959247
2.605000000,2.483853350
2.610000000,2.487422945
2.615000000,2.490992539
2.620000000,2.494237625
2.625000000,2.497807220
2.630000000,2.501376814
2.635000000,2.505270917
2.640000000,2.508516003
2.645000000,2.512085598
2.650000000,2.515655193
2.655000000,2.518900279
2.660000000,2.522469873
2.665000000,2.526039468
2.670000000,2.529609062
2.675000000,2.532854148
2.680000000,2.536423743
2.685000000,2.539668829
2.690000000,2.543238424
2.695000000,2.546808018
2.700000000,2.550377613
2.705000000,2.553622699
2.710000000,2.556867785
2.715000000,2.560437380
2.720000000,2.563357957
2.725000000,2.567252060
2.730000000,2.570497147
2.735000000,2.573742233
2.740000000,2.577311827
2.745000000,2.580556914
2.750000000,2.584126508
2.755000000,2.586722577
2.760000000,2.590941189
2.765000000,2.593861767
2.770000000,2.596782344
2.775000000,2.600351939
2.780000000,2.603921534
2.785000000,2.606517603
2.790000000,2.610087198
2.795000000,2.613332284
2.800000000,2.616901879
2.805000000,2.619497948
2.810000000,2.623067542
2.815000000,2.625988120
2.820000000,2.629233206
2.825000000,2.632153784
2.830000000,2.635723379
2.835000000,2.638643956
2.840000000,2.641889043
2.845000000,2.644809620
2.850000000,2.648054706
2.855000000,2.651299793
2.860000000,2.654544879
2.865000000,2.657465457
2.870000000,2.660710543
2.875000000,2.663631121
2.880000000,2.666551698
2.885000000,2.669472276
2.890000000,2.672717362
2.895000000,2.675962449
2.900000000,2.678558518
2.905000000,2.681803604
2.910000000,2.684724182
2.915000000,2.687644760
2.920000000,2.690889846
2.925000000,2.693810424
2.930000000,2.697055510
2.935000000,2.699651579
2.940000000,2.702896666
2.945000000,2.705168226
2.950000000,2.708737821
2.955000000,2.711333890
2.960000000,2.714254468
2.965000000,2.717824063
2.970000000,2.720095624
2.975000000,2.723665219
2.980000000,2.726261288
2.985000000,2.728532848
2.990000000,2.731777935
2.995000000,2.734698513
3.000000000,2.737294582
3.005000000,2.740215160
3.010000000,2.743460246
3.015000000,2.745731807
3.020000000,2.748976893
3.025000000,2.751248454
3.030000000,2.754169032
3.035000000,2.757414118
3.040000000,2.760010188
3.045000000,2.762281748
3.050000000,2.765526835
3.055000000,2.768122904
3.060000000,2.770718973
3.065000000,2.773964060
3.070000000,2.776235620
3.075000000,2.778831690
3.080000000,2.782076776
3.085000000,2.784348337
3.090000000,2.786944406
3.095000000,2.789864984
3.100000000,2.792461053
3.105000000,2.795057123
3.110000000,2.797653192
3.115000000,2.800573770
3.120000000,2.802845331
3.125000000,2.805765909
3.130000000,2.808361978
3.135000000,2.811282556
3.140000000,2.813554117
3.145000000,2.816150186
3.150000000,2.818746255
3.155000000,2.821666833
3.160000000,2.824262903
3.165000000,2.826534463
3.170000000,2.828806024
3.175000000,2.831077585
3.180000000,2.833673654
3.185000000,2.836918741
3.190000000,2.839190302
3.195000000,2.841786371
3.200000000,2.844057932
3.205000000,2.846654001
3.210000000,2.849250071
3.215000000,2.852170649
3.220000000,2.854117701
3.225000000,2.856713770
3.230000000,2.859309840
3.235000000,2.861581400
3.240000000,2.864501979
3.245000000,2.866449031
3.250000000,2.869045100
3.255000000,2.871641170
3.260000000,2.873912730
3.265000000,2.875535274
3.270000000,2.879429378
3.275000000,2.881376430
3.280000000,2.883323482
3.285000000,2.885919552
3.290000000,2.888191112
3.295000000,2.890138165
3.300000000,2.893058743
3.305000000,2.895005795
3.310000000,2.897926373
3.315000000,2.900197934
3.320000000,2.902469495
3.325000000,2.905065564
3.330000000,2.907337125
3.335000000,2.909608686
3.340000000,2.911555738
3.345000000,2.914151808
3.350000000,2.915774351
3.355000000,2.918370421
3.360000000,2.920966490
3.365000000,2.922913542
3.370000000,2.925185103
3.375000000,2.927456664
3.380000000,2.929728225
3.385000000,2.931999786
3.390000000,2.934920364
3.395000000,2.936867416
3.400000000,2.938489960
3.405000000,2.940761521
3.410000000,2.943033082
3.415000000,2.945304643
3.420000000,2.947251695
3.425000000,2.949847765
3.430000000,2.951794817
3.435000000,2.954390886
3.440000000,2.956337939
3.445000000,2.958609500
3.450000000,2.960556552
3.455000000,2.962828113
3.460000000,2.964775165
3.465000000,2.967046726
3.470000000,2.969318287
3.475000000,2.971265339
3.480000000,2.973212391
3.485000000,2.975808461
3.490000000,2.977755513
3.495000000,2.980027074
3.500000000,2.981974127
3.505000000,2.984245688
3.510000000,2.986192740
3.515000000,2.987815283
3.520000000,2.990086844
3.525000000,2.992358405
3.530000000,2.994305458
3.535000000,2.996577019
3.540000000,2.998524071
3.545000000,3.000146615
3.550000000,3.002742684
3.555000000,3.004365228
3.560000000,3.006312280
3.565000000,3.008583841
3.570000000,3.010855402
3.575000000,3.012477946
3.580000000,3.014100490
3.585000000,3.016696559
3.590000000,3.018643612
3.595000000,3.020590664
3.600000000,3.022862225
3.605000000,3.024160260
3.610000000,3.026431821
3.615000000,3.028054365
3.620000000,3.030650434
3.625000000,3.032272978
3.630000000,3.034220030
3.635000000,3.036491592
3.640000000,3.037789626
3.645000000,3.040061188
3.650000000,3.042332749
3.655000000,3.043955292
3.660000000,3.045902345
3.665000000,3.047849397
3.670000000,3.049471941
3.675000000,3.051418993
3.680000000,3.053041537
3.685000000,3.055313098
3.690000000,3.056935642
3.695000000,3.058882694
3.700000000,3.060829746
3.705000000,3.063101307
3.710000000,3.064723851
3.715000000,3.066021886
3.720000000,3.068293447
3.725000000,3.069915991
3.730000000,3.071538535
3.735000000,3.073485587
3.740000000,3.075432639
3.745000000,3.077704201
3.750000000,3.079002236
3.755000000,3.081273797
3.760000000,3.082571832
3.765000000,3.084518884
3.770000000,3.086141428
3.775000000,3.088088480
3.780000000,3.090035533
3.785000000,3.091658076
3.790000000,3.093605129
3.795000000,3.095552181
3.800000000,3.096850216
3.805000000,3.098797269
3.810000000,3.100419813
3.815000000,3.102366865
3.820000000,3.103989409
3.825000000,3.105287444
3.830000000,3.107559005
3.835000000,3.109506057
3.840000000,3.110804092
3.845000000,3.112751145
3.850000000,3.114049180
3.855000000,3.116320741
3.860000000,3.117943285
3.865000000,3.119565829
3.870000000,3.121188372
3.875000000,3.123135425
3.880000000,3.124433460
3.885000000,3.126380513
3.890000000,3.128003056
3.895000000,3.129625600
3.900000000,3.131572653
3.905000000,3.133195196
3.910000000,3.134493231
3.915000000,3.136115775
3.920000000,3.137738319
3.925000000,3.139685371
3.930000000,3.141307915
3.935000000,3.142930459
3.940000000,3.144877512
3.945000000,3.146175547
3.950000000,3.147798090
3.955000000,3.149745143
3.960000000,3.151043178
3.965000000,3.152665722
3.970000000,3.153963757
3.975000000,3.155910809
3.980000000,3.157208845
3.985000000,3.159480406
3.990000000,3.161102950
3.995000000,3.162400985
4.000000000,3.164023529
4.005000000,3.165970581
4.010000000,3.166944107
4.015000000,3.168242142
4.020000000,3.170189195
4.025000000,3.171487230
4.030000000,3.173109774
4.035000000,3.175056827
4.040000000,3.176679370
4.045000000,3.177977405
4.050000000,3.178950932
4.055000000,3.180573476
4.060000000,3.182196019
4.065000000,3.184143072
4.070000000,3.185441107
4.075000000,3.187712669
4.080000000,3.188686195
4.085000000,3.190308739
4.090000000,3.191606774
4.095000000,3.192904809
4.100000000,3.194527353
4.105000000,3.196474405
4.110000000,3.197772441
4.115000000,3.199394984
4.120000000,3.201017528
4.125000000,3.202315563
4.130000000,3.203938107
4.135000000,3.205236142
4.140000000,3.206534177
4.145000000,3.208156721
4.150000000,3.210103774
4.155000000,3.211077300
4.160000000,3.212375335
4.165000000,3.213997879
4.170000000,3.215295914
4.175000000,3.216918458
4.180000000,3.218541002
4.185000000,3.219839037
4.190000000,3.221137073
4.195000000,3.223084125
4.200000000,3.224057652
4.205000000,3.225680195
4.210000000,3.226978231
4.215000000,3.228600775
4.220000000,3.229898810
4.225000000,3.231196845
4.230000000,3.232494880
4.235000000,3.234441933
4.240000000,3.235739968
4.245000000,3.237038003
4.250000000,3.238336038
4.255000000,3.239634073
4.260000000,3.240932108
4.265000000,3.242554652
4.270000000,3.243852687
4.275000000,3.245475231
4.280000000,3.246448758
4.285000000,3.248071302
4.290000000,3.249044828
4.295000000,3.250991881
4.300000000,3.251965407
4.305000000,3.253263442
4.310000000,3.254561478
4.315000000,3.256184021
4.320000000,3.257157548
4.325000000,3.258780092
4.330000000,3.260078127
4.335000000,3.261376162
4.340000000,3.262998706
4.345000000,3.264621250
4.350000000,3.265270268
4.355000000,3.267217320
4.360000000,3.268190847
4.365000000,3.269813391
4.370000000,3.270786917
4.375000000,3.272084952
4.380000000,3.273058479
4.385000000,3.275005532
4.390000000,3.275979058
4.395000000,3.277601602
4.400000000,3.278250620
4.405000000,3.280197672
4.410000000,3.281495708
4.415000000,3.282469234
4.420000000,3.284091778
4.425000000,3.285065304
4.430000000,3.286363340
4.435000000,3.287661375
4.440000000,3.289283919
4.445000000,3.290581954
4.450000000,3.291555480
4.455000000,3.292853516
4.460000000,3.293827042
4.465000000,3.295125077
4.470000000,3.296747621
4.475000000,3.297396639
4.480000000,3.299019183
4.485000000,3.299992709
4.490000000,3.301615253
4.495000000,3.302588780
4.500000000,3.304211324
4.505000000,3.305184850
4.510000000,3.306482885
4.515000000,3.307456412
4.520000000,3.308754447
4.525000000,3.310052482
4.530000000,3.311675026
4.535000000,3.312324044
4.540000000,3.313297570
4.545000000,3.314920115
4.550000000,3.316218150
4.555000000,3.317191676
4.560000000,3.318814220
4.565000000,3.320112255
4.570000000,3.321085782
4.575000000,3.322383817
4.580000000,3.323681852
4.585000000,3.324655379
4.590000000,3.325628905
4.595000000,3.327251449
4.600000000,3.328224976
4.605000000,3.329198502
4.610000000,3.330821046
4.615000000,3.331794573
4.620000000,3.332768099
4.625000000,3.334066135
4.630000000,3.335364170
4.635000000,3.336013187
4.640000000,3.337635731
4.645000000,3.338933767
4.650000000,3.339907293
4.655000000,3.340880820
4.660000000,3.342178855
4.665000000,3.342827873
4.670000000,3.344774926
4.675000000,3.346072961
4.680000000,3.347046487
4.685000000,3.348020014
4.690000000,3.349318049
4.695000000,3.349967067
4.700000000,3.351265102
4.705000000,3.352563137
4.710000000,3.353536664
4.715000000,3.354834699
4.720000000,3.355808225
4.725000000,3.357106261
4.730000000,3.358079787
4.735000000,3.359053314
4.740000000,3.360026840
4.745000000,3.361000367
4.750000000,3.361973893
4.755000000,3.363596437
4.760000000,3.364245455
4.765000000,3.365867999
4.770000000,3.366841526
4.775000000,3.368139561
4.780000000,3.369113087
4.785000000,3.370411123
4.790000000,3.371060140
4.795000000,3.372358176
4.800000000,3.373331702
4.805000000,3.374629737
4.810000000,3.375603264
4.815000000,3.376901299
4.820000000,3.377874826
4.825000000,3.378848352
4.830000000,3.379821879
4.835000000,3.380795405
4.840000000,3.382093440
4.845000000,3.383391476
4.850000000,3.384040493
4.855000000,3.385663038
4.860000000,3.385987546
4.865000000,3.387285582
4.870000000,3.388259108
4.875000000,3.389557144
4.880000000,3.390855179
4.885000000,3.391504197
4.890000000,3.392477723
4.895000000,3.393775759
4.900000000,3.394424776
4.905000000,3.395722812
4.910000000,3.396696338
4.915000000,3.397669865
4.920000000,3.398318882
4.925000000,3.399292409
4.930000000,3.400265935
4.935000000,3.401563971
4.940000000,3.402537497
4.945000000,3.403511024
4.950000000,3.404160041
4.955000000,3.405458077
4.960000000,3.406756112
4.965000000,3.407405130
4.970000000,3.408703165
4.975000000,3.409352183
4.980000000,3.410650218
4.985000000,3.411623745
4.990000000,3.412597271
4.995000000,3.413570798
5.000000000,3.414544324
5.005000000,3.415517851
5.010000000,3.416491377
5.015000000,3.417464904
5.020000000,3.418762939
5.025000000,3.419087448
5.030000000,3.420709992
5.035000000,3.421034501
5.040000000,3.422332536
5.045000000,3.423630572
5.050000000,3.424279590
5.055000000,3.425253116
5.060000000,3.426226643
5.065000000,3.427200169
5.070000000,3.428173696
5.075000000,3.428822713
5.080000000,3.430120749
5.085000000,3.431094275
5.090000000,3.431094275
5.095000000,3.431094275
5.100000000,3.430769766
5.105000000,3.430769766
5.110000000,3.430769766
5.115000000,3.430769766
5.120000000,3.430445258
5.125000000,3.430445258
5.130000000,3.430445258
5.135000000,3.430120749
5.140000000,3.430445258
5.145000000,3.430120749
5.150000000,3.430120749
5.155000000,3.430120749
5.160000000,3.430120749
5.165000000,3.429796240
5.170000000,3.429796240
5.175000000,3.430120749
5.180000000,3.429796240
5.185000000,3.429796240
5.190000000,3.429471731
5.195000000,3.429471731
5.200000000,3.429796240
5.205000000,3.429471731
5.210000000,3.429471731
5.215000000,3.429471731
5.220000000,3.429147222
5.225000000,3.429796240
5.230000000,3.429471731
5.235000000,3.428822713
5.240000000,3.429147222
5.245000000,3.429471731
5.250000000,3.429147222
5.255000000,3.429147222
5.260000000,3.429147222
5.265000000,3.428822713
5.270000000,3.429147222
5.275000000,3.428822713
5.280000000,3.429147222
5.285000000,3.429147222
5.290000000,3.428822713
5.295000000,3.429147222
5.300000000,3.429147222
5.305000000,3.428822713
5.310000000,3.428822713
5.315000000,3.428498205
5.320000000,3.428498205
5.325000000,3.428173696
5.330000000,3.428498205
5.335000000,3.428822713
5.340000000,3.428173696
5.345000000,3.428498205
5.350000000,3.428173696
5.355000000,3.428498205
5.360000000,3.428173696
5.365000000,3.428498205
5.370000000,3.428173696
5.375000000,3.428173696
5.380000000,3.427524678
5.385000000,3.427849187
5.390000000,3.428173696
5.395000000,3.427849187
5.400000000,3.428173696
5.405000000,3.427849187
5.410000000,3.428173696
5.415000000,3.428173696
5.420000000,3.427849187
5.425000000,3.428173696
5.430000000,3.427849187
5.435000000,3.428498205
5.440000000,3.427524678
5.445000000,3.427849187
5.450000000,3.427849187
5.455000000,3.427524678
5.460000000,3.427849187
5.465000000,3.427524678
5.470000000,3.427849187
5.475000000,3.427524678
5.480000000,3.427524678
5.485000000,3.427524678
5.490000000,3.427849187
5.495000000,3.427524678
5.500000000,3.427524678
5.505000000,3.427200169
5.510000000,3.427524678
5.515000000,3.427200169
5.520000000,3.427524678
5.525000000,3.427524678
5.530000000,3.426875660
5.535000000,3.427200169
5.540000000,3.427200169
5.545000000,3.427200169
5.550000000,3.427524678
5.555000000,3.427524678
5.560000000,3.426875660
5.565000000,3.427200169
5.570000000,3.426551151
5.575000000,3.427200169
5.580000000,3.427200169
5.585000000,3.426875660
5.590000000,3.427200169
5.595000000,3.426875660
5.600000000,3.426875660
5.605000000,3.426551151
5.610000000,3.427200169
5.615000000,3.426551151
5.620000000,3.427200169
5.625000000,3.426551151
5.630000000,3.426875660
5.635000000,3.426551151
5.640000000,3.426875660
5.645000000,3.426551151
5.650000000,3.426875660
5.655000000,3.426551151
5.660000000,3.426551151
5.665000000,3.426551151
5.670000000,3.426875660
5.675000000,3.426226643
5.680000000,3.426875660
5.685000000,3.426551151
5.690000000,3.426551151
5.695000000,3.426226643
5.700000000,3.426875660
5.705000000,3.426551151
5.710000000,3.426226643
5.715000000,3.426226643
5.720000000,3.426551151
5.725000000,3.426551151
5.730000000,3.426551151
5.735000000,3.426226643
5.740000000,3.426226643
5.745000000,3.426551151
5.750000000,3.426226643
5.755000000,3.425902134
5.760000000,3.426551151
5.765000000,3.426551151
5.770000000,3.425902134
5.775000000,3.425902134
5.780000000,3.426226643
5.785000000,3.425902134
5.790000000,3.425902134
5.795000000,3.425902134
5.800000000,3.425902134
5.805000000,3.425902134
5.810000000,3.426226643
5.815000000,3.425902134
5.820000000,3.425902134
5.825000000,3.426226643
5.830000000,3.425902134
5.835000000,3.425902134
5.840000000,3.425577625
5.845000000,3.425902134
5.850000000,3.425902134
5.855000000,3.426226643
5.860000000,3.425902134
5.865000000,3.425577625
5.870000000,3.425902134
5.875000000,3.425902134
5.880000000,3.426226643
5.885000000,3.425902134
5.890000000,3.425902134
5.895000000,3.425577625
5.900000000,3.425577625
5.905000000,3.425902134
5.910000000,3.425577625
5.915000000,3.425902134
5.920000000,3.425902134
5.925000000,3.425577625
5.930000000,3.425902134
5.935000000,3.425902134
5.940000000,3.425577625
5.945000000,3.425577625
5.950000000,3.425577625
5.955000000,3.425253116
5.960000000,3.425577625
5.965000000,3.425577625
5.970000000,3.425577625
5.975000000,3.425577625
5.980000000,3.425577625
5.985000000,3.425253116
5.990000000,3.425902134
5.995000000,3.425253116
6.000000000,3.425902134
6.005000000,3.425253116
6.010000000,3.425902134
6.015000000,3.425577625
6.020000000,3.425253116
6.025000000,3.424928607
6.030000000,3.425577625
6.035000000,3.425253116
6.040000000,3.425253116
6.045000000,3.425253116
6.050000000,3.425253116
6.055000000,3.425253116
6.060000000,3.425253116
6.065000000,3.425253116
6.070000000,3.425253116
6.075000000,3.424928607
6.080000000,3.425253116
6.085000000,3.425253116
6.090000000,3.425253116
6.095000000,3.425253116
6.100000000,3.424928607
6.105000000,3.424928607
6.110000000,3.425253116
6.115000000,3.425577625
6.120000000,3.424928607
6.125000000,3.424928607
6.130000000,3.424928607
6.135000000,3.424928607
6.140000000,3.424928607
6.145000000,3.424928607
6.150000000,3.424604098
6.155000000,3.424604098
6.160000000,3.424928607
6.165000000,3.424928607
6.170000000,3.424604098
6.175000000,3.424604098
6.180000000,3.424928607
6.185000000,3.424928607
6.190000000,3.424604098
6.195000000,3.424604098
6.200000000,3.424928607
6.205000000,3.424928607
6.210000000,3.424604098
6.215000000,3.424604098
6.220000000,3.424604098
6.225000000,3.424604098
6.230000000,3.424604098
6.235000000,3.424279590
6.240000000,3.424928607
6.245000000,3.424604098
6.250000000,3.424279590
6.255000000,3.424604098
6.260000000,3.424604098
6.265000000,3.424604098
6.270000000,3.424928607
6.275000000,3.424928607
6.280000000,3.424928607
6.285000000,3.424604098
6.290000000,3.424604098
6.295000000,3.424279590
6.300000000,3.424604098
6.305000000,3.424279590
6.310000000,3.424604098
6.315000000,3.424279590
6.320000000,3.424279590
6.325000000,3.424279590
6.330000000,3.424279590
6.335000000,3.424604098
6.340000000,3.424279590
6.345000000,3.424604098
6.350000000,3.424928607
6.355000000,3.424604098
6.360000000,3.424604098
6.365000000,3.423955081
6.370000000,3.424279590
6.375000000,3.424279590
6.380000000,3.423955081
6.385000000,3.424279590
6.390000000,3.424604098
6.395000000,3.423955081
6.400000000,3.424279590
6.405000000,3.424279590
6.410000000,3.424279590
6.415000000,3.424279590
6.420000000,3.424604098
6.425000000,3.423955081
6.430000000,3.423955081
6.435000000,3.423955081
6.440000000,3.424279590
6.445000000,3.424279590
6.450000000,3.423955081
6.455000000,3.423955081
6.460000000,3.424279590
6.465000000,3.424279590
6.470000000,3.423955081
6.475000000,3.423955081
6.480000000,3.423955081
6.485000000,3.423955081
6.490000000,3.424279590
6.495000000,3.424279590
6.500000000,3.423955081
6.505000000,3.423955081
6.510000000,3.423955081
6.515000000,3.423955081
6.520000000,3.424279590
6.525000000,3.423955081
6.530000000,3.423630572
6.535000000,3.423955081
6.540000000,3.423955081
6.545000000,3.423955081
6.550000000,3.423630572
6.555000000,3.424279590
6.560000000,3.424279590
6.565000000,3.423955081
6.570000000,3.423955081
6.575000000,3.423955081
6.580000000,3.423955081
6.585000000,3.423955081
6.590000000,3.423955081
6.595000000,3.423630572
6.600000000,3.423955081
6.605000000,3.423955081
6.610000000,3.423630572
6.615000000,3.423306063
6.620000000,3.423955081
6.625000000,3.423630572
6.630000000,3.423306063
6.635000000,3.423630572
6.640000000,3.423630572
6.645000000,3.423630572
6.650000000,3.423630572
6.655000000,3.423306063
6.660000000,3.423955081
6.665000000,3.423955081
6.670000000,3.423630572
6.675000000,3.423630572
6.680000000,3.423306063
6.685000000,3.423630572
6.690000000,3.423630572
6.695000000,3.423306063
6.700000000,3.423306063
6.705000000,3.423630572
6.710000000,3.423630572
6.715000000,3.423630572
6.720000000,3.423306063
6.725000000,3.423955081
6.730000000,3.423630572
6.735000000,3.423630572
6.740000000,3.423630572
6.745000000,3.423630572
6.750000000,3.423630572
6.755000000,3.423630572
6.760000000,3.423306063
6.765000000,3.423306063
6.770000000,3.423630572
6.775000000,3.423630572
6.780000000,3.423306063
6.785000000,3.423630572
6.790000000,3.423306063
6.795000000,3.423630572
6.800000000,3.423630572
6.805000000,3.423306063
6.810000000,3.423306063
6.815000000,3.423306063
6.820000000,3.422981554
6.825000000,3.423306063
6.830000000,3.422981554
6.835000000,3.423306063
6.840000000,3.422981554
6.845000000,3.423306063
6.850000000,3.423306063
6.855000000,3.423306063
6.860000000,3.423306063
6.865000000,3.423306063
6.870000000,3.423306063
6.875000000,3.423630572
6.880000000,3.423306063
6.885000000,3.423306063
6.890000000,3.422981554
6.895000000,3.423306063
6.900000000,3.423306063
6.905000000,3.423306063
6.910000000,3.423306063
6.915000000,3.423306063
6.920000000,3.422981554
6.925000000,3.422981554
6.930000000,3.422981554
6.935000000,3.423306063
6.940000000,3.423306063
6.945000000,3.423306063
6.950000000,3.423306063
6.955000000,3.422981554
6.960000000,3.423306063
6.965000000,3.423306063
6.970000000,3.422981554
6.975000000,3.422981554
6.980000000,3.422981554
6.985000000,3.422981554
6.990000000,3.422657045
6.995000000,3.423306063
7.000000000,3.422981554
7.005000000,3.422657045
7.010000000,3.422981554
7.015000000,3.422981554
7.020000000,3.423306063
7.025000000,3.423306063
7.030000000,3.423306063
7.035000000,3.422981554
7.040000000,3.422981554
7.045000000,3.423306063
7.050000000,3.422981554
7.055000000,3.422981554
7.060000000,3.422657045
7.065000000,3.422657045
7.070000000,3.422981554
7.075000000,3.422981554
7.080000000,3.422981554
7.085000000,3.422981554
7.090000000,3.422981554
7.095000000,3.422981554
7.100000000,3.422981554
7.105000000,3.422981554
7.110000000,3.423306063
7.115000000,3.422657045
7.120000000,3.422981554
7.125000000,3.422657045
7.130000000,3.422981554
7.135000000,3.422981554
7.140000000,3.422657045
7.145000000,3.422657045
7.150000000,3.422657045
7.155000000,3.422657045
7.160000000,3.422657045
7.165000000,3.422657045
7.170000000,3.422657045
7.175000000,3.422981554
7.180000000,3.422657045
7.185000000,3.422981554
7.190000000,3.422657045
7.195000000,3.422657045
7.200000000,3.422657045
7.205000000,3.422657045
7.210000000,3.422657045
7.215000000,3.422657045
7.220000000,3.422981554
7.225000000,3.422981554
7.230000000,3.422981554
7.235000000,3.422332536
7.240000000,3.422981554
7.245000000,3.422657045
7.250000000,3.422657045
7.255000000,3.422657045
7.260000000,3.422332536
7.265000000,3.422332536
7.270000000,3.422657045
7.275000000,3.422657045
7.280000000,3.422657045
7.285000000,3.422657045
7.290000000,3.422332536
7.295000000,3.422332536
7.300000000,3.422981554
7.305000000,3.422332536
7.310000000,3.422332536
7.315000000,3.422657045
7.320000000,3.422332536
7.325000000,3.422332536
7.330000000,3.422657045
7.335000000,3.422332536
7.340000000,3.422657045
7.345000000,3.422332536
7.350000000,3.422657045
7.355000000,3.422657045
7.360000000,3.422332536
7.365000000,3.422332536
7.370000000,3.422657045
7.375000000,3.422332536
7.380000000,3.422332536
7.385000000,3.422332536
7.390000000,3.422657045
7.395000000,3.422657045
7.400000000,3.422332536
7.405000000,3.422332536
7.410000000,3.422657045
7.415000000,3.422332536
7.420000000,3.422332536
7.425000000,3.422332536
7.430000000,3.422332536
7.435000000,3.422008028
7.440000000,3.422332536
7.445000000,3.422332536
7.450000000,3.422332536
7.455000000,3.422008028
7.460000000,3.422332536
7.465000000,3.422332536
7.470000000,3.422657045
7.475000000,3.422332536
7.480000000,3.421683519
7.485000000,3.422657045
7.490000000,3.422332536
7.495000000,3.422332536
7.500000000,3.422008028
7.505000000,3.422008028
7.510000000,3.422332536
7.515000000,3.422332536
7.520000000,3.422332536
7.525000000,3.422008028
7.530000000,3.422008028
7.535000000,3.422332536
7.540000000,3.422008028
7.545000000,3.422008028
7.550000000,3.422008028
7.555000000,3.422008028
7.560000000,3.422008028
7.565000000,3.422008028
7.570000000,3.422008028
7.575000000,3.422008028
7.580000000,3.422008028
7.585000000,3.422332536
7.590000000,3.422008028
7.595000000,3.422008028
7.600000000,3.422008028
7.605000000,3.422332536
7.610000000,3.422008028
7.615000000,3.422332536
7.620000000,3.421683519
7.625000000,3.422008028
7.630000000,3.422332536
7.635000000,3.421683519
7.640000000,3.422008028
7.645000000,3.421683519
7.650000000,3.422332536
7.655000000,3.422008028
7.660000000,3.421683519
7.665000000,3.422332536
7.670000000,3.421683519
7.675000000,3.422008028
7.680000000,3.422332536
7.685000000,3.422008028
7.690000000,3.422008028
7.695000000,3.422332536
7.700000000,3.422008028
7.705000000,3.422008028
7.710000000,3.422008028
7.715000000,3.421683519
7.720000000,3.422008028
7.725000000,3.421683519
7.730000000,3.421683519
7.735000000,3.421683519
7.740000000,3.421683519
7.745000000,3.421683519
7.750000000,3.421683519
7.755000000,3.422008028
7.760000000,3.422008028
7.765000000,3.422008028
7.770000000,3.422008028
7.775000000,3.422008028
7.780000000,3.422008028
7.785000000,3.422008028
7.790000000,3.422008028
7.795000000,3.421683519
7.800000000,3.422008028
7.805000000,3.422008028
7.810000000,3.421683519
7.815000000,3.421683519
7.820000000,3.421683519
7.825000000,3.421683519
7.830000000,3.421683519
7.835000000,3.421359010
7.840000000,3.421359010
7.845000000,3.422008028
7.850000000,3.422008028
7.855000000,3.421683519
7.860000000,3.421683519
7.865000000,3.421683519
7.870000000,3.421683519
7.875000000,3.421683519
7.880000000,3.421683519
7.885000000,3.422008028
7.890000000,3.421683519
7.895000000,3.421359010
7.900000000,3.421683519
7.905000000,3.422008028
7.910000000,3.421683519
7.915000000,3.421683519
7.920000000,3.421683519
7.925000000,3.421683519
7.930000000,3.421683519
7.935000000,3.421683519
7.940000000,3.421359010
7.945000000,3.421359010
7.950000000,3.422008028
7.955000000,3.421683519
7.960000000,3.422008028
7.965000000,3.422008028
7.970000000,3.422008028
7.975000000,3.421359010
7.980000000,3.421359010
7.985000000,3.421683519
7.990000000,3.421359010
7.995000000,3.421359010
8.000000000,3.421683519
8.005000000,3.421359010
8.010000000,3.421683519
8.015000000,3.421683519
8.020000000,3.421683519
8.025000000,3.421359010
8.030000000,3.421683519
8.035000000,3.421683519
8.040000000,3.421359010
8.045000000,3.421683519
8.050000000,3.421683519
8.055000000,3.421359010
8.060000000,3.421359010
8.065000000,3.421683519
8.070000000,3.421359010
8.075000000,3.421359010
8.080000000,3.421683519
8.085000000,3.421359010
8.090000000,3.421683519
8.095000000,3.421359010
8.100000000,3.421359010
8.105000000,3.421359010
8.110000000,3.421359010
8.115000000,3.421359010
8.120000000,3.421683519
8.125000000,3.421359010
8.130000000,3.421359010
8.135000000,3.421359010
8.140000000,3.421359010
8.145000000,3.421359010
8.150000000,3.421359010
8.155000000,3.421034501
8.160000000,3.421359010
8.165000000,3.421359010
8.170000000,3.421359010
8.175000000,3.421034501
8.180000000,3.421683519
8.185000000,3.421359010
8.190000000,3.421359010
8.195000000,3.421034501
8.200000000,3.421359010
8.205000000,3.421683519
8.210000000,3.421034501
8.215000000,3.421034501
8.220000000,3.421034501
8.225000000,3.421359010
8.230000000,3.421359010
8.235000000,3.420709992
8.240000000,3.421359010
8.245000000,3.421359010
8.250000000,3.421359010
8.255000000,3.421359010
8.260000000,3.421683519
8.265000000,3.421359010
8.270000000,3.421034501
8.275000000,3.421359010
8.280000000,3.421359010
8.285000000,3.421034501
8.290000000,3.421683519
8.295000000,3.421034501
8.300000000,3.421034501
8.305000000,3.421359010
8.310000000,3.421359010
8.315000000,3.421034501
8.320000000,3.421359010
8.325000000,3.421034501
8.330000000,3.421034501
8.335000000,3.421359010
8.340000000,3.421034501
8.345000000,3.421359010
8.350000000,3.421359010
8.355000000,3.421359010
8.360000000,3.421359010
8.365000000,3.421034501
8.370000000,3.421359010
8.375000000,3.420709992
8.380000000,3.421034501
8.385000000,3.421359010
8.390000000,3.421359010
8.395000000,3.421359010
8.400000000,3.421034501
8.405000000,3.420709992
8.410000000,3.421034501
8.415000000,3.421359010
8.420000000,3.421034501
8.425000000,3.421359010
8.430000000,3.421034501
8.435000000,3.421034501
8.440000000,3.421034501
8.445000000,3.421359010
8.450000000,3.421034501
8.455000000,3.421034501
8.460000000,3.421034501
8.465000000,3.421034501
8.470000000,3.421034501
8.475000000,3.421034501
8.480000000,3.421359010
8.485000000,3.421034501
8.490000000,3.421034501
8.495000000,3.420709992
8.500000000,3.421034501
8.505000000,3.420709992
8.510000000,3.421034501
8.515000000,3.421359010
8.520000000,3.421034501
8.525000000,3.421034501
8.530000000,3.421034501
8.535000000,3.420709992
8.540000000,3.421034501
8.545000000,3.421034501
8.550000000,3.420709992
8.555000000,3.420709992
8.560000000,3.420709992
8.565000000,3.420709992
8.570000000,3.421359010
8.575000000,3.421359010
8.580000000,3.421034501
8.585000000,3.420709992
8.590000000,3.421034501
8.595000000,3.420709992
8.600000000,3.420709992
8.605000000,3.421034501
8.610000000,3.420709992
8.615000000,3.420709992
8.620000000,3.421034501
8.625000000,3.421034501
8.630000000,3.421034501
8.635000000,3.421034501
8.640000000,3.420385483
8.645000000,3.420709992
8.650000000,3.421034501
8.655000000,3.420709992
8.660000000,3.420709992
8.665000000,3.421034501
8.670000000,3.420709992
8.675000000,3.421034501
8.680000000,3.420385483
8.685000000,3.420709992
8.690000000,3.420709992
8.695000000,3.420709992
8.700000000,3.421034501
8.705000000,3.421034501
8.710000000,3.420709992
8.715000000,3.420709992
8.720000000,3.420709992
8.725000000,3.420385483
8.730000000,3.420709992
8.735000000,3.420709992
8.740000000,3.420709992
8.745000000,3.420709992
8.750000000,3.420709992
8.755000000,3.420385483
8.760000000,3.420385483
8.765000000,3.420385483
8.770000000,3.420385483
8.775000000,3.420709992
8.780000000,3.421034501
8.785000000,3.420709992
8.790000000,3.420709992
8.795000000,3.421034501
8.800000000,3.420709992
8.805000000,3.420385483
8.810000000,3.420709992
8.815000000,3.420709992
8.820000000,3.421034501
8.825000000,3.420709992
8.830000000,3.420709992
8.835000000,3.420709992
8.840000000,3.420709992
8.845000000,3.420385483
8.850000000,3.420385483
8.855000000,3.420709992
8.860000000,3.420385483
8.865000000,3.420709992
8.870000000,3.421034501
8.875000000,3.420385483
8.880000000,3.420709992
8.885000000,3.420709992
8.890000000,3.420709992
8.895000000,3.420709992
8.900000000,3.421034501
8.905000000,3.420709992
8.910000000,3.420385483
8.915000000,3.420709992
8.920000000,3.420385483
8.925000000,3.420385483
8.930000000,3.420709992
8.935000000,3.420709992
8.940000000,3.420709992
8.945000000,3.420709992
8.950000000,3.420385483
8.955000000,3.420709992
8.960000000,3.420385483
8.965000000,3.420385483
8.970000000,3.420709992
8.975000000,3.420385483
8.980000000,3.420385483
8.985000000,3.421034501
8.990000000,3.420709992
8.995000000,3.420385483
9.000000000,3.420709992
9.005000000,3.420385483
9.010000000,3.420385483
9.015000000,3.420385483
9.020000000,3.420709992
9.025000000,3.420709992
9.030000000,3.420385483
9.035000000,3.420709992
9.040000000,3.420709992
9.045000000,3.420385483
9.050000000,3.420060975
9.055000000,3.420385483
9.060000000,3.420060975
9.065000000,3.420709992
9.070000000,3.420709992
9.075000000,3.420060975
9.080000000,3.420385483
9.085000000,3.420385483
9.090000000,3.420385483
9.095000000,3.420060975
9.100000000,3.420060975
9.105000000,3.420709992
9.110000000,3.420385483
9.115000000,3.420709992
9.120000000,3.420385483
9.125000000,3.420385483
9.130000000,3.420385483
9.135000000,3.420060975
9.140000000,3.420385483
9.145000000,3.420385483
9.150000000,3.420385483
9.155000000,3.420709992
9.160000000,3.420709992
9.165000000,3.420385483
9.170000000,3.420385483
9.175000000,3.420385483
9.180000000,3.420385483
9.185000000,3.420060975
9.190000000,3.420385483
9.195000000,3.420385483
9.200000000,3.420060975
9.205000000,3.420385483
9.210000000,3.420709992
9.215000000,3.420060975
9.220000000,3.420385483
9.225000000,3.420709992
9.230000000,3.420385483
9.235000000,3.420385483
9.240000000,3.420385483
9.245000000,3.420385483
9.250000000,3.420060975
9.255000000,3.420385483
9.260000000,3.420385483
9.265000000,3.420385483
9.270000000,3.420709992
9.275000000,3.420060975
9.280000000,3.420385483
9.285000000,3.420385483
9.290000000,3.420385483
9.295000000,3.420385483
9.300000000,3.420385483
9.305000000,3.420385483
9.310000000,3.420060975
9.315000000,3.420385483
9.320000000,3.420385483
9.325000000,3.420385483
9.330000000,3.420060975
9.335000000,3.420385483
9.340000000,3.420709992
9.345000000,3.420385483
9.350000000,3.420385483
9.355000000,3.420385483
9.360000000,3.420709992
9.365000000,3.420385483
9.370000000,3.420385483
9.375000000,3.420385483
9.380000000,3.420060975
9.385000000,3.420060975
9.390000000,3.420385483
9.395000000,3.420385483
9.400000000,3.420060975
9.405000000,3.420060975
9.410000000,3.420060975
9.415000000,3.420060975
9.420000000,3.420060975
9.425000000,3.420060975
9.430000000,3.420060975
9.435000000,3.420060975
9.440000000,3.420060975
9.445000000,3.419736466
9.450000000,3.420060975
9.455000000,3.420385483
9.460000000,3.420385483
9.465000000,3.419736466
9.470000000,3.420060975
9.475000000,3.420060975
9.480000000,3.420060975
9.485000000,3.420060975
9.490000000,3.420060975
9.495000000,3.420060975
9.500000000,3.420060975
9.505000000,3.420060975
9.510000000,3.420060975
9.515000000,3.420385483
9.520000000,3.420385483
9.525000000,3.420060975
9.530000000,3.419736466
9.535000000,3.420060975
9.540000000,3.420060975
9.545000000,3.420060975
9.550000000,3.420060975
9.555000000,3.419736466
9.560000000,3.420060975
9.565000000,3.420060975
9.570000000,3.420060975
9.575000000,3.420385483
9.580000000,3.420060975
9.585000000,3.420060975
9.590000000,3.420060975
9.595000000,3.420060975
9.600000000,3.420060975
9.605000000,3.420060975
9.610000000,3.420060975
9.615000000,3.420060975
9.620000000,3.419736466
9.625000000,3.419736466
9.630000000,3.420060975
9.635000000,3.420385483
9.640000000,3.420060975
9.645000000,3.420060975
9.650000000,3.419736466
9.655000000,3.420060975
9.660000000,3.420060975
9.665000000,3.420060975
9.670000000,3.419736466
9.675000000,3.419736466
9.680000000,3.419736466
9.685000000,3.419736466
9.690000000,3.420385483
9.695000000,3.420060975
9.700000000,3.419736466
9.705000000,3.420385483
9.710000000,3.419736466
9.715000000,3.420060975
9.720000000,3.419736466
9.725000000,3.419736466
9.730000000,3.420060975
9.735000000,3.420060975
9.740000000,3.420060975
9.745000000,3.420060975
9.750000000,3.419736466
9.755000000,3.420060975
9.760000000,3.419411957
9.765000000,3.419736466
9.770000000,3.419736466
9.775000000,3.419736466
9.780000000,3.419736466
9.785000000,3.420060975
9.790000000,3.420060975
9.795000000,3.420060975
9.800000000,3.420060975
9.805000000,3.419736466
9.810000000,3.420060975
9.815000000,3.419736466
9.820000000,3.420060975
9.825000000,3.419736466
9.830000000,3.419736466
9.835000000,3.420385483
9.840000000,3.419736466
9.845000000,3.419736466
9.850000000,3.419736466
9.855000000,3.420385483
9.860000000,3.419736466
9.865000000,3.419736466
9.870000000,3.419736466
9.875000000,3.419411957
9.880000000,3.419736466
9.885000000,3.420060975
9.890000000,3.419736466
9.895000000,3.419736466
9.900000000,3.419411957
9.905000000,3.419736466
9.910000000,3.419736466
9.915000000,3.419736466
9.920000000,3.419411957
9.925000000,3.419736466
9.930000000,3.419736466
9.935000000,3.419736466
9.940000000,3.420060975
9.945000000,3.419736466
9.950000000,3.419411957
9.955000000,3.419736466
9.960000000,3.420060975
9.965000000,3.420060975
9.970000000,3.419736466
9.975000000,3.419736466
9.980000000,3.420060975
9.985000000,3.420060975
9.990000000,3.419736466
9.995000000,3.419736466
10.000000000,3.420060975
