Zeit [ms],U_A [V]
0.000000000,9.152862949
3.000000000,8.850417183
5.000000000,8.558356090
6.000000000,8.283169872
7.000000000,8.010904477
8.000000000,7.750321700
9.000000000,7.503693087
9.000000000,7.266150940
10.000000000,7.027635401
12.000000000,6.794636680
13.000000000,6.573969484
14.000000000,6.364660258
15.000000000,6.157622698
16.000000000,5.958697978
17.000000000,5.767886086
18.000000000,5.585511520
20.000000000,5.399567408
21.000000000,5.221736098
22.000000000,5.056236205
23.000000000,4.897875565
24.000000000,4.738216927
25.000000000,4.585697533
26.000000000,4.438045812
27.000000000,4.295910777
29.000000000,4.153775770
30.000000000,4.017157442
31.000000000,3.890274409
32.000000000,3.767610011
33.000000000,3.644621121
34.000000000,3.525526355
36.000000000,3.410974727
37.000000000,3.301939762
38.000000000,3.194527353
39.000000000,3.090684550
40.000000000,2.991384879
41.000000000,2.898250882
42.000000000,2.802845331
44.000000000,2.709386838
45.000000000,2.617550896
46.000000000,2.530582588
47.000000000,2.442965268
48.000000000,2.364434193
49.000000000,2.288499190
51.000000000,2.215484768
51.000000000,2.143119365
52.000000000,2.073999050
53.000000000,2.007799314
54.000000000,1.945169174
55.000000000,1.881890018
56.000000000,1.820233407
58.000000000,1.762146390
59.000000000,1.706979950
60.000000000,1.651164495
61.000000000,1.598594125
62.000000000,1.547970807
63.000000000,1.499619049
64.000000000,1.450618274
66.000000000,1.403240042
67.000000000,1.358457879
68.000000000,1.316920800
69.000000000,1.274085687
70.000000000,1.232548609
71.000000000,1.193932107
72.000000000,1.156289130
74.000000000,1.117997136
75.000000000,1.082301211
76.000000000,1.048227827
77.000000000,1.015776985
78.000000000,0.983001636
79.000000000,0.949252761
81.000000000,0.919397987
82.000000000,0.891165755
83.000000000,0.862284506
84.000000000,0.835350308
85.000000000,0.808740618
86.000000000,0.784077979
87.000000000,0.759090831
89.000000000,0.735077209
90.000000000,0.711712603
91.000000000,0.689970540
92.000000000,0.668228476
93.000000000,0.647135430
93.000000000,0.626366891
94.000000000,0.607545403
96.000000000,0.587750390
97.000000000,0.568928902
98.000000000,0.551729956
99.000000000,0.532583960
100.000000000,0.516358539
101.000000000,0.500133118
103.000000000,0.484556714
104.000000000,0.469304818
105.000000000,0.454377431
106.000000000,0.439125536
107.000000000,0.425820690
108.000000000,0.412515845
109.000000000,0.400184525
111.000000000,0.387204188
112.000000000,0.375521885
113.000000000,0.364164090
114.000000000,0.352806296
115.000000000,0.342097518
116.000000000,0.332037757
117.000000000,0.321653487
119.000000000,0.311593726
120.000000000,0.301858473
121.000000000,0.292772237
122.000000000,0.282712476
123.000000000,0.274599765
124.000000000,0.266162546
126.000000000,0.257725327
127.000000000,0.249612616
128.000000000,0.242473431
129.000000000,0.234685229
130.000000000,0.227870552
131.000000000,0.221380383
132.000000000,0.214241197
134.000000000,0.207751029
134.000000000,0.201909877
135.000000000,0.195419708
136.000000000,0.189578557
137.000000000,0.184061913
138.000000000,0.178220761
139.000000000,0.173028626
141.000000000,0.167836492
142.000000000,0.162644357
143.000000000,0.158101238
144.000000000,0.153233612
145.000000000,0.149015002
146.000000000,0.145120901
147.000000000,0.140253274
149.000000000,0.136034665
150.000000000,0.132140564
151.000000000,0.127921954
152.000000000,0.124676869
153.000000000,0.121431785
154.000000000,0.117213175
155.000000000,0.114292599
157.000000000,0.110723007
158.000000000,0.107477922
159.000000000,0.104557346
160.000000000,0.100987753
161.000000000,0.098716194
162.000000000,0.095471110
163.000000000,0.092875042
165.000000000,0.090603483
166.000000000,0.088007416
167.000000000,0.085411348
168.000000000,0.082815281
169.000000000,0.080868230
170.000000000,0.078596671
171.000000000,0.076325112
173.000000000,0.073729044
174.000000000,0.072106502
175.000000000,0.069510435
176.000000000,0.067887892
176.000000000,0.065940842
177.000000000,0.064318299
179.000000000,0.062695757
180.000000000,0.061073215
181.000000000,0.059126164
182.000000000,0.057828131
183.000000000,0.056205588
184.000000000,0.054583046
185.000000000,0.052960504
187.000000000,0.051662470
188.000000000,0.050688945
189.000000000,0.049066403
190.000000000,0.047768369
191.000000000,0.046470335
192.000000000,0.045172301
193.000000000,0.044847793
195.000000000,0.042900742
196.000000000,0.041602708
197.000000000,0.040953691
198.000000000,0.039980166
199.000000000,0.039331149
200.000000000,0.038033115
201.000000000,0.037059590
203.000000000,0.036410573
204.000000000,0.035437048
205.000000000,0.034139014
206.000000000,0.033489997
207.000000000,0.032840980
208.000000000,0.032191963
209.000000000,0.031218438
211.000000000,0.030893930
212.000000000,0.029920404
213.000000000,0.029271387
214.000000000,0.028297862
215.000000000,0.027973354
216.000000000,0.027324337
217.000000000,0.026999828
218.000000000,0.026026303
219.000000000,0.025701795
220.000000000,0.025052778
221.000000000,0.024079252
222.000000000,0.024079252
223.000000000,0.023105727
225.000000000,0.022781218
226.000000000,0.022132202
227.000000000,0.021807693
228.000000000,0.021807693
229.000000000,0.020834168
230.000000000,0.020509659
232.000000000,0.019860642
233.000000000,0.019536134
234.000000000,0.019536134
235.000000000,0.018887117
236.000000000,0.018562609
237.000000000,0.018238100
238.000000000,0.017589083
240.000000000,0.017589083
241.000000000,0.017264575
242.000000000,0.016615558
243.000000000,0.016615558
244.000000000,0.016291050
246.000000000,0.015966541
247.000000000,0.015642033
248.000000000,0.015642033
249.000000000,0.014993016
250.000000000,0.014668507
251.000000000,0.014668507
252.000000000,0.014668507
254.000000000,0.014019490
255.000000000,0.014019490
256.000000000,0.013694982
257.000000000,0.013694982
258.000000000,0.013370473
259.000000000,0.013045965
259.000000000,0.012721457
261.000000000,0.012396948
262.000000000,0.012721457
263.000000000,0.012396948
264.000000000,0.012072440
265.000000000,0.012072440
266.000000000,0.011747931
268.000000000,0.012072440
269.000000000,0.011747931
270.000000000,0.011423423
271.000000000,0.011098914
272.000000000,0.010774406
273.000000000,0.010774406
274.000000000,0.010774406
275.000000000,0.010449897
277.000000000,0.010449897
278.000000000,0.010449897
279.000000000,0.010449897
280.000000000,0.010125389
281.000000000,0.009476372
282.000000000,0.010125389
283.000000000,0.010125389
285.000000000,0.009800881
286.000000000,0.009151864
287.000000000,0.009151864
288.000000000,0.009476372
289.000000000,0.009476372
290.000000000,0.008827355
291.000000000,0.009151864
293.000000000,0.008502847
294.000000000,0.008827355
295.000000000,0.008502847
296.000000000,0.008502847
297.000000000,0.008502847
298.000000000,0.008178338
299.000000000,0.008502847
301.000000000,0.008827355
301.000000000,0.007853830
302.000000000,0.008502847
303.000000000,0.008178338
304.000000000,0.008502847
305.000000000,0.007529321
306.000000000,0.007529321
308.000000000,0.007853830
309.000000000,0.007853830
310.000000000,0.007529321
311.000000000,0.007529321
312.000000000,0.007204813
313.000000000,0.007529321
314.000000000,0.007853830
316.000000000,0.007204813
317.000000000,0.007529321
318.000000000,0.007204813
319.000000000,0.007204813
320.000000000,0.006880305
321.000000000,0.007204813
322.000000000,0.006880305
324.000000000,0.006880305
325.000000000,0.007204813
326.000000000,0.007204813
327.000000000,0.006880305
328.000000000,0.006880305
329.000000000,0.006555796
330.000000000,0.006555796
332.000000000,0.006880305
333.000000000,0.006555796
334.000000000,0.006555796
335.000000000,0.006231288
336.000000000,0.006555796
337.000000000,0.006555796
338.000000000,0.006555796
340.000000000,0.006555796
341.000000000,0.006231288
342.000000000,0.006555796
343.000000000,0.006231288
343.000000000,0.006231288
344.000000000,0.006231288
345.000000000,0.006555796
347.000000000,0.005906779
348.000000000,0.006231288
349.000000000,0.005906779
350.000000000,0.006231288
351.000000000,0.005582271
352.000000000,0.005906779
354.000000000,0.005906779
355.000000000,0.006231288
356.000000000,0.005582271
357.000000000,0.005582271
358.000000000,0.005582271
359.000000000,0.005906779
360.000000000,0.006231288
362.000000000,0.005582271
363.000000000,0.005906779
364.000000000,0.005906779
365.000000000,0.005257762
366.000000000,0.005582271
367.000000000,0.005582271
368.000000000,0.005257762
370.000000000,0.005582271
371.000000000,0.005257762
372.000000000,0.005257762
373.000000000,0.005582271
374.000000000,0.005582271
375.000000000,0.005582271
376.000000000,0.005257762
378.000000000,0.005257762
379.000000000,0.005257762
380.000000000,0.005257762
381.000000000,0.005582271
382.000000000,0.005582271
383.000000000,0.005257762
384.000000000,0.005257762
385.000000000,0.005582271
386.000000000,0.005257762
387.000000000,0.004933254
388.000000000,0.005257762
389.000000000,0.005257762
390.000000000,0.004933254
392.000000000,0.005257762
393.000000000,0.005257762
394.000000000,0.004933254
395.000000000,0.004933254
396.000000000,0.005257762
397.000000000,0.005257762
399.000000000,0.004933254
400.000000000,0.004933254
401.000000000,0.004933254
402.000000000,0.004933254
403.000000000,0.004933254
404.000000000,0.004933254
405.000000000,0.004933254
407.000000000,0.004933254
408.000000000,0.004284237
409.000000000,0.004933254
410.000000000,0.004933254
411.000000000,0.004608745
412.000000000,0.004933254
413.000000000,0.004933254
415.000000000,0.004933254
416.000000000,0.004608745
417.000000000,0.004608745
418.000000000,0.004608745
419.000000000,0.004933254
420.000000000,0.004608745
422.000000000,0.004933254
423.000000000,0.004284237
424.000000000,0.004608745
425.000000000,0.004933254
426.000000000,0.004284237
426.000000000,0.004608745
427.000000000,0.004608745
428.000000000,0.004608745
430.000000000,0.004608745
431.000000000,0.004284237
432.000000000,0.004608745
433.000000000,0.004933254
434.000000000,0.004608745
435.000000000,0.004608745
436.000000000,0.004608745
438.000000000,0.003959728
439.000000000,0.003959728
440.000000000,0.004608745
441.000000000,0.004284237
442.000000000,0.004284237
443.000000000,0.004284237
444.000000000,0.004608745
446.000000000,0.004608745
447.000000000,0.004284237
448.000000000,0.004284237
449.000000000,0.004284237
450.000000000,0.004284237
451.000000000,0.004284237
453.000000000,0.004608745
454.000000000,0.003959728
455.000000000,0.004608745
456.000000000,0.003959728
457.000000000,0.003959728
459.000000000,0.004608745
460.000000000,0.004608745
461.000000000,0.003959728
462.000000000,0.003959728
463.000000000,0.004284237
464.000000000,0.003959728
465.000000000,0.004284237
467.000000000,0.003635220
468.000000000,0.004284237
468.000000000,0.004284237
469.000000000,0.003959728
470.000000000,0.004284237
471.000000000,0.003959728
472.000000000,0.004284237
474.000000000,0.003959728
475.000000000,0.004284237
476.000000000,0.003959728
477.000000000,0.003635220
478.000000000,0.003959728
479.000000000,0.003959728
480.000000000,0.003959728
481.000000000,0.003959728
483.000000000,0.004284237
484.000000000,0.003635220
485.000000000,0.004284237
486.000000000,0.003635220
487.000000000,0.004284237
488.000000000,0.003635220
489.000000000,0.003959728
491.000000000,0.004284237
492.000000000,0.003959728
493.000000000,0.004284237
494.000000000,0.003635220
495.000000000,0.003959728
496.000000000,0.003635220
498.000000000,0.003959728
499.000000000,0.003959728
500.000000000,0.003635220
501.000000000,0.003959728
502.000000000,0.003635220
503.000000000,0.003959728
504.000000000,0.003635220
505.000000000,0.004284237
507.000000000,0.003635220
508.000000000,0.003959728
509.000000000,0.003959728
509.000000000,0.003959728
510.000000000,0.003635220
511.000000000,0.003635220
513.000000000,0.003310712
514.000000000,0.003959728
515.000000000,0.003959728
516.000000000,0.003959728
517.000000000,0.003635220
518.000000000,0.003959728
520.000000000,0.003959728
521.000000000,0.003635220
522.000000000,0.003959728
523.000000000,0.003959728
524.000000000,0.003635220
525.000000000,0.004284237
526.000000000,0.003310712
528.000000000,0.003635220
529.000000000,0.003959728
530.000000000,0.003635220
531.000000000,0.003635220
532.000000000,0.003635220
533.000000000,0.003310712
535.000000000,0.003959728
536.000000000,0.003959728
537.000000000,0.003635220
538.000000000,0.003635220
539.000000000,0.003310712
540.000000000,0.003959728
542.000000000,0.003310712
543.000000000,0.003635220
544.000000000,0.003635220
545.000000000,0.003959728
546.000000000,0.003310712
547.000000000,0.003635220
548.000000000,0.003310712
550.000000000,0.003635220
551.000000000,0.003310712
551.000000000,0.003635220
552.000000000,0.003310712
553.000000000,0.003310712
555.000000000,0.003310712
556.000000000,0.003310712
557.000000000,0.003635220
558.000000000,0.003959728
559.000000000,0.003959728
560.000000000,0.003635220
561.000000000,0.003635220
563.000000000,0.003310712
564.000000000,0.003635220
565.000000000,0.003310712
566.000000000,0.002986203
567.000000000,0.003310712
568.000000000,0.003310712
569.000000000,0.002986203
570.000000000,0.002986203
572.000000000,0.003635220
573.000000000,0.003310712
574.000000000,0.003635220
575.000000000,0.002986203
576.000000000,0.003635220
577.000000000,0.003310712
579.000000000,0.003310712
580.000000000,0.002986203
581.000000000,0.003310712
582.000000000,0.003310712
583.000000000,0.003310712
584.000000000,0.003310712
585.000000000,0.003635220
586.000000000,0.003635220
588.000000000,0.003310712
589.000000000,0.002986203
590.000000000,0.003310712
591.000000000,0.003310712
592.000000000,0.002986203
593.000000000,0.003310712
593.000000000,0.003310712
595.000000000,0.003310712
596.000000000,0.003310712
597.000000000,0.002986203
598.000000000,0.003635220
599.000000000,0.002986203
600.000000000,0.003310712
601.000000000,0.003310712
603.000000000,0.003310712
604.000000000,0.002661695
605.000000000,0.002986203
606.000000000,0.003310712
607.000000000,0.002986203
608.000000000,0.002986203
609.000000000,0.003635220
611.000000000,0.003310712
612.000000000,0.003310712
613.000000000,0.002986203
614.000000000,0.002986203
615.000000000,0.002986203
616.000000000,0.003310712
617.000000000,0.003310712
619.000000000,0.003310712
620.000000000,0.003310712
621.000000000,0.003635220
622.000000000,0.003310712
623.000000000,0.003310712
624.000000000,0.003310712
625.000000000,0.002986203
627.000000000,0.003310712
628.000000000,0.002661695
629.000000000,0.002986203
630.000000000,0.002986203
631.000000000,0.003310712
632.000000000,0.002986203
633.000000000,0.002986203
634.000000000,0.002986203
635.000000000,0.002986203
636.000000000,0.002986203
637.000000000,0.003310712
638.000000000,0.002986203
639.000000000,0.003310712
641.000000000,0.002661695
642.000000000,0.002986203
643.000000000,0.002986203
644.000000000,0.002661695
645.000000000,0.002661695
646.000000000,0.002986203
648.000000000,0.002986203
649.000000000,0.003310712
650.000000000,0.002986203
651.000000000,0.002986203
652.000000000,0.003310712
653.000000000,0.002986203
655.000000000,0.002986203
656.000000000,0.002661695
657.000000000,0.002986203
658.000000000,0.002986203
659.000000000,0.002986203
660.000000000,0.002986203
661.000000000,0.002986203
663.000000000,0.002986203
664.000000000,0.002661695
665.000000000,0.002986203
666.000000000,0.002986203
667.000000000,0.002661695
668.000000000,0.002986203
669.000000000,0.003310712
671.000000000,0.002661695
672.000000000,0.002661695
673.000000000,0.002986203
674.000000000,0.002986203
675.000000000,0.002661695
676.000000000,0.002986203
677.000000000,0.002661695
678.000000000,0.002986203
679.000000000,0.002661695
680.000000000,0.002661695
681.000000000,0.002986203
682.000000000,0.002661695
683.000000000,0.002661695
685.000000000,0.002661695
686.000000000,0.002661695
687.000000000,0.002986203
688.000000000,0.002986203
689.000000000,0.002986203
690.000000000,0.002661695
692.000000000,0.002986203
693.000000000,0.002986203
694.000000000,0.002661695
695.000000000,0.002661695
696.000000000,0.002986203
697.000000000,0.002986203
698.000000000,0.002986203
700.000000000,0.002986203
701.000000000,0.002986203
702.000000000,0.002337186
703.000000000,0.002986203
704.000000000,0.002661695
705.000000000,0.002986203
706.000000000,0.002661695
707.000000000,0.002661695
709.000000000,0.002986203
710.000000000,0.002337186
711.000000000,0.002661695
712.000000000,0.002661695
713.000000000,0.002986203
714.000000000,0.002337186
715.000000000,0.002661695
717.000000000,0.002661695
718.000000000,0.002986203
718.000000000,0.002661695
719.000000000,0.002661695
720.000000000,0.002661695
721.000000000,0.002337186
722.000000000,0.002661695
724.000000000,0.002337186
725.000000000,0.002661695
726.000000000,0.002661695
727.000000000,0.002986203
728.000000000,0.002661695
729.000000000,0.002337186
730.000000000,0.002986203
732.000000000,0.002986203
733.000000000,0.002337186
734.000000000,0.002661695
735.000000000,0.002337186
736.000000000,0.002337186
737.000000000,0.002661695
738.000000000,0.002986203
740.000000000,0.002986203
741.000000000,0.002337186
742.000000000,0.002661695
743.000000000,0.002986203
744.000000000,0.002337186
745.000000000,0.002661695
746.000000000,0.002661695
748.000000000,0.002337186
749.000000000,0.002661695
750.000000000,0.002661695
751.000000000,0.002661695
752.000000000,0.002661695
753.000000000,0.002337186
754.000000000,0.002986203
756.000000000,0.002661695
757.000000000,0.002661695
758.000000000,0.002661695
759.000000000,0.002661695
759.000000000,0.002661695
760.000000000,0.002661695
762.000000000,0.002661695
763.000000000,0.002661695
764.000000000,0.002661695
765.000000000,0.002661695
766.000000000,0.002661695
767.000000000,0.002337186
768.000000000,0.002337186
770.000000000,0.002661695
771.000000000,0.002986203
772.000000000,0.002661695
773.000000000,0.002337186
774.000000000,0.002661695
775.000000000,0.002661695
776.000000000,0.002661695
778.000000000,0.002337186
779.000000000,0.002661695
780.000000000,0.002661695
781.000000000,0.002661695
782.000000000,0.002986203
783.000000000,0.002661695
784.000000000,0.002337186
786.000000000,0.002661695
787.000000000,0.002661695
788.000000000,0.002337186
789.000000000,0.002661695
790.000000000,0.002337186
791.000000000,0.002337186
793.000000000,0.002337186
794.000000000,0.002337186
795.000000000,0.002337186
796.000000000,0.002661695
797.000000000,0.002986203
798.000000000,0.002337186
799.000000000,0.002661695
801.000000000,0.002661695
801.000000000,0.002661695
802.000000000,0.002661695
803.000000000,0.002661695
804.000000000,0.002337186
805.000000000,0.002661695
806.000000000,0.002986203
808.000000000,0.002661695
809.000000000,0.002661695
810.000000000,0.002661695
811.000000000,0.002661695
812.000000000,0.002337186
814.000000000,0.002661695
815.000000000,0.002661695
816.000000000,0.002337186
817.000000000,0.002012678
818.000000000,0.002661695
819.000000000,0.002337186
821.000000000,0.002337186
822.000000000,0.002661695
823.000000000,0.002337186
824.000000000,0.002661695
825.000000000,0.002337186
826.000000000,0.002661695
827.000000000,0.002012678
828.000000000,0.002661695
830.000000000,0.002337186
831.000000000,0.002337186
832.000000000,0.002337186
833.000000000,0.002661695
834.000000000,0.002337186
835.000000000,0.002661695
837.000000000,0.002337186
838.000000000,0.002337186
839.000000000,0.002337186
840.000000000,0.002661695
841.000000000,0.002661695
842.000000000,0.002337186
843.000000000,0.002012678
844.000000000,0.002661695
845.000000000,0.002012678
846.000000000,0.002661695
847.000000000,0.002337186
848.000000000,0.002337186
849.000000000,0.002337186
850.000000000,0.002661695
852.000000000,0.002337186
853.000000000,0.002337186
854.000000000,0.002661695
855.000000000,0.002012678
856.000000000,0.002337186
857.000000000,0.002337186
858.000000000,0.002337186
860.000000000,0.002012678
861.000000000,0.002337186
862.000000000,0.002337186
863.000000000,0.002337186
864.000000000,0.002337186
865.000000000,0.002337186
866.000000000,0.002012678
868.000000000,0.002012678
869.000000000,0.002661695
870.000000000,0.002337186
871.000000000,0.002337186
872.000000000,0.002337186
873.000000000,0.002337186
875.000000000,0.002337186
876.000000000,0.002337186
877.000000000,0.002012678
878.000000000,0.002337186
879.000000000,0.002012678
880.000000000,0.002337186
881.000000000,0.002337186
883.000000000,0.002337186
884.000000000,0.002337186
884.000000000,0.002012678
885.000000000,0.002012678
886.000000000,0.002337186
887.000000000,0.002337186
888.000000000,0.002337186
890.000000000,0.002012678
891.000000000,0.002337186
892.000000000,0.002337186
893.000000000,0.002337186
894.000000000,0.002661695
895.000000000,0.002661695
897.000000000,0.002661695
898.000000000,0.002012678
899.000000000,0.002337186
900.000000000,0.002012678
901.000000000,0.002337186
902.000000000,0.002012678
903.000000000,0.002337186
905.000000000,0.002337186
906.000000000,0.002337186
907.000000000,0.002012678
908.000000000,0.002012678
909.000000000,0.002337186
910.000000000,0.002012678
911.000000000,0.002661695
913.000000000,0.002337186
914.000000000,0.002661695
915.000000000,0.002337186
916.000000000,0.002337186
917.000000000,0.002337186
918.000000000,0.002012678
919.000000000,0.002012678
921.000000000,0.002337186
922.000000000,0.002012678
923.000000000,0.002012678
924.000000000,0.002337186
925.000000000,0.002337186
926.000000000,0.002337186
926.000000000,0.002337186
928.000000000,0.002337186
929.000000000,0.002337186
930.000000000,0.002661695
931.000000000,0.002337186
932.000000000,0.002337186
933.000000000,0.001688169
935.000000000,0.002337186
936.000000000,0.002012678
937.000000000,0.002337186
938.000000000,0.002012678
939.000000000,0.002337186
940.000000000,0.002337186
942.000000000,0.002337186
943.000000000,0.002337186
944.000000000,0.002337186
945.000000000,0.002012678
946.000000000,0.002337186
947.000000000,0.002337186
948.000000000,0.002337186
949.000000000,0.002012678
951.000000000,0.002012678
952.000000000,0.002337186
953.000000000,0.002337186
954.000000000,0.001688169
955.000000000,0.002337186
957.000000000,0.002012678
958.000000000,0.002012678
959.000000000,0.002012678
960.000000000,0.002012678
961.000000000,0.002337186
962.000000000,0.002337186
964.000000000,0.002012678
965.000000000,0.002337186
966.000000000,0.002337186
967.000000000,0.002012678
968.000000000,0.002337186
968.000000000,0.002337186
969.000000000,0.002012678
970.000000000,0.002337186
972.000000000,0.002012678
973.000000000,0.001688169
974.000000000,0.002337186
975.000000000,0.002012678
976.000000000,0.001688169
978.000000000,0.002012678
979.000000000,0.002012678
980.000000000,0.001688169
981.000000000,0.002337186
982.000000000,0.002012678
983.000000000,0.002012678
984.000000000,0.002012678
985.000000000,0.001688169
987.000000000,0.002337186
988.000000000,0.002012678
989.000000000,0.002012678
990.000000000,0.001688169
991.000000000,0.002337186
992.000000000,0.002337186
993.000000000,0.002337186
995.000000000,0.001688169
996.000000000,0.002337186
997.000000000,0.002337186
998.000000000,0.002012678
999.000000000,0.002012678
1000.000000000,0.002012678
1001.000000000,0.002337186
1003.000000000,0.002012678
1004.000000000,0.002012678
1005.000000000,0.002012678
1006.000000000,0.002012678
1007.000000000,0.002337186
1008.000000000,0.002012678
1009.000000000,0.002661695
1010.000000000,0.002012678
1011.000000000,0.001688169
1012.000000000,0.002012678
1013.000000000,0.002337186
1014.000000000,0.002012678
1015.000000000,0.002012678
1016.000000000,0.002012678
1018.000000000,0.002337186
1019.000000000,0.002012678
1020.000000000,0.002012678
1021.000000000,0.002337186
1022.000000000,0.002012678
1023.000000000,0.002337186
1024.000000000,0.002012678
1026.000000000,0.002337186
1027.000000000,0.002337186
1028.000000000,0.001688169
1029.000000000,0.002012678
1030.000000000,0.001688169
1031.000000000,0.002012678
1032.000000000,0.002012678
1034.000000000,0.002012678
1035.000000000,0.002012678
1036.000000000,0.001688169
1037.000000000,0.002337186
1038.000000000,0.001688169
1039.000000000,0.002012678
1041.000000000,0.001688169
1042.000000000,0.002012678
1043.000000000,0.002337186
1044.000000000,0.002012678
1045.000000000,0.001688169
1046.000000000,0.001688169
1047.000000000,0.002012678
1049.000000000,0.002012678
1050.000000000,0.002012678
1051.000000000,0.002337186
1051.000000000,0.002012678
1052.000000000,0.002012678
1053.000000000,0.002012678
1054.000000000,0.002012678
1056.000000000,0.001688169
1057.000000000,0.002012678
1058.000000000,0.002012678
1059.000000000,0.002012678
1060.000000000,0.001688169
1061.000000000,0.002012678
1062.000000000,0.002012678
1064.000000000,0.002012678
1065.000000000,0.002012678
1066.000000000,0.001688169
1067.000000000,0.001688169
1068.000000000,0.002012678
1069.000000000,0.002012678
1070.000000000,0.002012678
1072.000000000,0.001688169
1073.000000000,0.002012678
1074.000000000,0.002337186
1075.000000000,0.001688169
1076.000000000,0.001688169
1077.000000000,0.002012678
1079.000000000,0.002337186
1080.000000000,0.002012678
1081.000000000,0.002337186
1082.000000000,0.002012678
1083.000000000,0.002012678
1084.000000000,0.002012678
1085.000000000,0.002012678
1087.000000000,0.002337186
1088.000000000,0.002012678
1089.000000000,0.002337186
1090.000000000,0.001688169
1091.000000000,0.002012678
1092.000000000,0.001688169
1093.000000000,0.002012678
1094.000000000,0.002337186
1095.000000000,0.002012678
1096.000000000,0.001688169
1097.000000000,0.002012678
1098.000000000,0.001688169
1099.000000000,0.002012678
1101.000000000,0.002337186
1102.000000000,0.002012678
1103.000000000,0.002337186
1104.000000000,0.002012678
1105.000000000,0.002012678
1106.000000000,0.002012678
1107.000000000,0.002012678
1109.000000000,0.002012678
1110.000000000,0.002012678
1111.000000000,0.002012678
1112.000000000,0.002012678
1113.000000000,0.002012678
1114.000000000,0.002012678
1115.000000000,0.002012678
1117.000000000,0.001688169
1118.000000000,0.001688169
1119.000000000,0.002012678
1120.000000000,0.002012678
1121.000000000,0.001688169
1122.000000000,0.002337186
1124.000000000,0.001688169
