Zeit [ms],U_E [V],U_A [V]
0.000000000,-0.290369449,0.764931983
0.020000000,-0.240070635,0.481636138
0.040000000,-0.184904195,0.189903065
0.060000000,-0.127141688,-0.100856502
0.080000000,-0.067432131,-0.385774945
0.100000000,-0.006424542,-0.659335626
0.120000000,0.053934029,-0.916995428
0.140000000,0.114617108,-1.149992615
0.160000000,0.172704118,-1.353784060
0.180000000,0.227870552,-1.528694260
0.200000000,0.280116409,-1.668882047
0.220000000,0.327170130,-1.781162093
0.240000000,0.369680734,-1.869103988
0.260000000,0.405701168,-1.934005760
0.280000000,0.436204960,-1.977489950
0.300000000,0.458596041,-1.999232046
0.320000000,0.474496953,-2.001503608
0.340000000,0.481960647,-1.982357584
0.360000000,0.482609664,-1.943741027
0.380000000,0.475470478,-1.883706886
0.400000000,0.460543091,-1.800957132
0.420000000,0.438801027,-1.693544715
0.440000000,0.409270761,-1.557575539
0.460000000,0.373574835,-1.391102561
0.480000000,0.332037757,-1.192178740
0.500000000,0.284984035,-0.963400157
0.520000000,0.233711703,-0.710607977
0.540000000,0.178869778,-0.438020814
0.560000000,0.120458260,-0.153426873
0.580000000,0.060424198,0.138630732
0.600000000,-0.000258881,0.429714791
0.620000000,-0.060941962,0.716255721
0.640000000,-0.120976027,0.992412380
0.660000000,-0.179387551,1.250072064
0.680000000,-0.234553991,1.488261253
0.700000000,-0.285826331,1.702112323
0.720000000,-0.332880061,1.885784120
0.740000000,-0.374741657,2.037654097
0.760000000,-0.410113083,2.153503638
0.780000000,-0.439318848,2.234306263
0.800000000,-0.462358952,2.274869831
0.820000000,-0.477610852,2.276816883
0.840000000,-0.485399056,2.241445451
0.860000000,-0.486048073,2.166159470
0.880000000,-0.478584378,2.053879522
0.900000000,-0.463656986,1.906552663
0.920000000,-0.441590408,1.727748492
0.940000000,-0.412709151,1.518765047
0.960000000,-0.377337725,1.283171923
0.980000000,-0.335800638,1.027783797
1.000000000,-0.289395924,0.756170256
1.020000000,-0.238123584,0.470927361
1.040000000,-0.183281652,0.180492320
1.060000000,-0.125843654,-0.108644705
1.080000000,-0.065160572,-0.394212166
1.100000000,-0.004802000,-0.668421865
1.120000000,0.055881080,-0.924459125
1.140000000,0.116239650,-1.156158279
1.160000000,0.174651169,-1.360598743
1.180000000,0.229817602,-1.532588365
1.200000000,0.281738951,-1.673100661
1.220000000,0.328792672,-1.785056199
1.240000000,0.370654259,-1.871051041
1.260000000,0.407323710,-1.934330269
1.280000000,0.436204960,-1.977489950
1.300000000,0.459245057,-2.000205573
1.320000000,0.474821462,-2.001179099
1.340000000,0.482285155,-1.981708566
1.360000000,0.482609664,-1.942442991
1.380000000,0.474821462,-1.882084342
1.400000000,0.459569566,-1.798685570
1.420000000,0.437827502,-1.689975118
1.440000000,0.407972727,-1.553032416
1.460000000,0.372601309,-1.385585913
1.480000000,0.330415214,-1.184715040
1.500000000,0.283686001,-0.955936459
1.520000000,0.231764653,-0.703468788
1.540000000,0.176598219,-0.429583593
1.560000000,0.118835718,-0.144016128
1.580000000,0.058801656,0.147392460
1.600000000,-0.002854949,0.438801027
1.620000000,-0.063213521,0.725341957
1.640000000,-0.122923078,1.000200581
1.660000000,-0.181010093,1.258184774
1.680000000,-0.235852025,1.496049456
1.700000000,-0.287448873,1.708927001
1.720000000,-0.334178095,1.891949781
1.740000000,-0.375390674,2.040899182
1.760000000,-0.411411117,2.157397740
1.780000000,-0.440616882,2.236902331
1.800000000,-0.463007969,2.275194340
1.820000000,-0.477935360,2.277141391
1.840000000,-0.485723565,2.238200366
1.860000000,-0.486048073,2.162914385
1.880000000,-0.478259869,2.049011895
1.900000000,-0.463007969,1.901036019
1.920000000,-0.440941391,1.720933814
1.940000000,-0.412060134,1.510652336
1.960000000,-0.376039691,1.275383721
1.980000000,-0.334502604,1.019671086
