Distance	Impulses
x/cm	Z/

22.0	184.00
47.0	163.00
72.0	203.00
97.0	224.00
122.0	346.00
147.0	420.00
172.0	577.00
197.0	697.00
205.0	713.00
215.0	647.00
222.0	625.00
230.0	612.00
240.0	594.00
247.0	561.00
255.0	571.00
265.0	539.00
272.0	458.00
282.0	410.00
290.0	359.00
297.0	324.00
305.0	269.00
315.0	285.00
322.0	204.00
330.0	237.00
340.0	210.00
347.0	172.00
355.0	199.00
365.0	159.00
372.0	171.00
380.0	174.00
390.0	163.00
397.0	145.00
