#;VALUE;UNIT;AC/DC;TIME;
1;0,637;T ;DC;11:46:15 AM;
2;0,637;T ;DC;11:46:15 AM;
3;0,637;T ;DC;11:46:15 AM;
4;0,637;T ;DC;11:46:16 AM;
5;0,637;T ;DC;11:46:16 AM;
6;0,638;T ;DC;11:46:16 AM;
7;0,638;T ;DC;11:46:16 AM;
8;0,637;T ;DC;11:46:16 AM;
9;0,637;T ;DC;11:46:17 AM;
10;0,637;T ;DC;11:46:17 AM;
11;0,637;T ;DC;11:46:17 AM;
12;0,637;T ;DC;11:46:17 AM;
13;0,637;T ;DC;11:46:17 AM;
14;0,637;T ;DC;11:46:18 AM;
15;0,637;T ;DC;11:46:18 AM;
16;0,637;T ;DC;11:46:18 AM;
17;0,638;T ;DC;11:46:18 AM;
18;0,638;T ;DC;11:46:19 AM;
19;0,638;T ;DC;11:46:19 AM;
20;0,638;T ;DC;11:46:19 AM;
21;0,638;T ;DC;11:46:19 AM;
22;0,638;T ;DC;11:46:19 AM;
23;0,638;T ;DC;11:46:20 AM;
24;0,638;T ;DC;11:46:20 AM;
25;0,638;T ;DC;11:46:20 AM;
26;0,638;T ;DC;11:46:20 AM;
27;0,638;T ;DC;11:46:20 AM;
28;0,638;T ;DC;11:46:21 AM;
29;0,637;T ;DC;11:46:21 AM;
30;0,638;T ;DC;11:46:21 AM;
31;0,638;T ;DC;11:46:21 AM;
32;0,637;T ;DC;11:46:21 AM;
33;0,638;T ;DC;11:46:22 AM;
34;0,638;T ;DC;11:46:22 AM;
35;0,637;T ;DC;11:46:22 AM;
36;0,638;T ;DC;11:46:22 AM;
37;0,638;T ;DC;11:46:22 AM;
38;0,638;T ;DC;11:46:23 AM;
39;0,638;T ;DC;11:46:23 AM;
40;0,637;T ;DC;11:46:23 AM;
41;0,637;T ;DC;11:46:23 AM;
42;0,637;T ;DC;11:46:23 AM;
43;0,637;T ;DC;11:46:24 AM;
44;0,638;T ;DC;11:46:24 AM;
45;0,638;T ;DC;11:46:24 AM;
46;0,638;T ;DC;11:46:24 AM;
47;0,637;T ;DC;11:46:25 AM;
48;0,637;T ;DC;11:46:25 AM;
49;0,637;T ;DC;11:46:25 AM;
50;0,638;T ;DC;11:46:25 AM;
51;0,638;T ;DC;11:46:25 AM;
52;0,637;T ;DC;11:46:26 AM;
53;0,638;T ;DC;11:46:26 AM;
54;0,638;T ;DC;11:46:26 AM;
55;0,638;T ;DC;11:46:26 AM;
56;0,637;T ;DC;11:46:26 AM;
57;0,637;T ;DC;11:46:27 AM;
58;0,637;T ;DC;11:46:27 AM;
59;0,637;T ;DC;11:46:27 AM;
60;0,638;T ;DC;11:46:27 AM;
61;0,638;T ;DC;11:46:27 AM;
62;0,638;T ;DC;11:46:28 AM;
63;0,637;T ;DC;11:46:28 AM;
64;0,637;T ;DC;11:46:28 AM;
65;0,637;T ;DC;11:46:28 AM;
66;0,638;T ;DC;11:46:28 AM;
67;0,638;T ;DC;11:46:29 AM;
68;0,637;T ;DC;11:46:29 AM;
69;0,637;T ;DC;11:46:29 AM;
70;0,637;T ;DC;11:46:29 AM;
71;0,638;T ;DC;11:46:29 AM;
72;0,637;T ;DC;11:46:30 AM;
73;0,637;T ;DC;11:46:30 AM;
74;0,637;T ;DC;11:46:30 AM;
75;0,637;T ;DC;11:46:30 AM;
76;0,637;T ;DC;11:46:31 AM;
77;0,637;T ;DC;11:46:31 AM;
78;0,637;T ;DC;11:46:31 AM;
79;0,637;T ;DC;11:46:31 AM;
80;0,637;T ;DC;11:46:31 AM;
81;0,638;T ;DC;11:46:32 AM;
82;0,637;T ;DC;11:46:32 AM;
83;0,638;T ;DC;11:46:32 AM;
84;0,638;T ;DC;11:46:32 AM;
85;0,637;T ;DC;11:46:32 AM;
86;0,637;T ;DC;11:46:33 AM;
87;0,637;T ;DC;11:46:33 AM;
88;0,637;T ;DC;11:46:33 AM;
89;0,637;T ;DC;11:46:33 AM;
90;0,637;T ;DC;11:46:33 AM;
91;0,637;T ;DC;11:46:34 AM;
92;0,637;T ;DC;11:46:34 AM;
93;0,637;T ;DC;11:46:34 AM;
94;0,637;T ;DC;11:46:34 AM;
95;0,637;T ;DC;11:46:34 AM;
96;0,637;T ;DC;11:46:35 AM;
97;0,637;T ;DC;11:46:35 AM;
98;0,638;T ;DC;11:46:35 AM;
99;0,638;T ;DC;11:46:35 AM;
100;0,637;T ;DC;11:46:35 AM;
101;0,637;T ;DC;11:46:36 AM;
102;0,637;T ;DC;11:46:36 AM;
103;0,637;T ;DC;11:46:36 AM;
104;0,637;T ;DC;11:46:36 AM;
105;0,637;T ;DC;11:46:36 AM;
106;0,637;T ;DC;11:46:37 AM;
107;0,637;T ;DC;11:46:37 AM;
108;0,637;T ;DC;11:46:37 AM;
109;0,637;T ;DC;11:46:37 AM;
110;0,637;T ;DC;11:46:37 AM;
111;0,637;T ;DC;11:46:38 AM;
112;0,637;T ;DC;11:46:38 AM;
113;0,637;T ;DC;11:46:38 AM;
114;0,637;T ;DC;11:46:38 AM;
115;0,637;T ;DC;11:46:39 AM;
116;0,637;T ;DC;11:46:39 AM;
117;0,637;T ;DC;11:46:39 AM;
118;0,637;T ;DC;11:46:39 AM;
119;0,637;T ;DC;11:46:39 AM;
120;0,637;T ;DC;11:46:40 AM;
121;0,637;T ;DC;11:46:40 AM;
122;0,637;T ;DC;11:46:40 AM;
123;0,637;T ;DC;11:46:40 AM;
124;0,637;T ;DC;11:46:40 AM;
125;0,638;T ;DC;11:46:41 AM;
126;0,637;T ;DC;11:46:41 AM;
127;0,637;T ;DC;11:46:41 AM;
128;0,637;T ;DC;11:46:41 AM;
129;0,637;T ;DC;11:46:41 AM;
130;0,637;T ;DC;11:46:42 AM;
131;0,637;T ;DC;11:46:42 AM;
132;0,637;T ;DC;11:46:42 AM;
133;0,637;T ;DC;11:46:42 AM;
134;0,637;T ;DC;11:46:42 AM;
135;0,637;T ;DC;11:46:43 AM;
136;0,637;T ;DC;11:46:43 AM;
137;0,637;T ;DC;11:46:43 AM;
138;0,637;T ;DC;11:46:43 AM;
139;0,637;T ;DC;11:46:43 AM;
140;0,637;T ;DC;11:46:44 AM;
141;0,638;T ;DC;11:46:44 AM;
142;0,637;T ;DC;11:46:44 AM;
143;0,637;T ;DC;11:46:44 AM;
144;0,637;T ;DC;11:46:44 AM;
145;0,637;T ;DC;11:46:45 AM;
146;0,636;T ;DC;11:46:45 AM;
147;0,637;T ;DC;11:46:45 AM;
148;0,637;T ;DC;11:46:45 AM;
149;0,637;T ;DC;11:46:45 AM;
150;0,637;T ;DC;11:46:46 AM;
151;0,638;T ;DC;11:46:46 AM;
152;0,637;T ;DC;11:46:46 AM;
153;0,637;T ;DC;11:46:46 AM;
154;0,637;T ;DC;11:46:47 AM;
155;0,637;T ;DC;11:46:47 AM;
156;0,637;T ;DC;11:46:47 AM;
157;0,637;T ;DC;11:46:47 AM;
158;0,637;T ;DC;11:46:47 AM;
159;0,637;T ;DC;11:46:48 AM;
160;0,637;T ;DC;11:46:48 AM;
161;0,637;T ;DC;11:46:48 AM;
162;0,637;T ;DC;11:46:48 AM;
163;0,637;T ;DC;11:46:48 AM;
164;0,637;T ;DC;11:46:49 AM;
165;0,637;T ;DC;11:46:49 AM;
166;0,637;T ;DC;11:46:49 AM;
167;0,637;T ;DC;11:46:49 AM;
168;0,638;T ;DC;11:46:49 AM;
169;0,637;T ;DC;11:46:50 AM;
170;0,637;T ;DC;11:46:50 AM;
171;0,637;T ;DC;11:46:50 AM;
172;0,637;T ;DC;11:46:50 AM;
173;0,637;T ;DC;11:46:50 AM;
174;0,637;T ;DC;11:46:51 AM;
175;0,637;T ;DC;11:46:51 AM;
176;0,637;T ;DC;11:46:51 AM;
177;0,637;T ;DC;11:46:51 AM;
178;0,637;T ;DC;11:46:51 AM;
179;0,637;T ;DC;11:46:52 AM;
180;0,637;T ;DC;11:46:52 AM;
181;0,637;T ;DC;11:46:52 AM;
182;0,637;T ;DC;11:46:52 AM;
183;0,637;T ;DC;11:46:52 AM;
184;0,637;T ;DC;11:46:53 AM;
185;0,637;T ;DC;11:46:53 AM;
186;0,637;T ;DC;11:46:53 AM;
187;0,637;T ;DC;11:46:53 AM;
188;0,637;T ;DC;11:46:54 AM;
189;0,637;T ;DC;11:46:54 AM;
190;0,637;T ;DC;11:46:54 AM;
191;0,637;T ;DC;11:46:54 AM;
192;0,637;T ;DC;11:46:54 AM;
193;0,637;T ;DC;11:46:55 AM;
194;0,637;T ;DC;11:46:55 AM;
195;0,637;T ;DC;11:46:55 AM;
196;0,637;T ;DC;11:46:55 AM;
197;0,637;T ;DC;11:46:55 AM;
198;0,637;T ;DC;11:46:56 AM;
199;0,637;T ;DC;11:46:56 AM;
200;0,637;T ;DC;11:46:56 AM;
201;0,637;T ;DC;11:46:56 AM;
202;0,637;T ;DC;11:46:56 AM;
203;0,637;T ;DC;11:46:57 AM;
204;0,637;T ;DC;11:46:57 AM;
205;0,637;T ;DC;11:46:57 AM;
206;0,637;T ;DC;11:46:57 AM;
207;0,637;T ;DC;11:46:57 AM;
208;0,637;T ;DC;11:46:58 AM;
209;0,637;T ;DC;11:46:58 AM;
210;0,637;T ;DC;11:46:58 AM;
211;0,637;T ;DC;11:46:58 AM;
212;0,637;T ;DC;11:46:58 AM;
213;0,637;T ;DC;11:46:59 AM;
214;0,637;T ;DC;11:46:59 AM;
215;0,637;T ;DC;11:46:59 AM;
216;0,637;T ;DC;11:46:59 AM;
217;0,637;T ;DC;11:46:59 AM;
218;0,637;T ;DC;11:47:00 AM;
219;0,637;T ;DC;11:47:00 AM;
220;0,637;T ;DC;11:47:00 AM;
221;0,637;T ;DC;11:47:00 AM;
222;0,637;T ;DC;11:47:00 AM;
223;0,637;T ;DC;11:47:01 AM;
224;0,637;T ;DC;11:47:01 AM;
225;0,637;T ;DC;11:47:01 AM;
226;0,637;T ;DC;11:47:01 AM;
227;0,637;T ;DC;11:47:02 AM;
228;0,637;T ;DC;11:47:02 AM;
229;0,637;T ;DC;11:47:02 AM;
230;0,637;T ;DC;11:47:02 AM;
231;0,637;T ;DC;11:47:02 AM;
232;0,637;T ;DC;11:47:03 AM;
233;0,637;T ;DC;11:47:03 AM;
234;0,637;T ;DC;11:47:03 AM;
235;0,637;T ;DC;11:47:03 AM;
236;0,637;T ;DC;11:47:03 AM;
237;0,637;T ;DC;11:47:04 AM;
238;0,637;T ;DC;11:47:04 AM;
239;0,637;T ;DC;11:47:04 AM;
240;0,637;T ;DC;11:47:04 AM;
241;0,637;T ;DC;11:47:04 AM;
242;0,637;T ;DC;11:47:05 AM;
243;0,637;T ;DC;11:47:05 AM;
244;0,637;T ;DC;11:47:05 AM;
245;0,637;T ;DC;11:47:05 AM;
246;0,637;T ;DC;11:47:05 AM;
247;0,637;T ;DC;11:47:06 AM;
248;0,637;T ;DC;11:47:06 AM;
249;0,637;T ;DC;11:47:06 AM;
250;0,637;T ;DC;11:47:06 AM;
251;0,637;T ;DC;11:47:06 AM;
252;0,637;T ;DC;11:47:07 AM;
253;0,637;T ;DC;11:47:07 AM;
254;0,637;T ;DC;11:47:07 AM;
255;0,637;T ;DC;11:47:07 AM;
256;0,637;T ;DC;11:47:08 AM;
257;0,637;T ;DC;11:47:08 AM;
258;0,638;T ;DC;11:47:08 AM;
259;0,638;T ;DC;11:47:08 AM;
260;0,638;T ;DC;11:47:08 AM;
261;0,638;T ;DC;11:47:09 AM;
262;0,638;T ;DC;11:47:09 AM;
263;0,637;T ;DC;11:47:09 AM;
264;0,637;T ;DC;11:47:09 AM;
265;0,637;T ;DC;11:47:09 AM;
266;0,637;T ;DC;11:47:10 AM;
267;0,637;T ;DC;11:47:10 AM;
268;0,637;T ;DC;11:47:10 AM;
269;0,637;T ;DC;11:47:10 AM;
270;0,637;T ;DC;11:47:10 AM;
271;0,637;T ;DC;11:47:11 AM;
272;0,637;T ;DC;11:47:11 AM;
273;0,637;T ;DC;11:47:11 AM;
274;0,637;T ;DC;11:47:11 AM;
275;0,637;T ;DC;11:47:11 AM;
276;0,637;T ;DC;11:47:12 AM;
277;0,637;T ;DC;11:47:12 AM;
278;0,637;T ;DC;11:47:12 AM;
279;0,637;T ;DC;11:47:12 AM;
280;0,637;T ;DC;11:47:12 AM;
281;0,637;T ;DC;11:47:13 AM;
282;0,637;T ;DC;11:47:13 AM;
283;0,637;T ;DC;11:47:13 AM;
284;0,637;T ;DC;11:47:13 AM;
285;0,637;T ;DC;11:47:14 AM;
286;0,637;T ;DC;11:47:14 AM;
287;0,637;T ;DC;11:47:14 AM;
288;0,637;T ;DC;11:47:14 AM;
289;0,637;T ;DC;11:47:14 AM;
290;0,637;T ;DC;11:47:15 AM;
291;0,637;T ;DC;11:47:15 AM;
292;0,637;T ;DC;11:47:15 AM;
293;0,637;T ;DC;11:47:15 AM;
294;0,637;T ;DC;11:47:15 AM;
295;0,637;T ;DC;11:47:16 AM;
296;0,638;T ;DC;11:47:16 AM;
