x_acc, y_acc, z_acc, x_mag, y_mag, z_mag 
-0.27, 0.22, 0.35, -13.68, 15.21, -40.05
-1.00, 0.73, 0.40, -14.27, 15.43, -40.06
-0.74, 0.48, 0.38, -15.01, 13.84, -38.07
-0.77, 0.38, 0.45, -15.39, 13.96, -39.15
-0.69, 0.61, 0.36, -15.38, 13.87, -38.21
-0.76, 0.49, 0.41, -15.41, 13.88, -39.28
-0.75, 0.55, 0.38, -15.08, 13.65, -37.55
-0.71, 0.51, 0.37, -14.99, 13.32, -38.40
-0.75, 0.53, 0.38, -14.98, 13.11, -37.85
-0.75, 0.58, 0.36, -15.80, 13.00, -37.84
-0.74, 0.53, 0.38, -15.15, 12.71, -38.01
-0.74, 0.56, 0.37, -15.28, 12.40, -37.99
-0.74, 0.52, 0.37, -15.06, 12.22, -37.28
-0.73, 0.55, 0.37, -15.20, 12.02, -38.43
-0.76, 0.54, 0.38, -15.42, 12.01, -36.91
-0.71, 0.57, 0.37, -15.43, 12.44, -36.88
-0.73, 0.58, 0.35, -15.08, 12.32, -36.84
-0.71, 0.56, 0.36, -14.65, 11.46, -38.51
-0.74, 0.55, 0.37, -15.33, 12.12, -37.87
-0.72, 0.56, 0.37, -15.05, 12.16, -37.70
-0.75, 0.57, 0.34, -14.72, 11.96, -38.17
-0.72, 0.61, 0.38, -15.12, 11.63, -38.44
-0.73, 0.56, 0.35, -15.03, 11.76, -37.87
-0.74, 0.55, 0.35, -15.01, 12.08, -36.87
-0.74, 0.54, 0.36, -15.06, 11.89, -37.38
-0.72, 0.59, 0.33, -15.49, 11.46, -37.71
-0.73, 0.57, 0.36, -15.19, 11.45, -37.50
-0.75, 0.57, 0.35, -15.27, 11.25, -37.57
-0.73, 0.55, 0.36, -15.05, 11.46, -36.85
-0.73, 0.58, 0.35, -15.66, 11.24, -37.92
-0.72, 0.60, 0.33, -14.93, 10.95, -38.28
-0.73, 0.54, 0.38, -15.19, 11.66, -37.70
-0.74, 0.56, 0.34, -15.61, 11.63, -36.77
-0.71, 0.56, 0.35, -15.70, 11.57, -38.07
-0.75, 0.59, 0.33, -15.39, 11.27, -38.17
-0.71, 0.58, 0.34, -14.51, 11.01, -36.98
-0.73, 0.54, 0.38, -14.92, 11.24, -37.29
-0.74, 0.59, 0.35, -15.14, 11.10, -37.37
-0.71, 0.58, 0.34, -15.01, 11.24, -37.04
-0.75, 0.58, 0.35, -14.99, 11.54, -37.63
-0.74, 0.56, 0.34, -14.98, 10.51, -36.78
-0.72, 0.61, 0.34, -14.77, 10.84, -36.80
-0.74, 0.55, 0.35, -15.32, 11.18, -36.49
-0.72, 0.53, 0.38, -15.03, 11.01, -37.48
-0.75, 0.60, 0.34, -14.98, 10.73, -37.98
-0.72, 0.60, 0.32, -14.99, 10.45, -37.19
-0.74, 0.56, 0.35, -15.03, 10.72, -36.45
-0.68, 0.59, 0.37, -14.95, 10.82, -37.22
-0.75, 0.58, 0.35, -14.73, 10.95, -36.90
-0.74, 0.53, 0.36, -14.89, 10.85, -36.91
-0.69, 0.58, 0.35, -15.00, 10.83, -37.27
-0.74, 0.58, 0.36, -14.95, 10.93, -37.54
-0.72, 0.59, 0.36, -14.94, 10.86, -36.84
-0.74, 0.59, 0.39, -15.23, 11.61, -37.40
-0.75, 0.52, 0.37, -14.94, 11.29, -36.56
-0.75, 0.58, 0.34, -15.11, 11.36, -37.34
-0.74, 0.60, 0.34, -14.95, 11.18, -37.92
-0.74, 0.56, 0.35, -14.94, 11.63, -36.90
-0.73, 0.55, 0.36, -15.03, 11.51, -37.94
-0.73, 0.57, 0.35, -15.34, 11.41, -38.09
-0.73, 0.54, 0.35, -14.73, 11.76, -37.79
-0.73, 0.58, 0.35, -15.09, 11.18, -38.00
-0.74, 0.57, 0.35, -15.71, 11.34, -37.26
-0.73, 0.55, 0.36, -15.39, 11.44, -37.83
-0.72, 0.56, 0.37, -14.73, 11.84, -36.85
-0.75, 0.55, 0.35, -15.23, 11.23, -36.90
-0.74, 0.55, 0.35, -15.12, 11.54, -37.62
-0.72, 0.59, 0.35, -15.10, 12.08, -37.37
-0.75, 0.54, 0.36, -15.03, 12.07, -36.98
-0.73, 0.55, 0.36, -15.16, 11.72, -37.05
-0.73, 0.59, 0.34, -15.28, 11.55, -36.45
-0.71, 0.55, 0.37, -15.28, 11.80, -37.39
-0.72, 0.57, 0.37, -15.19, 11.71, -38.55
-0.75, 0.58, 0.33, -15.32, 11.73, -37.02
-0.75, 0.51, 0.38, -15.06, 11.96, -37.59
-0.74, 0.56, 0.36, -15.05, 11.99, -38.37
-0.75, 0.55, 0.36, -15.08, 12.41, -37.34
-0.76, 0.53, 0.37, -15.08, 11.84, -36.23
-0.73, 0.56, 0.35, -14.86, 11.44, -36.83
-0.75, 0.55, 0.37, -15.05, 11.87, -37.05
-0.74, 0.54, 0.37, -15.50, 12.40, -38.11
-0.75, 0.55, 0.36, -15.09, 12.28, -37.40
-0.72, 0.55, 0.37, -14.86, 12.10, -38.07
-0.75, 0.55, 0.36, -15.05, 12.06, -38.24
-0.73, 0.55, 0.37, -15.26, 12.28, -37.38
-0.76, 0.54, 0.36, -15.00, 11.94, -38.21
-0.73, 0.54, 0.37, -15.77, 11.84, -37.52
-0.72, 0.56, 0.35, -15.38, 11.69, -37.99
-0.75, 0.55, 0.37, -15.45, 12.00, -37.71
-0.74, 0.54, 0.37, -15.45, 11.78, -37.33
-0.75, 0.56, 0.36, -14.71, 11.62, -37.50
-0.71, 0.54, 0.37, -15.44, 11.80, -36.82
-0.74, 0.56, 0.36, -15.44, 11.82, -37.57
-0.74, 0.54, 0.37, -14.82, 11.91, -37.85
-0.74, 0.55, 0.36, -14.75, 11.54, -37.35
-0.73, 0.57, 0.35, -15.08, 12.05, -37.94
-0.74, 0.54, 0.37, -15.55, 11.58, -37.73
-0.74, 0.52, 0.37, -15.21, 12.08, -38.00
-0.73, 0.57, 0.35, -14.99, 11.62, -37.61
-0.73, 0.54, 0.37, -14.72, 11.91, -38.04
-0.74, 0.57, 0.35, -14.78, 11.47, -37.84
-0.73, 0.56, 0.36, -15.01, 11.99, -38.51
-0.73, 0.56, 0.35, -14.23, 11.18, -37.90
-0.73, 0.55, 0.37, -15.11, 11.67, -37.40
-0.73, 0.55, 0.36, -14.83, 11.74, -38.55
-0.73, 0.55, 0.36, -14.81, 12.05, -38.07
-0.73, 0.56, 0.36, -14.87, 11.84, -38.68
-0.76, 0.58, 0.35, -14.72, 11.90, -38.10
-0.73, 0.52, 0.38, -15.59, 12.56, -38.35
-0.73, 0.54, 0.39, -15.36, 11.89, -38.18
-0.73, 0.56, 0.37, -15.47, 12.01, -38.98
-0.75, 0.52, 0.38, -15.58, 11.94, -38.40
-0.74, 0.56, 0.36, -15.03, 12.06, -38.20
-0.74, 0.54, 0.37, -15.19, 12.32, -38.29
-0.76, 0.55, 0.37, -15.53, 12.38, -38.06
-0.73, 0.54, 0.37, -15.54, 11.96, -38.09
-0.75, 0.55, 0.37, -15.30, 12.08, -38.61
-0.75, 0.53, 0.37, -15.15, 11.96, -37.68
-0.74, 0.55, 0.36, -14.99, 11.98, -39.43
-0.75, 0.54, 0.37, -15.03, 12.34, -38.02
-0.75, 0.54, 0.37, -15.03, 12.44, -37.30
-0.74, 0.55, 0.37, -14.77, 12.49, -38.81
-0.74, 0.55, 0.37, -15.21, 12.41, -38.00
-0.75, 0.53, 0.37, -14.94, 11.73, -36.95
-0.74, 0.54, 0.37, -15.22, 11.66, -37.73
-0.74, 0.55, 0.36, -15.22, 12.00, -38.68
-0.75, 0.55, 0.38, -15.47, 12.43, -38.02
-0.74, 0.53, 0.37, -15.11, 12.72, -38.60
-0.75, 0.55, 0.36, -15.10, 12.12, -37.87
-0.74, 0.57, 0.37, -15.48, 11.94, -38.10
-0.73, 0.52, 0.38, -15.38, 11.62, -37.61
-0.76, 0.55, 0.35, -15.22, 12.27, -37.55
-0.74, 0.56, 0.35, -15.17, 12.12, -36.91
-0.75, 0.52, 0.38, -15.53, 12.72, -36.85
-0.77, 0.53, 0.37, -15.69, 12.45, -37.90
-0.75, 0.54, 0.37, -15.19, 11.80, -36.99
-0.75, 0.55, 0.36, -15.81, 12.65, -38.53
-0.75, 0.53, 0.36, -15.59, 12.08, -37.68
-0.73, 0.58, 0.35, -15.54, 11.63, -37.90
-0.76, 0.53, 0.37, -15.63, 12.24, -37.89
-0.75, 0.50, 0.37, -15.20, 12.28, -37.90
-0.73, 0.58, 0.35, -15.23, 11.60, -37.23
-0.75, 0.54, 0.37, -15.14, 12.70, -37.52
-0.75, 0.52, 0.38, -15.56, 12.22, -37.76
-0.75, 0.55, 0.36, -15.38, 12.32, -37.62
-0.75, 0.54, 0.36, -14.97, 11.87, -37.56
-0.75, 0.56, 0.35, -15.53, 11.83, -39.03
-0.74, 0.53, 0.36, -15.25, 12.10, -37.87
-0.75, 0.55, 0.36, -15.33, 12.49, -38.43
-0.75, 0.52, 0.39, -15.26, 12.40, -37.11
-0.75, 0.54, 0.35, -15.30, 11.50, -38.78
-0.72, 0.57, 0.35, -15.36, 12.19, -38.18
-0.75, 0.52, 0.37, -15.16, 11.90, -38.46
-0.74, 0.56, 0.35, -15.31, 12.54, -37.62
-0.75, 0.54, 0.36, -14.84, 12.41, -37.90
-0.74, 0.55, 0.37, -15.01, 12.15, -38.51
-0.75, 0.54, 0.36, -14.97, 12.02, -39.44
-0.74, 0.56, 0.35, -15.19, 12.30, -38.33
-0.75, 0.54, 0.37, -14.95, 12.33, -36.90
-0.74, 0.55, 0.36, -15.39, 11.77, -36.99
-0.75, 0.54, 0.36, -15.49, 12.10, -38.71
-0.75, 0.56, 0.36, -15.11, 11.87, -37.63
-0.74, 0.55, 0.35, -15.97, 11.79, -38.13
-0.75, 0.53, 0.36, -15.01, 12.01, -38.37
-0.75, 0.56, 0.35, -15.28, 11.87, -37.89
-0.76, 0.54, 0.35, -15.45, 11.65, -38.06
-0.76, 0.52, 0.36, -15.43, 11.63, -38.28
-0.75, 0.58, 0.35, -15.61, 11.65, -37.82
-0.77, 0.51, 0.37, -15.54, 11.62, -38.06
-0.73, 0.56, 0.36, -15.48, 11.05, -38.98
-0.73, 0.63, 0.31, -15.56, 10.79, -38.26
-0.75, 0.53, 0.36, -15.31, 12.02, -37.48
-0.73, 0.56, 0.35, -15.83, 11.34, -39.06
-0.74, 0.57, 0.34, -15.32, 11.49, -37.99
-0.73, 0.55, 0.36, -15.31, 11.08, -37.87
-0.75, 0.55, 0.35, -15.61, 11.90, -37.40
-0.75, 0.56, 0.35, -14.73, 10.72, -38.62
-0.74, 0.56, 0.35, -15.27, 11.36, -38.17
-0.74, 0.54, 0.36, -15.64, 11.83, -37.82
-0.74, 0.57, 0.35, -15.26, 11.73, -37.93
-0.74, 0.56, 0.35, -15.10, 11.90, -38.49
-0.74, 0.54, 0.36, -15.27, 11.90, -38.78
-0.75, 0.57, 0.34, -15.28, 11.52, -37.87
-0.74, 0.55, 0.36, -14.65, 12.12, -37.78
-0.75, 0.56, 0.35, -15.34, 11.47, -37.50
-0.74, 0.56, 0.35, -15.30, 11.55, -39.11
-0.74, 0.55, 0.35, -14.99, 11.18, -37.63
-0.75, 0.55, 0.35, -15.99, 11.50, -38.06
-0.73, 0.57, 0.35, -15.30, 11.51, -37.93
-0.75, 0.54, 0.36, -15.17, 11.24, -37.70
-0.74, 0.56, 0.35, -15.05, 11.19, -38.68
-0.73, 0.57, 0.35, -14.79, 10.85, -37.39
-0.74, 0.55, 0.35, -15.17, 12.18, -38.75
-0.74, 0.56, 0.36, -15.37, 11.45, -38.15
-0.74, 0.56, 0.35, -14.97, 11.62, -38.31
-0.75, 0.54, 0.35, -15.04, 11.58, -38.55
-0.73, 0.57, 0.35, -15.14, 11.39, -37.12
-0.75, 0.56, 0.35, -15.04, 11.68, -37.26
-0.74, 0.54, 0.36, -14.86, 11.82, -37.62
-0.75, 0.57, 0.34, -14.98, 11.69, -38.32
