x_acc, y_acc, z_acc, x_mag, y_mag, z_mag 
0.99, 0.18, -0.06, 44.24, 0.11, -18.42
1.45, 0.52, -0.27, 43.93, -0.35, -18.55
1.49, 0.33, 0.02, 43.68, -2.28, -17.85
1.43, 0.47, -0.05, 39.88, -8.15, -15.95
2.08, 0.45, -0.03, 31.70, -13.84, -14.69
0.32, -0.09, -0.08, 14.60, -18.44, -13.11
0.10, 0.30, 0.10, 0.78, -16.56, -12.16
-0.27, 0.45, -0.09, -9.84, -10.90, -13.38
-0.71, 0.50, -0.12, -16.44, -5.04, -12.67
-0.70, 0.61, -0.20, -19.47, -1.59, -12.52
-0.86, 0.47, -0.12, -21.52, 1.72, -12.11
-0.83, 0.62, -0.43, -22.63, 3.65, -10.36
-0.85, 0.56, -0.33, -23.02, 4.11, -10.49
-0.78, 0.63, -0.40, -22.47, 3.87, -11.07
-0.69, 0.67, -0.27, -22.36, 4.15, -11.17
-0.78, 0.58, -0.24, -22.80, 4.19, -11.69
-0.66, 0.68, -0.25, -22.41, 3.64, -12.02
-0.74, 0.62, -0.24, -22.89, 3.43, -11.49
-0.71, 0.65, -0.27, -22.06, 3.76, -10.94
-0.65, 0.68, -0.22, -22.34, 3.88, -11.61
-0.75, 0.62, -0.26, -22.02, 3.42, -11.52
-0.69, 0.68, -0.28, -21.79, 3.14, -11.96
-0.71, 0.68, -0.30, -22.29, 3.11, -11.23
-0.68, 0.68, -0.23, -21.81, 3.11, -11.10
-0.68, 0.68, -0.26, -21.91, 2.84, -12.17
-0.69, 0.68, -0.27, -21.68, 2.76, -11.73
-0.70, 0.68, -0.28, -21.66, 2.89, -11.96
-0.68, 0.69, -0.27, -21.55, 1.86, -11.62
-0.70, 0.65, -0.25, -21.67, 2.56, -11.71
-0.66, 0.70, -0.24, -21.67, 1.78, -11.65
-0.69, 0.68, -0.26, -21.51, 2.04, -12.12
-0.68, 0.71, -0.28, -21.55, 2.71, -10.53
-0.67, 0.68, -0.25, -21.37, 2.25, -11.54
-0.63, 0.73, -0.27, -21.39, 1.98, -11.29
-0.66, 0.70, -0.24, -20.97, 2.09, -11.35
-0.62, 0.70, -0.25, -21.67, 1.93, -11.66
-0.66, 0.70, -0.24, -21.37, 2.42, -11.65
-0.70, 0.68, -0.27, -21.25, 2.45, -13.04
-0.67, 0.72, -0.28, -21.61, 2.67, -12.27
-0.68, 0.69, -0.27, -21.46, 2.05, -11.47
-0.67, 0.69, -0.23, -21.73, 2.22, -12.08
-0.68, 0.69, -0.25, -21.44, 2.34, -11.89
-0.69, 0.68, -0.24, -21.64, 1.93, -11.68
-0.68, 0.70, -0.26, -21.33, 2.06, -12.71
-0.63, 0.72, -0.23, -21.83, 2.42, -11.39
-0.70, 0.68, -0.25, -21.72, 2.14, -12.57
-0.68, 0.70, -0.27, -21.67, 1.75, -12.00
-0.68, 0.69, -0.26, -21.66, 1.72, -11.88
-0.66, 0.71, -0.26, -21.41, 1.98, -12.12
-0.67, 0.69, -0.26, -21.45, 2.33, -11.67
-0.70, 0.72, -0.33, -21.18, 1.67, -12.71
-0.67, 0.69, -0.24, -21.29, 2.23, -12.10
-0.66, 0.70, -0.25, -21.40, 1.84, -12.98
-0.67, 0.70, -0.24, -21.68, 1.64, -12.51
-0.68, 0.70, -0.27, -21.34, 1.94, -10.64
-0.67, 0.71, -0.26, -21.39, 1.79, -11.32
-0.68, 0.70, -0.25, -21.46, 1.57, -11.83
-0.66, 0.70, -0.26, -21.48, 2.26, -12.12
-0.67, 0.71, -0.26, -21.97, 1.94, -11.74
-0.67, 0.70, -0.26, -20.89, 2.39, -11.12
-0.66, 0.71, -0.27, -21.19, 1.73, -10.96
-0.67, 0.69, -0.27, -21.50, 2.00, -11.71
-0.66, 0.71, -0.29, -20.78, 1.79, -10.46
-0.65, 0.71, -0.27, -20.85, 2.06, -10.29
-0.69, 0.69, -0.29, -20.92, 1.77, -10.97
-0.64, 0.73, -0.29, -21.18, 2.08, -11.13
-0.67, 0.69, -0.27, -21.06, 1.64, -10.78
-0.65, 0.71, -0.27, -20.46, 1.49, -10.80
-0.65, 0.71, -0.29, -20.78, 1.77, -10.69
-0.67, 0.69, -0.27, -20.83, 1.42, -10.84
-0.67, 0.70, -0.28, -20.63, 1.65, -11.12
-0.66, 0.71, -0.28, -20.80, 1.68, -10.58
-0.67, 0.70, -0.28, -21.12, 1.78, -11.16
-0.65, 0.71, -0.29, -21.55, 1.66, -11.23
-0.66, 0.70, -0.29, -20.92, 1.21, -11.02
-0.67, 0.70, -0.29, -21.22, 1.37, -11.11
-0.64, 0.71, -0.28, -20.83, 1.12, -11.23
-0.65, 0.71, -0.27, -21.02, 0.77, -10.99
-0.65, 0.71, -0.27, -21.08, 1.10, -11.34
-0.65, 0.71, -0.28, -20.78, 1.49, -11.04
-0.66, 0.70, -0.28, -20.83, 1.26, -9.96
-0.66, 0.71, -0.30, -21.02, 1.89, -11.13
-0.65, 0.71, -0.29, -21.09, 1.15, -10.96
-0.65, 0.71, -0.28, -20.13, 1.00, -10.46
-0.65, 0.70, -0.27, -20.56, 1.48, -11.30
-0.66, 0.70, -0.29, -20.52, 1.10, -10.68
-0.65, 0.71, -0.29, -20.70, 0.89, -11.02
-0.62, 0.72, -0.30, -20.19, 1.18, -10.55
-0.67, 0.69, -0.28, -21.52, 1.22, -10.29
-0.66, 0.70, -0.29, -20.54, 1.28, -10.55
-0.65, 0.70, -0.28, -20.87, 1.10, -10.05
-0.65, 0.71, -0.29, -21.20, 0.52, -11.77
-0.63, 0.73, -0.30, -21.03, 1.38, -12.61
-0.65, 0.71, -0.28, -20.50, 1.11, -11.21
-0.67, 0.70, -0.29, -20.85, 1.20, -10.29
-0.66, 0.68, -0.28, -20.85, 1.51, -11.00
-0.67, 0.69, -0.28, -20.20, 1.26, -10.53
-0.65, 0.70, -0.27, -21.25, 1.55, -10.46
-0.66, 0.70, -0.30, -20.86, 1.73, -10.78
-0.64, 0.72, -0.31, -21.00, 1.12, -10.64
-0.65, 0.72, -0.31, -20.94, 0.94, -11.16
-0.65, 0.72, -0.29, -20.70, 1.46, -10.24
-0.66, 0.70, -0.29, -20.65, 1.51, -10.49
-0.65, 0.71, -0.29, -20.41, 0.87, -9.77
-0.65, 0.71, -0.29, -20.59, 0.98, -9.74
-0.66, 0.70, -0.29, -20.20, 1.51, -10.50
-0.64, 0.72, -0.29, -20.62, 0.96, -10.46
-0.65, 0.71, -0.29, -20.73, 1.38, -11.02
-0.64, 0.72, -0.30, -20.52, 0.52, -10.10
-0.65, 0.72, -0.31, -20.37, 0.51, -10.31
-0.64, 0.71, -0.30, -20.14, 0.92, -9.59
-0.65, 0.70, -0.29, -20.86, 0.98, -10.23
-0.65, 0.70, -0.29, -20.84, 0.81, -10.71
-0.64, 0.71, -0.30, -20.35, 0.83, -10.13
-0.64, 0.71, -0.29, -20.67, 0.79, -10.44
-0.65, 0.71, -0.30, -20.52, 0.51, -10.49
-0.64, 0.72, -0.31, -20.17, 0.89, -10.52
-0.65, 0.71, -0.29, -20.32, 0.94, -10.88
-0.65, 0.71, -0.29, -20.34, 0.99, -10.69
-0.66, 0.70, -0.30, -20.84, 1.31, -10.52
-0.67, 0.69, -0.30, -21.19, 1.22, -10.12
-0.62, 0.72, -0.29, -20.45, 0.92, -10.21
-0.66, 0.70, -0.31, -20.72, 1.25, -9.75
-0.64, 0.72, -0.31, -20.72, 1.05, -9.73
-0.64, 0.71, -0.31, -20.25, 0.94, -9.74
-0.64, 0.71, -0.31, -20.75, 0.76, -10.88
-0.64, 0.70, -0.30, -20.54, 1.31, -9.51
-0.65, 0.71, -0.31, -20.24, 1.09, -10.78
-0.65, 0.70, -0.29, -20.53, 1.53, -10.46
-0.64, 0.71, -0.30, -20.30, 0.96, -10.38
-0.64, 0.71, -0.30, -20.83, 1.21, -10.36
-0.63, 0.72, -0.32, -20.86, 1.07, -10.21
-0.64, 0.71, -0.31, -21.12, 0.48, -9.83
-0.65, 0.71, -0.31, -21.08, 1.03, -10.27
-0.65, 0.70, -0.30, -20.58, 1.17, -9.57
-0.66, 0.70, -0.31, -20.46, 1.32, -10.61
-0.65, 0.70, -0.30, -20.84, 1.18, -10.36
-0.64, 0.71, -0.30, -20.42, 1.16, -10.79
-0.65, 0.72, -0.31, -21.36, 1.04, -10.18
-0.63, 0.72, -0.31, -21.30, 0.82, -9.27
-0.65, 0.71, -0.32, -20.68, 0.89, -11.00
-0.64, 0.72, -0.31, -20.63, 1.04, -10.38
-0.64, 0.71, -0.30, -21.22, 0.81, -10.57
-0.65, 0.70, -0.30, -20.70, 0.45, -10.46
-0.65, 0.70, -0.29, -20.83, 0.31, -10.14
-0.65, 0.71, -0.30, -21.06, 0.95, -10.44
-0.64, 0.71, -0.31, -21.01, 0.79, -10.94
-0.64, 0.71, -0.30, -21.04, 0.42, -10.73
-0.64, 0.71, -0.29, -20.29, 0.72, -11.04
-0.64, 0.71, -0.30, -20.40, 0.52, -10.17
-0.65, 0.71, -0.31, -20.37, 0.54, -9.89
-0.64, 0.72, -0.31, -20.43, 0.45, -9.94
-0.63, 0.72, -0.31, -20.89, 0.95, -10.23
-0.64, 0.71, -0.31, -20.94, 0.87, -11.49
-0.65, 0.71, -0.33, -20.69, 0.83, -10.27
-0.63, 0.71, -0.31, -20.90, 0.48, -10.44
-0.63, 0.71, -0.31, -21.46, 0.90, -10.75
-0.66, 0.71, -0.31, -21.35, 0.78, -9.99
-0.63, 0.72, -0.31, -20.83, 1.00, -9.78
-0.64, 0.71, -0.32, -20.91, 0.67, -9.78
-0.63, 0.71, -0.30, -20.28, 1.11, -9.46
-0.64, 0.72, -0.32, -20.32, 1.10, -10.38
-0.64, 0.70, -0.30, -20.64, 1.21, -10.42
-0.63, 0.72, -0.31, -20.41, 0.90, -10.74
-0.63, 0.72, -0.32, -20.89, 0.95, -10.58
-0.63, 0.72, -0.30, -20.46, 0.11, -9.90
-0.64, 0.72, -0.30, -20.92, 0.42, -9.68
-0.63, 0.71, -0.30, -20.58, 0.60, -9.85
-0.62, 0.72, -0.30, -20.85, 0.44, -11.16
-0.65, 0.71, -0.31, -20.48, 0.85, -9.48
-0.64, 0.71, -0.31, -20.90, 0.51, -9.64
-0.64, 0.72, -0.31, -19.86, 0.88, -10.60
-0.64, 0.71, -0.30, -20.15, 0.72, -10.56
-0.62, 0.72, -0.31, -20.20, 0.63, -11.02
-0.64, 0.71, -0.31, -20.18, 0.37, -10.60
-0.64, 0.72, -0.30, -20.41, 0.56, -9.52
-0.63, 0.71, -0.31, -20.07, 0.26, -9.19
-0.62, 0.72, -0.30, -20.34, 0.20, -10.17
-0.63, 0.73, -0.32, -20.58, 0.82, -10.86
-0.64, 0.72, -0.31, -20.83, 0.99, -10.57
-0.64, 0.70, -0.29, -20.28, 0.60, -11.21
-0.64, 0.70, -0.31, -20.61, 0.87, -10.85
-0.67, 0.69, -0.32, -20.39, 1.03, -10.44
-0.67, 0.69, -0.31, -20.42, 0.61, -10.40
-0.63, 0.70, -0.29, -20.34, 0.95, -11.41
-0.65, 0.71, -0.31, -20.09, 1.38, -10.62
-0.62, 0.74, -0.33, -20.68, 0.55, -10.67
-0.61, 0.73, -0.30, -20.08, 0.87, -10.79
-0.65, 0.70, -0.31, -20.32, 1.37, -10.45
-0.61, 0.73, -0.31, -20.53, 1.32, -10.71
-0.67, 0.67, -0.30, -21.08, 1.60, -9.13
-0.67, 0.68, -0.31, -20.96, 0.88, -10.79
-0.64, 0.72, -0.31, -20.72, 1.20, -10.99
-0.65, 0.70, -0.32, -20.28, 0.65, -9.96
-0.61, 0.74, -0.32, -20.84, 0.59, -10.36
-0.64, 0.71, -0.32, -20.86, 0.93, -10.18
-0.63, 0.72, -0.32, -21.02, 0.23, -9.66
-0.64, 0.71, -0.32, -20.31, 1.09, -10.91
-0.63, 0.71, -0.31, -20.63, 1.21, -9.55
-0.64, 0.71, -0.33, -20.34, 0.81, -10.40
