x_acc, y_acc, z_acc, x_mag, y_mag, z_mag 
-0.25, -0.55, -0.92, 1.03, 58.84, -2.92
-1.94, -2.73, -2.83, 3.37, 59.81, -2.33
0.08, -0.74, -0.97, 3.52, 59.91, 0.22
-0.22, -0.39, -0.86, 3.94, 60.01, -0.26
-0.20, -0.54, -0.83, 3.96, 59.40, 0.23
-0.20, -0.48, -0.87, 3.58, 59.42, 2.01
-0.21, -0.50, -0.84, 4.53, 60.35, 1.82
-0.16, -0.51, -0.84, 4.85, 60.31, 1.05
-0.11, -0.52, -0.83, 5.38, 60.55, 0.68
-0.06, -0.59, -0.90, 6.53, 60.34, 1.05
-0.11, -0.60, -0.82, 7.37, 60.41, 0.43
-0.08, -0.49, -0.89, 7.28, 60.60, 1.26
-0.08, -0.56, -0.85, 7.93, 60.57, 0.40
-0.07, -0.55, -0.85, 7.28, 60.85, -0.23
-0.07, -0.55, -0.85, 7.84, 59.78, 0.00
-0.08, -0.53, -0.87, 7.70, 60.16, 0.29
-0.08, -0.55, -0.85, 7.20, 59.79, -0.44
-0.07, -0.53, -0.86, 7.80, 59.94, 0.94
-0.06, -0.56, -0.83, 7.96, 59.83, -0.06
-0.07, -0.56, -0.85, 8.33, 61.01, 0.05
-0.07, -0.56, -0.84, 8.33, 60.11, -0.54
-0.07, -0.56, -0.85, 8.04, 60.10, -0.57
-0.06, -0.58, -0.83, 9.05, 60.35, -0.05
-0.07, -0.56, -0.85, 7.95, 60.66, 0.63
-0.07, -0.56, -0.84, 8.36, 59.83, -0.66
-0.07, -0.57, -0.84, 8.56, 60.40, 0.74
-0.06, -0.57, -0.84, 7.74, 60.17, -0.43
-0.06, -0.56, -0.84, 8.39, 60.16, -0.78
-0.07, -0.56, -0.85, 8.25, 60.17, 0.04
-0.06, -0.55, -0.84, 7.91, 60.18, 0.04
-0.07, -0.58, -0.84, 8.06, 60.35, -0.23
-0.07, -0.55, -0.85, 8.34, 59.55, -0.05
-0.07, -0.56, -0.85, 8.28, 59.99, 0.92
-0.07, -0.56, -0.85, 7.69, 60.66, -0.09
-0.06, -0.56, -0.84, 7.97, 60.38, -1.07
-0.07, -0.55, -0.84, 8.11, 60.56, -0.20
-0.07, -0.55, -0.85, 8.44, 60.28, -0.35
-0.08, -0.57, -0.85, 8.78, 60.51, -0.27
-0.07, -0.56, -0.84, 8.14, 60.11, 1.33
-0.07, -0.56, -0.85, 7.82, 60.24, 0.23
-0.07, -0.56, -0.85, 8.00, 59.92, -0.54
-0.07, -0.55, -0.84, 8.02, 60.64, -1.22
-0.07, -0.56, -0.84, 8.51, 60.46, -0.09
-0.07, -0.57, -0.84, 8.35, 60.72, 1.51
-0.07, -0.55, -0.85, 8.40, 60.45, -0.46
-0.07, -0.55, -0.85, 8.36, 61.15, 0.05
-0.07, -0.56, -0.84, 8.34, 60.27, 0.28
-0.07, -0.56, -0.85, 8.14, 60.28, 0.07
-0.06, -0.57, -0.84, 8.09, 60.67, 0.89
-0.07, -0.56, -0.84, 8.64, 60.42, 0.81
-0.07, -0.56, -0.85, 8.11, 60.10, -0.16
-0.06, -0.56, -0.84, 8.26, 60.22, -0.22
-0.07, -0.56, -0.85, 7.90, 60.18, 0.12
-0.07, -0.56, -0.85, 8.15, 60.63, 0.09
-0.07, -0.56, -0.84, 7.92, 60.96, 0.07
-0.07, -0.56, -0.84, 7.70, 60.19, 0.04
-0.08, -0.57, -0.84, 8.31, 60.08, 0.02
-0.09, -0.54, -0.86, 8.06, 60.33, 0.56
-0.07, -0.56, -0.85, 7.52, 60.34, -0.99
-0.07, -0.56, -0.84, 7.53, 60.36, -0.60
-0.08, -0.55, -0.85, 7.54, 60.17, 0.27
-0.07, -0.56, -0.84, 7.98, 60.61, 0.49
-0.07, -0.56, -0.84, 7.85, 60.08, 0.20
-0.09, -0.55, -0.85, 7.87, 60.41, 0.60
-0.08, -0.55, -0.85, 8.29, 60.18, 0.55
-0.07, -0.57, -0.84, 8.02, 60.30, 0.23
-0.07, -0.56, -0.84, 8.50, 60.33, 0.07
-0.08, -0.55, -0.85, 8.00, 60.31, 0.42
-0.10, -0.54, -0.85, 8.06, 60.44, -0.31
-0.08, -0.56, -0.84, 8.28, 60.63, -0.56
-0.09, -0.55, -0.85, 8.06, 60.72, 0.17
-0.08, -0.55, -0.85, 8.17, 60.49, 0.27
-0.08, -0.56, -0.84, 7.82, 60.80, 0.78
-0.09, -0.55, -0.85, 8.02, 60.17, 0.66
-0.09, -0.55, -0.85, 7.98, 60.23, 0.38
-0.08, -0.57, -0.83, 8.29, 60.00, -0.88
-0.08, -0.57, -0.83, 7.93, 60.82, -0.02
-0.08, -0.56, -0.84, 7.95, 60.78, -0.33
-0.09, -0.55, -0.85, 8.30, 60.45, -0.11
-0.08, -0.56, -0.84, 7.71, 60.08, 0.66
-0.08, -0.57, -0.84, 8.29, 60.45, 0.42
-0.08, -0.55, -0.85, 8.23, 60.19, 0.17
-0.07, -0.57, -0.84, 8.03, 60.60, 0.89
-0.08, -0.56, -0.85, 8.09, 60.41, 0.82
-0.07, -0.56, -0.84, 7.64, 60.58, -0.63
-0.09, -0.55, -0.86, 8.08, 60.35, 0.11
-0.09, -0.57, -0.84, 8.08, 60.34, 0.78
-0.09, -0.56, -0.85, 7.87, 60.52, 0.52
-0.09, -0.54, -0.86, 7.92, 59.94, 1.48
-0.09, -0.56, -0.85, 7.71, 60.06, 0.89
-0.09, -0.54, -0.85, 8.17, 60.77, 0.24
-0.08, -0.56, -0.85, 8.06, 60.19, 0.12
-0.09, -0.55, -0.85, 8.31, 60.73, 1.06
-0.09, -0.54, -0.85, 8.09, 60.91, 0.90
-0.08, -0.55, -0.85, 7.81, 60.82, -0.04
-0.10, -0.54, -0.85, 7.75, 60.28, 0.52
-0.09, -0.55, -0.85, 8.48, 60.52, 0.61
-0.08, -0.55, -0.84, 7.95, 60.34, 1.73
-0.08, -0.56, -0.85, 8.24, 60.21, 2.05
-0.09, -0.55, -0.84, 8.23, 60.03, 1.20
-0.09, -0.56, -0.85, 8.40, 60.23, 0.18
-0.08, -0.55, -0.84, 7.64, 60.60, 1.53
-0.09, -0.55, -0.85, 7.95, 60.06, 0.54
-0.09, -0.55, -0.85, 8.01, 60.02, 1.88
-0.09, -0.55, -0.85, 7.92, 60.16, 1.22
-0.08, -0.54, -0.85, 7.43, 59.90, 0.10
-0.09, -0.55, -0.84, 7.69, 60.44, 0.35
-0.09, -0.55, -0.85, 8.26, 60.19, 1.09
-0.08, -0.56, -0.84, 8.14, 60.31, 0.44
-0.10, -0.54, -0.85, 8.11, 60.60, 0.49
-0.07, -0.57, -0.85, 8.13, 60.94, -0.62
-0.09, -0.55, -0.85, 8.74, 60.24, 1.51
-0.09, -0.56, -0.84, 8.11, 60.52, -0.34
-0.09, -0.54, -0.86, 8.12, 60.40, 0.62
-0.09, -0.55, -0.85, 7.58, 60.52, 0.28
-0.09, -0.55, -0.84, 8.57, 60.49, 0.77
-0.09, -0.56, -0.84, 8.11, 60.83, 0.62
-0.10, -0.54, -0.85, 8.18, 60.10, -0.10
-0.09, -0.55, -0.85, 7.73, 61.19, 0.45
-0.09, -0.56, -0.85, 8.06, 60.21, -0.46
-0.09, -0.55, -0.85, 8.37, 60.30, 0.87
-0.10, -0.55, -0.85, 7.93, 59.91, 0.51
-0.08, -0.55, -0.85, 7.95, 60.85, 0.27
-0.12, -0.54, -0.85, 8.35, 60.33, 0.99
-0.09, -0.56, -0.85, 8.00, 60.58, 0.60
-0.10, -0.55, -0.86, 8.41, 60.23, -0.23
-0.08, -0.56, -0.85, 8.45, 60.46, 1.04
-0.09, -0.56, -0.85, 8.41, 60.34, 0.23
-0.09, -0.55, -0.85, 8.22, 60.89, 0.35
-0.08, -0.55, -0.85, 7.81, 60.88, 1.15
-0.09, -0.55, -0.85, 7.87, 60.95, 0.66
-0.08, -0.57, -0.85, 7.71, 60.61, 0.10
-0.08, -0.56, -0.85, 8.59, 60.41, -0.21
-0.08, -0.55, -0.84, 7.90, 60.52, -0.31
-0.09, -0.56, -0.84, 7.73, 60.82, 0.39
-0.08, -0.55, -0.85, 7.57, 60.07, 1.27
-0.08, -0.56, -0.85, 7.85, 60.62, -0.45
-0.09, -0.56, -0.85, 7.86, 60.28, -0.96
-0.09, -0.56, -0.85, 7.71, 60.71, 0.83
-0.09, -0.56, -0.85, 8.26, 60.88, 0.52
-0.06, -0.56, -0.84, 8.15, 60.73, -0.32
-0.09, -0.55, -0.84, 8.28, 60.45, -0.56
-0.09, -0.55, -0.84, 8.34, 60.49, -0.44
-0.08, -0.55, -0.85, 7.96, 60.24, 0.05
-0.09, -0.55, -0.85, 8.50, 60.66, -0.70
-0.09, -0.55, -0.84, 8.61, 60.31, 0.17
-0.08, -0.57, -0.84, 8.23, 60.41, 0.46
-0.09, -0.54, -0.85, 8.03, 60.42, -0.31
-0.08, -0.56, -0.85, 8.01, 59.91, 0.63
-0.10, -0.55, -0.85, 8.65, 60.55, 0.71
-0.08, -0.55, -0.85, 7.86, 60.53, 1.03
-0.09, -0.54, -0.85, 7.85, 60.82, 0.99
-0.09, -0.56, -0.84, 8.15, 60.56, 0.72
-0.09, -0.54, -0.85, 8.73, 60.57, 0.23
-0.09, -0.57, -0.84, 8.20, 60.12, 0.66
-0.09, -0.55, -0.85, 8.41, 60.52, 1.06
-0.09, -0.55, -0.85, 8.47, 60.68, 0.16
-0.09, -0.55, -0.85, 8.57, 61.12, 1.34
-0.09, -0.55, -0.85, 8.08, 60.62, -0.06
-0.10, -0.53, -0.86, 8.40, 60.57, -0.15
-0.09, -0.55, -0.85, 8.68, 60.80, 1.16
-0.09, -0.56, -0.85, 8.50, 60.83, 0.02
-0.09, -0.55, -0.85, 8.46, 60.69, 1.43
-0.08, -0.54, -0.85, 8.48, 60.36, 0.68
-0.09, -0.54, -0.86, 8.58, 60.66, 0.35
-0.09, -0.55, -0.85, 8.52, 60.41, -0.51
-0.09, -0.55, -0.85, 8.00, 60.28, 0.94
-0.08, -0.56, -0.84, 7.90, 61.25, 0.85
-0.10, -0.54, -0.85, 8.25, 60.67, 0.11
-0.08, -0.55, -0.85, 8.64, 60.39, 0.27
-0.09, -0.55, -0.85, 7.93, 60.63, 0.44
-0.08, -0.55, -0.85, 8.65, 60.46, 0.54
-0.09, -0.55, -0.85, 8.58, 60.49, -0.76
-0.09, -0.55, -0.85, 8.65, 59.70, 1.43
-0.09, -0.55, -0.85, 8.56, 60.63, 1.03
-0.09, -0.55, -0.85, 8.07, 60.93, 0.20
-0.09, -0.55, -0.85, 8.37, 60.07, 0.18
-0.09, -0.55, -0.85, 8.29, 61.00, 0.52
-0.09, -0.56, -0.84, 7.96, 60.14, 1.00
-0.09, -0.55, -0.86, 8.28, 60.73, 0.72
-0.09, -0.55, -0.85, 8.42, 60.34, -0.93
-0.09, -0.55, -0.85, 8.26, 60.74, 1.27
-0.09, -0.55, -0.84, 8.34, 60.22, -0.06
-0.09, -0.55, -0.85, 8.25, 60.30, -0.24
-0.09, -0.55, -0.85, 8.68, 60.86, -0.09
-0.08, -0.55, -0.85, 8.44, 60.33, -0.21
-0.10, -0.56, -0.85, 8.52, 60.44, 0.40
-0.09, -0.55, -0.85, 8.22, 60.24, 1.12
-0.09, -0.55, -0.85, 8.39, 60.60, -0.16
-0.09, -0.55, -0.85, 8.20, 60.73, 0.07
-0.09, -0.55, -0.85, 8.41, 60.85, -0.09
-0.09, -0.55, -0.85, 8.35, 60.34, 1.26
-0.09, -0.55, -0.85, 7.93, 60.93, 0.98
-0.08, -0.55, -0.85, 7.80, 60.78, 0.35
-0.10, -0.55, -0.85, 8.28, 60.41, 0.67
-0.08, -0.56, -0.85, 8.31, 59.94, -0.05
-0.09, -0.55, -0.84, 8.56, 60.78, 0.59
-0.09, -0.55, -0.86, 8.02, 60.74, 0.29
-0.09, -0.55, -0.85, 8.22, 60.36, 0.01
-0.09, -0.55, -0.85, 7.25, 60.56, -0.59
