x_acc, y_acc, z_acc, x_mag, y_mag, z_mag 
-0.66, 0.72, 0.12, -26.06, 5.64, -15.92
-0.71, 0.70, 0.10, -25.94, 5.77, -16.32
-0.60, 0.67, 0.18, -26.49, 6.15, -16.87
-0.70, 0.67, 0.10, -26.17, 6.36, -16.88
-0.70, 0.71, 0.11, -25.77, 6.59, -16.30
-0.72, 0.62, 0.20, -26.33, 6.69, -16.14
-0.68, 0.73, 0.13, -26.01, 6.42, -17.08
-0.60, 0.76, -0.04, -25.81, 6.49, -16.24
-0.62, 0.73, 0.07, -26.04, 6.02, -14.76
-0.68, 0.71, 0.11, -25.71, 5.16, -14.79
-0.67, 0.73, 0.12, -26.14, 6.01, -14.34
-0.71, 0.74, 0.07, -26.26, 5.82, -15.19
-0.65, 0.72, 0.11, -26.16, 5.77, -14.51
-0.69, 0.76, 0.07, -26.45, 5.74, -14.75
-0.67, 0.73, 0.08, -25.84, 5.65, -14.77
-0.67, 0.69, 0.11, -25.84, 5.81, -13.43
-0.69, 0.73, 0.07, -26.06, 5.36, -13.46
-0.67, 0.73, 0.08, -25.96, 4.88, -13.22
-0.66, 0.75, 0.07, -25.95, 4.90, -13.77
-0.67, 0.74, 0.06, -26.23, 5.20, -13.95
-0.66, 0.73, 0.08, -26.60, 5.76, -13.96
-0.68, 0.74, 0.05, -25.94, 5.30, -13.78
-0.66, 0.74, 0.08, -25.88, 5.16, -13.75
-0.66, 0.74, 0.08, -25.68, 5.93, -13.67
-0.67, 0.74, 0.06, -26.09, 4.98, -13.73
-0.66, 0.74, 0.09, -25.34, 5.94, -13.77
-0.65, 0.74, 0.08, -25.83, 5.47, -13.27
-0.67, 0.73, 0.08, -25.95, 5.75, -14.03
-0.65, 0.75, 0.08, -25.65, 5.74, -13.94
-0.67, 0.73, 0.08, -25.99, 6.07, -14.11
-0.67, 0.74, 0.06, -26.01, 5.64, -13.20
-0.68, 0.74, 0.06, -25.67, 5.71, -12.76
-0.66, 0.74, 0.08, -25.42, 5.55, -13.09
-0.68, 0.74, 0.07, -25.74, 5.73, -13.13
-0.66, 0.74, 0.08, -25.43, 5.88, -14.01
-0.66, 0.74, 0.08, -25.79, 5.04, -13.46
-0.67, 0.72, 0.08, -25.72, 5.30, -13.85
-0.66, 0.73, 0.10, -25.73, 5.59, -13.26
-0.67, 0.74, 0.06, -25.78, 5.49, -13.45
-0.67, 0.74, 0.08, -25.73, 5.79, -13.35
-0.66, 0.74, 0.07, -25.94, 5.63, -12.28
-0.66, 0.75, 0.08, -25.18, 5.55, -13.54
-0.67, 0.74, 0.07, -25.49, 5.52, -13.76
-0.66, 0.74, 0.08, -25.60, 5.20, -13.48
-0.67, 0.74, 0.07, -25.87, 5.32, -13.23
-0.66, 0.74, 0.08, -25.63, 5.32, -12.90
-0.67, 0.74, 0.06, -25.34, 5.00, -13.99
-0.66, 0.74, 0.08, -25.87, 5.71, -13.94
-0.66, 0.74, 0.09, -25.88, 5.46, -13.94
-0.67, 0.73, 0.08, -25.59, 5.33, -12.79
-0.66, 0.75, 0.09, -25.77, 5.52, -14.33
-0.67, 0.73, 0.08, -26.04, 5.86, -13.43
-0.67, 0.73, 0.09, -25.51, 5.30, -14.20
-0.67, 0.75, 0.08, -25.61, 4.96, -14.94
-0.66, 0.73, 0.09, -25.37, 4.97, -14.48
-0.67, 0.73, 0.07, -25.90, 5.69, -13.16
-0.66, 0.73, 0.08, -26.22, 5.04, -13.70
-0.66, 0.73, 0.10, -25.45, 5.26, -12.99
-0.66, 0.75, 0.08, -25.51, 5.36, -13.98
-0.68, 0.73, 0.08, -25.28, 5.38, -13.92
-0.66, 0.73, 0.08, -25.49, 5.59, -14.92
-0.67, 0.73, 0.09, -25.60, 5.10, -13.44
-0.67, 0.74, 0.08, -25.65, 5.31, -13.17
-0.68, 0.73, 0.07, -25.83, 5.09, -13.13
-0.67, 0.73, 0.09, -26.04, 5.64, -14.03
-0.66, 0.73, 0.09, -25.84, 5.75, -13.26
-0.66, 0.74, 0.08, -25.72, 5.57, -12.74
-0.67, 0.74, 0.08, -26.32, 5.22, -13.82
-0.66, 0.72, 0.09, -25.84, 5.57, -14.06
-0.67, 0.73, 0.09, -25.70, 5.80, -13.90
-0.68, 0.73, 0.09, -25.78, 5.35, -13.93
-0.67, 0.73, 0.08, -25.88, 5.96, -14.23
-0.67, 0.73, 0.08, -25.77, 5.63, -14.01
-0.67, 0.73, 0.09, -25.81, 5.44, -13.38
-0.68, 0.73, 0.08, -26.10, 5.05, -12.90
-0.67, 0.74, 0.08, -25.78, 5.25, -13.31
-0.67, 0.73, 0.08, -25.40, 5.43, -13.42
-0.66, 0.72, 0.09, -25.71, 5.86, -13.04
-0.67, 0.73, 0.08, -25.71, 4.79, -13.70
-0.66, 0.72, 0.07, -25.93, 4.87, -13.67
-0.68, 0.74, 0.08, -26.38, 5.46, -13.29
-0.67, 0.74, 0.09, -25.84, 5.59, -13.84
-0.67, 0.73, 0.08, -25.11, 5.08, -13.45
-0.68, 0.74, 0.07, -25.51, 5.02, -13.00
-0.67, 0.73, 0.08, -25.85, 5.33, -13.62
-0.66, 0.73, 0.09, -25.78, 5.54, -14.36
-0.67, 0.73, 0.07, -25.40, 5.18, -14.09
-0.67, 0.73, 0.07, -26.39, 5.59, -13.49
-0.68, 0.74, 0.07, -26.14, 4.77, -14.07
-0.67, 0.73, 0.07, -25.45, 4.97, -13.13
-0.67, 0.73, 0.08, -25.89, 5.22, -13.49
-0.67, 0.73, 0.07, -26.07, 5.08, -12.15
-0.67, 0.73, 0.07, -26.33, 4.69, -13.98
-0.68, 0.74, 0.06, -25.95, 5.13, -14.15
-0.67, 0.73, 0.08, -26.01, 5.26, -12.99
-0.67, 0.74, 0.07, -26.31, 5.15, -14.50
-0.68, 0.74, 0.06, -25.92, 5.46, -14.60
-0.66, 0.73, 0.08, -25.44, 5.32, -13.43
-0.67, 0.73, 0.07, -25.81, 5.57, -12.44
-0.66, 0.74, 0.07, -25.79, 5.08, -13.13
-0.67, 0.73, 0.07, -25.60, 5.32, -13.67
-0.67, 0.75, 0.05, -25.88, 5.08, -12.50
-0.67, 0.74, 0.06, -25.66, 5.05, -13.04
-0.67, 0.73, 0.06, -25.38, 5.83, -13.50
-0.67, 0.73, 0.07, -25.74, 5.27, -12.34
-0.67, 0.74, 0.06, -25.37, 4.93, -13.15
-0.67, 0.73, 0.07, -25.76, 4.88, -12.52
-0.67, 0.74, 0.06, -26.44, 4.63, -12.55
-0.67, 0.75, 0.06, -25.76, 5.59, -11.87
-0.65, 0.74, 0.08, -25.94, 5.40, -13.28
-0.67, 0.74, 0.06, -25.93, 5.09, -13.72
-0.66, 0.73, 0.07, -25.79, 5.31, -12.71
-0.68, 0.74, 0.06, -25.45, 4.92, -12.63
-0.66, 0.74, 0.07, -25.85, 5.46, -12.45
-0.66, 0.73, 0.07, -25.70, 5.43, -12.60
-0.67, 0.74, 0.07, -25.83, 5.25, -14.11
-0.67, 0.74, 0.06, -25.92, 5.76, -12.68
-0.66, 0.73, 0.07, -25.92, 5.55, -12.28
-0.66, 0.74, 0.07, -25.56, 5.51, -13.22
-0.67, 0.73, 0.07, -26.48, 5.07, -13.04
-0.66, 0.74, 0.08, -26.07, 5.38, -12.60
-0.68, 0.74, 0.07, -26.00, 5.55, -12.92
-0.65, 0.74, 0.08, -25.79, 5.35, -13.13
-0.68, 0.73, 0.06, -26.26, 5.30, -13.11
-0.67, 0.74, 0.06, -26.03, 5.54, -13.49
-0.67, 0.73, 0.07, -26.28, 5.32, -13.35
-0.67, 0.74, 0.06, -25.66, 5.18, -13.49
-0.67, 0.73, 0.08, -25.66, 5.35, -14.07
-0.67, 0.74, 0.06, -26.21, 5.29, -12.15
-0.67, 0.73, 0.08, -26.16, 5.15, -12.81
-0.67, 0.74, 0.07, -25.77, 5.21, -12.82
-0.68, 0.73, 0.06, -25.78, 5.25, -12.57
-0.67, 0.73, 0.07, -25.62, 5.40, -13.12
-0.66, 0.74, 0.07, -26.01, 5.48, -13.15
-0.67, 0.73, 0.07, -26.10, 5.38, -13.67
-0.68, 0.75, 0.05, -25.70, 5.46, -13.87
-0.67, 0.73, 0.07, -25.66, 5.20, -13.24
-0.67, 0.74, 0.06, -25.74, 5.87, -13.35
-0.66, 0.73, 0.08, -25.89, 5.75, -13.65
-0.67, 0.73, 0.07, -25.89, 5.97, -12.44
-0.67, 0.73, 0.06, -26.25, 5.63, -13.02
-0.66, 0.74, 0.07, -25.92, 5.36, -11.62
-0.67, 0.75, 0.06, -25.89, 4.88, -14.00
-0.67, 0.74, 0.04, -25.74, 4.98, -13.37
-0.67, 0.73, 0.07, -26.26, 5.52, -12.50
-0.67, 0.74, 0.07, -26.28, 5.88, -12.61
-0.67, 0.73, 0.07, -26.00, 5.43, -13.17
-0.67, 0.73, 0.07, -26.29, 5.71, -12.85
-0.67, 0.73, 0.06, -25.89, 5.76, -13.38
-0.68, 0.73, 0.07, -25.95, 5.54, -13.05
-0.67, 0.73, 0.07, -25.70, 5.73, -13.55
-0.68, 0.73, 0.07, -25.73, 5.92, -13.37
-0.67, 0.73, 0.07, -26.06, 5.62, -12.74
-0.68, 0.74, 0.06, -25.82, 5.48, -13.29
-0.68, 0.73, 0.06, -26.35, 5.70, -13.09
-0.66, 0.74, 0.07, -26.28, 5.37, -13.50
-0.66, 0.73, 0.08, -25.48, 5.44, -14.15
-0.68, 0.74, 0.06, -26.03, 5.21, -13.17
-0.67, 0.74, 0.06, -25.51, 5.18, -12.72
-0.66, 0.73, 0.07, -26.53, 4.61, -13.43
-0.67, 0.75, 0.07, -26.04, 5.29, -13.27
-0.66, 0.74, 0.08, -26.38, 5.26, -13.43
-0.66, 0.72, 0.07, -25.73, 5.02, -12.63
-0.66, 0.74, 0.07, -25.96, 5.32, -12.68
-0.67, 0.74, 0.07, -25.98, 5.18, -13.43
-0.66, 0.75, 0.07, -26.01, 5.19, -13.40
-0.66, 0.74, 0.07, -26.15, 5.65, -12.71
-0.67, 0.74, 0.06, -26.03, 5.30, -13.50
-0.67, 0.73, 0.07, -26.31, 5.57, -13.54
-0.67, 0.74, 0.08, -25.82, 5.63, -13.34
-0.66, 0.74, 0.08, -25.85, 5.40, -14.05
-0.66, 0.74, 0.07, -26.34, 5.13, -13.42
-0.66, 0.74, 0.07, -25.98, 5.05, -13.72
-0.68, 0.75, 0.06, -26.04, 5.04, -12.73
-0.67, 0.75, 0.06, -26.09, 5.07, -12.81
-0.66, 0.74, 0.07, -25.85, 5.62, -12.76
-0.66, 0.73, 0.07, -26.04, 5.10, -12.76
-0.67, 0.74, 0.07, -25.94, 4.90, -13.90
-0.67, 0.74, 0.07, -25.95, 5.15, -13.83
-0.66, 0.71, 0.10, -26.57, 5.46, -13.77
-0.69, 0.74, 0.04, -25.84, 5.66, -12.56
-0.67, 0.75, 0.06, -26.46, 5.59, -13.28
-0.67, 0.73, 0.07, -25.93, 5.36, -13.22
-0.68, 0.73, 0.07, -26.10, 5.09, -12.54
-0.66, 0.74, 0.07, -25.85, 5.26, -13.53
-0.66, 0.73, 0.07, -26.28, 6.23, -13.46
-0.68, 0.72, 0.07, -26.35, 6.05, -13.73
-0.67, 0.73, 0.07, -26.45, 6.15, -13.77
-0.68, 0.73, 0.07, -25.77, 5.98, -13.94
-0.66, 0.74, 0.07, -26.56, 6.08, -13.33
-0.66, 0.73, 0.08, -26.28, 5.40, -12.96
-0.69, 0.75, 0.06, -25.77, 5.97, -13.55
-0.67, 0.73, 0.07, -26.42, 5.57, -14.28
-0.68, 0.72, 0.08, -25.96, 5.99, -13.70
-0.67, 0.73, 0.07, -26.57, 6.15, -13.76
-0.67, 0.73, 0.08, -26.25, 5.81, -13.33
-0.68, 0.74, 0.06, -26.28, 5.87, -12.61
-0.66, 0.73, 0.08, -25.96, 5.94, -13.32
-0.68, 0.73, 0.07, -25.55, 6.37, -13.51
-0.67, 0.74, 0.07, -25.78, 5.41, -13.09
